'p1','p2','p3'
0.20394936038849912,0.24,0.5560506396115009
0.2,0.2342987737159598,0.5657012262840402
0.19,0.23150081264296926,0.5784991873570308
0.18,0.2363518671264564,0.5836481328735437
0.17660785943479995,0.24,0.5833921405652001
0.1714773012383615,0.25,0.5785226987616385
0.17152009563823664,0.26,0.5684799043617633
0.18,0.26921686472284234,0.5507831352771577
0.19,0.267307578381611,0.542692421618389
0.19920129149752538,0.26,0.5407987085024746
0.2,0.25891089527402233,0.5410891047259777
0.20392070988887587,0.25,0.5460792901111241
0.20394936038849912,0.24,0.5560506396115009
