p1,p2,p3
0.0,0.493218281810591,0.506781718189409
0.00039849121235806034,0.493,0.506601508787642
0.001,0.4926705111099541,0.5063294888900459
0.002,0.4921227404093172,0.5058772595906829
0.0022240726077069613,0.492,0.505775927392293
0.003,0.49157496970868025,0.5054250302913197
0.004,0.49102719900804326,0.5049728009919567
0.0040496540030557585,0.491,0.5049503459969442
0.005,0.4904794283074063,0.5045205716925937
0.005875235398404548,0.49,0.5041247646015955
0.006,0.4899316576067694,0.5040683423932306
0.007,0.48938388690613244,0.5036161130938676
0.007700816793753418,0.489,0.5032991832062466
0.008,0.4888361162054955,0.5031638837945045
0.009,0.48828834550485856,0.5027116544951414
0.00952639818910225,0.488,0.5024736018108977
0.01,0.4877405748042216,0.5022594251957784
0.011,0.4871928041035847,0.5018071958964153
0.011351979584451076,0.487,0.5016480204155489
0.012,0.4866450334029477,0.5013549665970523
0.013,0.48609726270231074,0.5009027372976893
0.013177560979799885,0.486,0.5008224390202001
0.014,0.48554949200167385,0.5004505079983261
0.015,0.4850017213010369,0.4999982786989631
0.015003142375148801,0.485,0.49999685762485124
0.016,0.4844539506003999,0.49954604939960007
0.01682872377049759,0.484,0.4991712762295024
0.017,0.483906179899763,0.499093820100237
0.018,0.48335840919912604,0.49864159080087395
0.018654305165846395,0.483,0.4983456948341536
0.019,0.4828106384984891,0.4981893615015109
0.02,0.48226286779785216,0.4977371322021478
0.02047988656119529,0.482,0.49752011343880476
0.021,0.4817150970972152,0.49728490290278476
0.022,0.4811673263965783,0.4968326736034217
0.022305467956544117,0.481,0.4966945320434559
0.023,0.48061955569594134,0.49638044430405864
0.024,0.4800717849953044,0.4959282150046956
0.024131049351892926,0.48,0.4958689506481071
0.025,0.47952401429466746,0.4954759857053325
0.025956630747241777,0.479,0.49504336925275827
0.026,0.4789762435940305,0.49502375640596946
0.027,0.4784284728933936,0.4945715271066064
0.027782212142590575,0.478,0.49421778785740944
0.028,0.4778807021927566,0.4941192978072434
0.029,0.47733293149211964,0.49366706850788034
0.029607793537939416,0.477,0.4933922064620606
0.03,0.4767851607914827,0.4932148392085173
0.031,0.4762373900908458,0.49276260990915416
0.03143337493328833,0.476,0.49256662506671167
0.032,0.4756896193902089,0.4923103806097911
0.033,0.47514184868957193,0.49185815131042804
0.033258956328637165,0.475,0.49174104367136284
0.034,0.474594077988935,0.491405922011065
0.035,0.474046307288298,0.49095369271170197
0.035084537723985905,0.474,0.4909154622760141
0.036,0.47349853658766106,0.4905014634123389
0.03691011911933481,0.473,0.4900898808806652
0.037,0.4729507658870241,0.49004923411297585
0.038,0.4724029951863872,0.4895970048136128
0.03873570051468362,0.472,0.48926429948531636
0.039,0.47185522448575024,0.48914477551424973
0.04,0.4713074537851133,0.48869254621488667
0.04056128191003246,0.471,0.4884387180899675
0.041,0.47075968308447635,0.4882403169155236
0.042,0.4702119123838394,0.48778808761616055
0.04238686330538137,0.47,0.4876131366946187
0.043,0.46966414168320253,0.48733585831679743
0.044,0.4691163709825656,0.48688362901743437
0.04421244470073021,0.469,0.48678755529926987
0.045,0.4685686002819286,0.48643139971807137
0.046,0.4680208295812916,0.48597917041870836
0.046038026096078814,0.468,0.4859619739039212
0.047,0.46747305888065466,0.4855269411193453
0.04786360749142773,0.467,0.48513639250857227
0.048,0.4669252881800178,0.4850747118199822
0.049,0.46637751747938083,0.4846224825206191
0.049689188886776536,0.466,0.48431081111322344
0.05,0.46582974677874384,0.4841702532212561
0.051,0.4652819760781069,0.48371802392189306
0.05151477028212536,0.465,0.4834852297178746
0.052,0.46473420537746996,0.48326579462253
0.053,0.46418643467683307,0.4828135653231669
0.05334035167747428,0.464,0.48265964832252567
0.054,0.46363866397619613,0.4823613360238038
0.055,0.4630908932755592,0.48190910672444076
0.05516593307282311,0.463,0.48183406692717684
0.056,0.4625431225749222,0.48145687742507776
0.056991514468171856,0.462,0.4810084855318281
0.057,0.46199535187428525,0.4810046481257147
0.058,0.4614475811736483,0.48055241882635163
0.058817095863520824,0.461,0.4801829041364792
0.059,0.46089981047301143,0.48010018952698863
0.06,0.46035203977237443,0.4796479602276255
0.060642677258869654,0.46,0.47935732274113035
0.061,0.45980426907173755,0.4791957309282625
0.062,0.45925649837110055,0.4787435016288994
0.06246825865421846,0.459,0.4785317413457815
0.063,0.45870872767046367,0.4782912723295364
0.064,0.45816095696982667,0.47783904303017327
0.06429384004956733,0.458,0.4777061599504327
0.065,0.4576131862691898,0.47738681373081027
0.066,0.4570654155685528,0.47693458443144715
0.06611942144491612,0.457,0.47688057855508387
0.067,0.4565176448679159,0.47648235513208415
0.0679450028402649,0.456,0.47605499715973504
0.068,0.45596987416727885,0.4760301258327211
0.069,0.455422103466642,0.475577896533358
0.06977058423561384,0.455,0.4752294157643861
0.07,0.45487433276600503,0.4751256672339949
0.071,0.45432656206536814,0.4746734379346319
0.07159616563096272,0.454,0.47440383436903727
0.072,0.4537787913647312,0.47422120863526884
0.073,0.45323102066409426,0.4737689793359058
0.07342174702631155,0.453,0.47357825297368844
0.074,0.4526832499634573,0.4733167500365427
0.075,0.4521354792628204,0.47286452073717966
0.0752473284216604,0.452,0.4727526715783396
0.076,0.4515877085621834,0.47241229143781666
0.077,0.45103993786154645,0.4719600621384536
0.0770729098170092,0.451,0.4719270901829908
0.078,0.4504921671609095,0.47150783283909053
0.07889849121235806,0.45,0.47110150878764195
0.079,0.44994439646027257,0.4710556035397275
0.08,0.4493966257596356,0.4706033742403644
0.08072407260770693,0.449,0.470275927392293
0.081,0.4488488550589987,0.47015114494100135
0.082,0.44830108435836175,0.4696989156416383
0.08254965400305576,0.448,0.4694503459969442
0.083,0.4477533136577248,0.46924668634227523
0.084,0.44720554295708786,0.46879445704291217
0.0843752353984046,0.447,0.46862476460159536
0.085,0.4466577722564509,0.4683422277435491
0.086,0.446110001555814,0.46788999844418605
0.0862008167937534,0.446,0.46779918320624664
0.087,0.44556223085517704,0.467437769144823
0.088,0.4450144601545401,0.46698553984545993
0.08802639818910224,0.445,0.4669736018108977
0.089,0.44446668945390316,0.46653331054609687
0.08985197958445104,0.444,0.466148020415549
0.09,0.44391891875326617,0.46608108124673386
0.091,0.4433711480526292,0.4656288519473708
0.09167756097979989,0.443,0.46532243902020015
0.092,0.4428233773519923,0.46517662264800774
0.093,0.4422756066513554,0.4647243933486446
0.0935031423751488,0.442,0.4644968576248512
0.094,0.44172783595071846,0.46427216404928157
0.095,0.44118006525008147,0.46381993474991856
0.09532872377049757,0.441,0.4636712762295024
0.096,0.4406322945494445,0.4633677054505555
0.097,0.4400845238488076,0.46291547615119244
0.09715430516584637,0.44,0.46284569483415366
0.098,0.43953675314817064,0.4624632468518294
0.09897988656119529,0.439,0.4620201134388047
0.099,0.4389889824475337,0.4620110175524663
0.1,0.43844121174689676,0.46155878825310326
0.10080546795654409,0.438,0.4611945320434559
0.101,0.4378934410462598,0.4611065589537402
0.102,0.4373456703456229,0.46065432965437714
0.10263104935189292,0.437,0.46036895064810707
0.103,0.43679789964498594,0.4602021003550141
0.104,0.436250128944349,0.459749871055651
0.10445663074724183,0.436,0.4595433692527581
0.105,0.4357023582437121,0.4592976417562879
0.106,0.4351545875430751,0.4588454124569249
0.1062822121425906,0.435,0.4587177878574094
0.107,0.4346068168424382,0.45839318315756183
0.108,0.4340590461418012,0.45794095385819883
0.10810779353793941,0.434,0.4578922064620606
0.109,0.4335112754411643,0.4574887245588357
0.10993337493328832,0.433,0.45706662506671164
0.11,0.43296350474052736,0.45703649525947265
0.111,0.4324157340398904,0.4565842659601096
0.11175895632863714,0.432,0.4562410436713628
0.112,0.4318679633392534,0.4561320366607466
0.113,0.4313201926386165,0.4556798073613835
0.11358453772398597,0.431,0.4554154622760141
0.114,0.4307724219379796,0.4552275780620204
0.115,0.4302246512373426,0.4547753487626574
0.1154101191193348,0.43,0.45458988088066515
0.116,0.42967688053670566,0.45432311946329434
0.117,0.4291291098360687,0.4538708901639313
0.11723570051468361,0.429,0.45376429948531644
0.118,0.4285813391354318,0.4534186608645682
0.119,0.42803356843479484,0.45296643156520516
0.11906128191003244,0.428,0.4529387180899676
0.12,0.4274857977341579,0.4525142022658421
0.12088686330538137,0.427,0.45211313669461867
0.121,0.426938027033521,0.452061972966479
0.122,0.426390256332884,0.451609743667116
0.12271244470073017,0.426,0.45128755529926984
0.123,0.4258424856322471,0.4511575143677529
0.124,0.42529471493161014,0.45070528506838986
0.12453802609607897,0.425,0.450461973903921
0.125,0.4247469442309732,0.4502530557690268
0.126,0.42419917353033626,0.44980082646966374
0.12636360749142783,0.424,0.4496363925085722
0.127,0.4236514028296993,0.4493485971703007
0.128,0.4231036321290623,0.4488963678709377
0.12818918888677663,0.423,0.44881081111322335
0.129,0.42255586142842544,0.44844413857157456
0.13,0.4220080907277885,0.4479919092722115
0.1300147702821255,0.422,0.4479852297178745
0.131,0.42146032002715156,0.44753967997284844
0.13184035167747435,0.421,0.4471596483225257
0.132,0.4209125493265146,0.4470874506734854
0.133,0.4203647786258777,0.4466352213741223
0.1336659330728232,0.42,0.44633406692717686
0.134,0.41981700792524074,0.44618299207475925
0.135,0.41926923722460374,0.44573076277539625
0.13549151446817198,0.419,0.44550848553182804
0.136,0.4187214665239668,0.4452785334760332
0.137,0.41817369582332986,0.44482630417667013
0.1373170958635208,0.418,0.4446829041364792
0.138,0.4176259251226929,0.44437407487730707
0.139,0.417078154422056,0.443921845577944
0.1391426772588697,0.417,0.44385732274113027
0.14,0.41653038372141904,0.44346961627858095
0.14096825865421855,0.416,0.44303174134578144
0.141,0.4159826130207821,0.4430173869792179
0.142,0.41543484232014516,0.4425651576798548
0.14279384004956733,0.415,0.4422061599504327
0.143,0.4148870716195082,0.44211292838049177
0.144,0.4143393009188713,0.4416606990811287
0.1446194214449162,0.414,0.4413805785550838
0.145,0.41379153021823434,0.44120846978176564
0.146,0.4132437595175974,0.4407562404824026
0.14644500284026502,0.413,0.44055499715973495
0.147,0.41269598881696046,0.4403040111830395
0.148,0.4121482181163235,0.43985178188367646
0.14827058423561384,0.412,0.43972941576438623
0.149,0.4116004474156866,0.4393995525843134
0.15,0.41105267671504964,0.43894732328495034
0.15009616563096273,0.411,0.4389038343690373
0.151,0.4105049060144127,0.4384950939855873
0.15192174702631156,0.41,0.43807825297368846
0.152,0.40995713531377576,0.4380428646862242
0.153,0.4094093646131388,0.43759063538686116
0.15374732842166036,0.409,0.43725267157833964
0.154,0.4088615939125018,0.43713840608749815
0.155,0.4083138232118649,0.4366861767881351
0.15557290981700925,0.408,0.4364270901829908
0.156,0.40776605251122794,0.43623394748877203
0.157,0.407218281810591,0.435781718189409
0.15739849121235802,0.407,0.435601508787642
0.158,0.4066705111099541,0.43532948889004586
0.159,0.4061227404093172,0.4348772595906828
0.15922407260770682,0.406,0.4347759273922932
0.16,0.4055749697086802,0.4344250302913198
0.161,0.40502719900804324,0.43397280099195673
0.16104965400305563,0.405,0.4339503459969444
0.162,0.4044794283074063,0.43352057169259367
0.16287523539840448,0.404,0.43312476460159555
0.163,0.40393165760676936,0.4330683423932306
0.164,0.4033838869061324,0.43261611309386755
0.16470081679375337,0.403,0.4322991832062466
0.165,0.4028361162054955,0.4321638837945045
0.166,0.40228834550485854,0.43171165449514143
0.16652639818910214,0.402,0.4314736018108979
0.167,0.4017405748042216,0.43125942519577837
0.168,0.40119280410358465,0.4308071958964153
0.16835197958445097,0.401,0.43064802041554895
0.169,0.4006450334029477,0.43035496659705225
0.17,0.4000972627023108,0.4299027372976892
0.17017756097979983,0.4,0.4298224390202001
0.171,0.39954949200167383,0.4294505079983261
0.172,0.39900172130103695,0.4289982786989631
0.1720031423751488,0.399,0.4289968576248512
0.173,0.39845395060039995,0.4285460493996
0.17382872377049757,0.398,0.42817127622950235
0.174,0.397906179899763,0.42809382010023705
0.175,0.397358409199126,0.42764159080087394
0.17565430516584637,0.397,0.42734569483415363
0.176,0.39681063849848913,0.42718936150151093
0.177,0.39626286779785214,0.4267371322021478
0.17747988656119518,0.396,0.4265201134388048
0.178,0.39571509709721525,0.4262849029027848
0.179,0.39516732639657826,0.4258326736034217
0.17930546795654403,0.395,0.425694532043456
0.18,0.39461955569594137,0.4253804443040587
0.181,0.3940717849953044,0.4249282150046956
0.1811310493518928,0.394,0.42486895064810715
0.182,0.3935240142946675,0.42447598570533257
0.18295663074724172,0.393,0.4240433692527583
0.183,0.3929762435940305,0.42402375640596945
0.184,0.3924284728933936,0.42357152710660645
0.18478221214259052,0.392,0.4232177878574095
0.185,0.3918807021927566,0.42311929780724333
0.186,0.3913329314921197,0.4226670685078804
0.18660779353793933,0.391,0.42239220646206066
0.187,0.3907851607914827,0.42221483920851727
0.188,0.39023739009084585,0.4217626099091542
0.18843337493328827,0.39,0.4215666250667117
0.189,0.38968961939020885,0.4213103806097911
0.19,0.3891418486895719,0.42085815131042814
0.1902589563286371,0.389,0.4207410436713629
0.191,0.3885940779889349,0.420405922011065
0.192,0.38804630728829803,0.419953692711702
0.19208453772398595,0.388,0.41991546227601406
0.193,0.3874985365876611,0.41950146341233885
0.19391011911933487,0.387,0.4190898808806651
0.194,0.3869507658870242,0.41904923411297584
0.195,0.3864029951863872,0.4185970048136127
0.1957357005146836,0.386,0.4182642994853164
0.196,0.38585522448575027,0.4181447755142498
0.197,0.3853074537851133,0.41769254621488666
0.19756128191003242,0.385,0.4174387180899676
0.198,0.3847596830844764,0.41724031691552366
0.199,0.3842119123838394,0.41678808761616054
0.19938686330538127,0.384,0.41661313669461875
0.2,0.3836641416832025,0.41633585831679754
0.201,0.3831163709825655,0.4158836290174344
0.2012124447007301,0.383,0.4157875552992699
0.202,0.38256860028192863,0.4154313997180714
0.203,0.38202082958129163,0.4149791704187083
0.2030380260960789,0.382,0.4149619739039211
0.204,0.38147305888065475,0.4145269411193453
0.2048636074914278,0.381,0.41413639250857215
0.205,0.38092528818001775,0.4140747118199823
0.206,0.3803775174793808,0.41362248252061923
0.20668918888677662,0.38,0.41331081111322343
0.207,0.37982974677874387,0.41317025322125617
0.208,0.379281976078107,0.41271802392189305
0.20851477028212548,0.379,0.4124852297178745
0.209,0.37873420537747005,0.41226579462253
0.21,0.3781864346768331,0.41181356532316693
0.2103403516774744,0.378,0.41165964832252555
0.211,0.37763866397619616,0.41136133602380387
0.212,0.3770908932755592,0.4109091067244408
0.2121659330728232,0.377,0.41083406692717683
0.213,0.3765431225749223,0.41045687742507775
0.21399151446817205,0.376,0.4100084855318279
0.214,0.37599535187428534,0.4100046481257147
0.215,0.37544758117364835,0.4095524188263517
0.21581709586352077,0.375,0.4091829041364792
0.216,0.3748998104730114,0.4091001895269886
0.217,0.37435203977237447,0.40864796022762556
0.21764267725886968,0.374,0.40835732274113035
0.218,0.3738042690717375,0.4081957309282625
0.219,0.3732564983711006,0.40774350162889944
0.2194682586542185,0.373,0.4075317413457815
0.22,0.37270872767046365,0.4072912723295364
0.221,0.3721609569698267,0.4068390430301733
0.22129384004956731,0.372,0.4067061599504327
0.222,0.37161318626918977,0.40638681373081026
0.223,0.3710654155685528,0.4059345844314472
0.22311942144491623,0.371,0.40588057855508375
0.224,0.3705176448679159,0.40548235513208414
0.22494500284026508,0.37,0.4050549971597349
0.225,0.36996987416727894,0.4050301258327211
0.226,0.36942210346664195,0.4045778965333581
0.22677058423561383,0.369,0.4042294157643862
0.227,0.368874332766005,0.404125667233995
0.228,0.36832656206536807,0.40367343793463195
0.22859616563096272,0.368,0.40340383436903726
0.229,0.3677787913647312,0.40322120863526884
0.23,0.36723102066409424,0.4027689793359058
0.23042174702631155,0.367,0.40257825297368843
0.231,0.36668324996345725,0.40231675003654277
0.232,0.3661354792628203,0.4018645207371797
0.23224732842166038,0.366,0.4017526715783396
0.233,0.36558770856218337,0.40141229143781665
0.234,0.3650399378615465,0.40096006213845353
0.2340729098170093,0.365,0.40092709018299066
0.235,0.3644921671609095,0.4005078328390905
0.23589849121235804,0.364,0.40010150878764195
0.236,0.36394439646027255,0.40005560353972747
0.237,0.3633966257596356,0.3996033742403644
0.23772407260770687,0.363,0.3992759273922931
0.238,0.36284885505899866,0.39915114494100135
0.239,0.3623010843583617,0.3986989156416383
0.23954965400305575,0.362,0.3984503459969443
0.24,0.3617533136577248,0.3982466863422752
0.241,0.36120554295708784,0.39779445704291216
0.24137523539840458,0.361,0.39762476460159546
0.242,0.3606577722564509,0.3973422277435491
0.243,0.36011000155581396,0.39688999844418604
0.24320081679375338,0.36,0.39679918320624663
0.244,0.359562230855177,0.396437769144823
0.245,0.3590144601545401,0.3959855398454599
0.2450263981891023,0.359,0.3959736018108977
0.246,0.35846668945390314,0.39553331054609686
0.24685197958445104,0.358,0.395148020415549
0.247,0.35791891875326615,0.39508108124673386
0.248,0.3573711480526292,0.3946288519473708
0.24867756097979987,0.357,0.39432243902020014
0.249,0.35682337735199227,0.39417662264800774
0.25,0.3562756066513554,0.3937243933486446
0.2505031423751488,0.356,0.3934968576248512
0.251,0.35572783595071844,0.39327216404928156
0.252,0.3551800652500815,0.3928199347499185
0.25232872377049764,0.355,0.3926712762295024
0.253,0.35463229454944456,0.39236770545055544
0.254,0.35408452384880756,0.39191547615119243
0.2541543051658464,0.354,0.39184569483415366
0.255,0.3535367531481706,0.39146324685182937
0.2559798865611953,0.353,0.3910201134388047
0.256,0.3529889824475337,0.3910110175524663
0.257,0.35244121174689674,0.39055878825310325
0.2578054679565441,0.352,0.390194532043456
0.258,0.3518934410462598,0.3901065589537402
0.259,0.35134567034562286,0.38965432965437713
0.25963104935189296,0.351,0.38936895064810706
0.26,0.3507978996449859,0.38920210035501407
0.261,0.350250128944349,0.388749871055651
0.26145663074724185,0.35,0.3885433692527581
0.262,0.34970235824371204,0.38829764175628795
0.263,0.3491545875430751,0.3878454124569249
0.2632822121425906,0.349,0.3877177878574094
0.264,0.34860681684243816,0.3873931831575618
0.265,0.34805904614180116,0.3869409538581988
0.26510779353793945,0.348,0.3868922064620606
0.266,0.3475112754411642,0.38648872455883576
0.2669333749332883,0.347,0.38606662506671174
0.267,0.3469635047405273,0.3860364952594727
0.268,0.34641573403989034,0.38558426596010964
0.26875895632863717,0.346,0.3852410436713628
0.269,0.3458679633392534,0.3851320366607466
0.27,0.34532019263861646,0.3846798073613835
0.270584537723986,0.345,0.3844154622760141
0.271,0.3447724219379795,0.38422757806202046
0.272,0.3442246512373426,0.3837753487626574
0.2724101191193348,0.344,0.38358988088066515
0.273,0.3436768805367057,0.3833231194632943
0.274,0.34312910983606876,0.3828708901639312
0.2742357005146836,0.343,0.3827642994853164
0.275,0.34258133913543176,0.3824186608645682
0.276,0.3420335684347948,0.38196643156520516
0.2760612819100324,0.342,0.38193871808996765
0.277,0.3414857977341579,0.3815142022658421
0.27788686330538126,0.341,0.3811131366946187
0.278,0.34093802703352094,0.38106197296647903
0.279,0.340390256332884,0.380609743667116
0.2797124447007301,0.34,0.3802875552992699
0.28,0.33984248563224706,0.3801575143677529
0.281,0.3392947149316101,0.37970528506838985
0.2815380260960789,0.339,0.37946197390392106
0.282,0.3387469442309732,0.3792530557690268
0.283,0.3381991735303363,0.3788008264696638
0.2833636074914278,0.338,0.3786363925085721
0.284,0.3376514028296993,0.37834859717030067
0.285,0.3371036321290624,0.37789636787093767
0.28518918888677663,0.337,0.3778108111132234
0.286,0.33655586142842536,0.3774441385715746
0.287,0.33600809072778853,0.37699190927221155
0.28701477028212546,0.336,0.37698522971787446
0.288,0.33546032002715154,0.37653967997284843
0.2888403516774743,0.335,0.37615964832252574
0.289,0.33491254932651465,0.3760874506734854
0.29,0.33436477862587766,0.3756352213741223
0.2906659330728232,0.334,0.3753340669271768
0.291,0.33381700792524077,0.3751829920747593
0.292,0.3332692372246037,0.37473076277539624
0.29249151446817195,0.333,0.3745084855318281
0.293,0.33272146652396684,0.37427853347603324
0.294,0.3321736958233299,0.37382630417667007
0.29431709586352084,0.332,0.37368290413647914
0.295,0.33162592512269295,0.3733740748773071
0.296,0.33107815442205596,0.372921845577944
0.29614267725886956,0.331,0.3728573227411304
0.297,0.3305303837214191,0.372469616278581
0.2979682586542184,0.33,0.3720317413457816
0.298,0.3299826130207821,0.3720173869792179
0.299,0.3294348423201452,0.3715651576798549
0.2997938400495673,0.329,0.37120615995043277
0.3,0.3288870716195082,0.37111292838049176
0.301,0.3283393009188713,0.37066069908112875
0.30161942144491616,0.328,0.37038057855508383
0.302,0.3277915302182343,0.37020846978176564
0.303,0.32724375951759743,0.36975624048240263
0.30344500284026504,0.327,0.3695549971597349
0.304,0.32669598881696044,0.3693040111830395
0.305,0.32614821811632355,0.3688517818836765
0.3052705842356138,0.326,0.36872941576438617
0.306,0.32560044741568656,0.3683995525843134
0.307,0.32505267671504967,0.3679473232849504
0.3070961656309627,0.325,0.36790383436903723
0.308,0.3245049060144126,0.36749509398558733
0.3089217470263115,0.324,0.3670782529736885
0.309,0.32395713531377573,0.3670428646862243
0.31,0.3234093646131388,0.36659063538686115
0.31074732842166036,0.323,0.3662526715783396
0.311,0.32286159391250185,0.3661384060874982
0.312,0.32231382321186486,0.3656861767881351
0.31257290981700914,0.322,0.36542709018299085
0.313,0.321766052511228,0.3652339474887721
0.314,0.321218281810591,0.36478171818940897
0.314398491212358,0.321,0.3646015087876419
0.315,0.3206705111099541,0.36432948889004596
0.316,0.3201227404093171,0.36387725959068284
0.31622407260770685,0.32,0.3637759273922932
0.317,0.3195749697086802,0.36342503029131984
0.318,0.3190271990080432,0.3629728009919567
0.3180496540030556,0.319,0.36295034599694437
0.319,0.31847942830740633,0.3625205716925937
0.3198752353984045,0.318,0.36212476460159554
0.32,0.31793165760676934,0.3620683423932306
0.321,0.31738388690613245,0.3616161130938676
0.32170081679375334,0.317,0.3612991832062466
0.322,0.31683611620549545,0.3611638837945045
0.323,0.31628834550485857,0.3607116544951415
0.32352639818910217,0.316,0.3604736018108979
0.324,0.3157405748042216,0.36025942519577836
0.325,0.31519280410358463,0.3598071958964154
0.325351979584451,0.315,0.35964802041554894
0.326,0.31464503340294764,0.3593549665970523
0.327,0.3140972627023108,0.35890273729768923
0.32717756097979994,0.314,0.3588224390202
0.328,0.3135494920016738,0.3584505079983261
0.329,0.31300172130103693,0.3579982786989631
0.3290031423751488,0.313,0.3579968576248512
0.33,0.3124539506003999,0.35754604939960005
0.3308287237704976,0.312,0.35717127622950234
0.331,0.311906179899763,0.35709382010023705
0.332,0.311358409199126,0.35664159080087393
0.33265430516584643,0.311,0.3563456948341536
0.333,0.3108106384984891,0.3561893615015109
0.334,0.3102628677978521,0.3557371322021478
0.3344798865611952,0.31,0.3555201134388048
0.335,0.30971509709721523,0.3552849029027848
0.336,0.30916732639657823,0.3548326736034217
0.33630546795654404,0.309,0.35469453204345597
0.337,0.30861955569594135,0.3543804443040587
0.338,0.30807178499530435,0.35392821500469557
0.3381310493518928,0.308,0.35386895064810725
0.339,0.30752401429466747,0.35347598570533256
0.33995663074724175,0.307,0.3530433692527583
0.34,0.3069762435940305,0.35302375640596945
0.341,0.3064284728933936,0.35257152710660644
0.34178221214259064,0.306,0.35221778785740937
0.342,0.3058807021927566,0.3521192978072433
0.343,0.3053329314921197,0.3516670685078803
0.34360779353793947,0.305,0.35139220646206054
0.344,0.30478516079148277,0.35121483920851726
0.345,0.3042373900908458,0.3507626099091542
0.3454333749332883,0.304,0.3505666250667117
0.346,0.3036896193902089,0.35031038060979114
0.347,0.30314184868957195,0.3498581513104281
0.3472589563286371,0.303,0.3497410436713629
0.348,0.30259407798893495,0.3494059220110651
0.349,0.302046307288298,0.348953692711702
0.34908453772398595,0.302,0.34891546227601405
0.35,0.30149853658766107,0.34850146341233895
0.3509101191193348,0.301,0.3480898808806652
0.351,0.30095076588702413,0.3480492341129759
0.352,0.3004029951863872,0.34759700481361283
0.3527357005146836,0.3,0.3472642994853164
0.353,0.29985522448575025,0.34714477551424977
0.354,0.2993074537851133,0.3466925462148867
0.35456128191003244,0.299,0.34643871808996757
0.355,0.29875968308447637,0.34624031691552365
0.356,0.29821191238383943,0.3457880876161606
0.35638686330538133,0.298,0.34561313669461874
0.357,0.2976641416832025,0.34533585831679753
0.358,0.29711637098256555,0.34488362901743447
0.3582124447007301,0.297,0.3447875552992699
0.359,0.2965686002819286,0.3444313997180714
0.36,0.29602082958129167,0.34397917041870835
0.360038026096079,0.296,0.3439619739039211
0.361,0.2954730588806547,0.3435269411193453
0.3618636074914278,0.295,0.34313639250857214
0.362,0.2949252881800178,0.3430747118199822
0.363,0.2943775174793808,0.3426224825206192
0.36368918888677665,0.294,0.3423108111132234
0.364,0.2938297467787439,0.3421702532212561
0.365,0.29328197607810697,0.34171802392189304
0.3655147702821255,0.293,0.3414852297178745
0.366,0.29273420537746997,0.34126579462253004
0.367,0.2921864346768331,0.3408135653231669
0.3673403516774743,0.292,0.34065964832252577
0.368,0.2916386639761961,0.3403613360238039
0.369,0.29109089327555915,0.33990910672444086
0.36916593307282314,0.291,0.3398340669271768
0.37,0.2905431225749222,0.3394568774250778
0.370991514468172,0.29,0.339008485531828
0.371,0.2899953518742853,0.3390046481257147
0.372,0.2894475811736484,0.3385524188263516
0.37281709586352085,0.289,0.33818290413647917
0.373,0.2888998104730114,0.3381001895269886
0.374,0.28835203977237445,0.33764796022762555
0.3746426772588697,0.288,0.33735732274113034
0.375,0.2878042690717375,0.3371957309282625
0.376,0.28725649837110057,0.33674350162889943
0.3764682586542185,0.287,0.3365317413457815
0.377,0.2867087276704636,0.3362912723295364
0.378,0.2861609569698267,0.3358390430301733
0.37829384004956734,0.286,0.3357061599504327
0.379,0.28561318626918974,0.33538681373081025
0.38,0.2850654155685528,0.3349345844314472
0.38011942144491623,0.285,0.33488057855508385
0.381,0.28451764486791586,0.33448235513208413
0.3819450028402651,0.284,0.3340549971597349
0.382,0.2839698741672789,0.33403012583272107
0.383,0.283422103466642,0.333577896533358
0.3837705842356139,0.283,0.3332294157643862
0.384,0.282874332766005,0.333125667233995
0.385,0.2823265620653681,0.3326734379346319
0.3855961656309627,0.282,0.33240383436903725
0.386,0.28177879136473116,0.3322212086352688
0.387,0.2812310206640942,0.33176897933590577
0.38742174702631144,0.281,0.3315782529736885
0.388,0.2806832499634572,0.33131675003654276
0.389,0.2801354792628203,0.3308645207371797
0.38924732842166027,0.28,0.33075267157833976
0.39,0.27958770856218335,0.33041229143781664
0.391,0.2790399378615464,0.3299600621384536
0.39107290981700915,0.279,0.3299270901829908
0.392,0.27849216716090947,0.3295078328390905
0.392898491212358,0.278,0.329101508787642
0.393,0.2779443964602725,0.32905560353972746
0.394,0.2773966257596356,0.3286033742403644
0.3947240726077068,0.277,0.32827592739229317
0.395,0.27684885505899864,0.32815114494100134
0.396,0.2763010843583617,0.3276989156416383
0.39654965400305564,0.276,0.32745034599694434
0.397,0.27575331365772476,0.3272466863422752
0.398,0.2752055429570878,0.32679445704291216
0.39837523539840447,0.275,0.3266247646015955
0.399,0.2746577722564509,0.3263422277435491
0.4,0.27411000155581394,0.32588999844418604
0.4002008167937533,0.274,0.3257991832062467
0.401,0.273562230855177,0.325437769144823
0.402,0.27301446015454006,0.3249855398454599
0.40202639818910213,0.273,0.32497360181089785
0.403,0.2724666894539031,0.32453331054609685
0.403851979584451,0.272,0.3241480204155489
0.404,0.2719189187532662,0.3240810812467338
0.405,0.27137114805262924,0.32362885194737073
0.40567756097979984,0.271,0.3233224390202002
0.406,0.2708233773519923,0.32317662264800767
0.407,0.27027560665135536,0.3227243933486446
0.4075031423751487,0.27,0.32249685762485125
0.408,0.2697278359507184,0.32227216404928166
0.409,0.2691800652500815,0.3218199347499185
0.4093287237704975,0.269,0.32167127622950253
0.41,0.26863229454944454,0.32136770545055554
0.411,0.26808452384880754,0.3209154761511924
0.4111543051658463,0.268,0.3208456948341537
0.412,0.26753675314817066,0.3204632468518294
0.41297988656119516,0.267,0.3200201134388049
0.413,0.26698898244753366,0.3200110175524663
0.414,0.2664412117468968,0.3195587882531033
0.414805467956544,0.266,0.31919453204345594
0.415,0.2658934410462598,0.3191065589537402
0.416,0.2653456703456229,0.3186543296543772
0.4166310493518929,0.265,0.3183689506481071
0.417,0.2647978996449859,0.31820210035501406
0.418,0.264250128944349,0.31774987105565106
0.4184566307472417,0.264,0.3175433692527583
0.419,0.263702358243712,0.31729764175628794
0.42,0.26315458754307514,0.31684541245692494
0.4202822121425906,0.263,0.31671778785740934
0.421,0.26260681684243814,0.3163931831575618
0.422,0.26205904614180126,0.3159409538581988
0.4221077935379394,0.262,0.3158922064620606
0.423,0.26151127544116426,0.3154887245588357
0.42393337493328825,0.261,0.3150666250667117
0.424,0.2609635047405273,0.31503649525947275
0.425,0.2604157340398904,0.3145842659601096
0.42575895632863714,0.26,0.31424104367136285
0.426,0.2598679633392535,0.31413203666074657
0.427,0.25932019263861644,0.3136798073613835
0.4275845377239859,0.259,0.313415462276014
0.428,0.2587724219379796,0.31322757806202045
0.429,0.25822465123734256,0.3127753487626574
0.42941011911933474,0.258,0.3125898808806653
0.43,0.2576768805367057,0.3123231194632944
0.431,0.2571291098360687,0.31187089016393127
0.4312357005146836,0.257,0.31176429948531637
0.432,0.25658133913543185,0.3114186608645682
0.433,0.2560335684347948,0.31096643156520515
0.43306128191003235,0.256,0.31093871808996765
0.434,0.2554857977341579,0.31051420226584214
0.43488686330538123,0.255,0.3101131366946187
0.435,0.2549380270335209,0.310061972966479
0.436,0.25439025633288403,0.309609743667116
0.43671244470073006,0.254,0.30928755529927
0.437,0.25384248563224704,0.3091575143677529
0.438,0.25329471493161015,0.3087052850683899
0.43853802609607895,0.253,0.30846197390392105
0.439,0.25274694423097316,0.3082530557690268
0.44,0.2521991735303363,0.3078008264696638
0.44036360749142783,0.252,0.3076363925085721
0.441,0.2516514028296993,0.30734859717030066
0.442,0.2511036321290624,0.30689636787093766
0.44218918888677666,0.251,0.3068108111132234
0.443,0.2505558614284254,0.30644413857157454
0.444,0.2500080907277885,0.30599190927221154
0.4440147702821255,0.25,0.30598522971787445
0.445,0.2494603200271515,0.3055396799728485
0.4458403516774743,0.249,0.30515964832252573
0.446,0.2489125493265146,0.3050874506734854
0.447,0.2483647786258776,0.30463522137412236
0.44766593307282315,0.248,0.3043340669271768
0.448,0.2478170079252407,0.30418299207475935
0.449,0.2472692372246037,0.30373076277539623
0.449491514468172,0.247,0.3035084855318281
0.45,0.24672146652396684,0.3032785334760332
0.451,0.24617369582332985,0.3028263041766701
0.4513170958635208,0.246,0.30268290413647914
0.452,0.24562592512269296,0.30237407487730705
0.453,0.24507815442205594,0.301921845577944
0.4531426772588696,0.245,0.3018573227411304
0.454,0.24453038372141905,0.301469616278581
0.45496825865421847,0.244,0.3010317413457815
0.455,0.24398261302078206,0.30101738697921787
0.456,0.24343484232014517,0.30056515767985487
0.4567938400495673,0.243,0.30020615995043276
0.457,0.24288707161950818,0.30011292838049175
0.458,0.24233930091887126,0.2996606990811288
0.45861942144491613,0.242,0.2993805785550838
0.459,0.2417915302182343,0.29920846978176563
0.46,0.2412437595175974,0.2987562404824026
0.460445002840265,0.241,0.298554997159735
0.461,0.24069598881696042,0.2983040111830395
0.462,0.2401482181163235,0.29785178188367656
0.46227058423561385,0.24,0.29772941576438616
0.463,0.2396004474156865,0.2973995525843134
0.464,0.23905267671504962,0.29694732328495044
0.46409616563096273,0.239,0.2969038343690372
0.465,0.23850490601441263,0.29649509398558727
0.4659217470263116,0.238,0.2960782529736884
0.466,0.23795713531377574,0.2960428646862243
0.467,0.23740936461313872,0.2955906353868612
0.46774732842166034,0.237,0.2952526715783397
0.468,0.23686159391250183,0.2951384060874982
0.469,0.23631382321186492,0.29468617678813513
0.4695729098170092,0.236,0.29442709018299085
0.47,0.23576605251122798,0.2942339474887721
0.471,0.23521828181059104,0.293781718189409
0.47139849121235805,0.235,0.2936015087876419
0.472,0.2346705111099541,0.29332948889004595
0.473,0.23412274040931713,0.2928772595906829
0.4732240726077068,0.234,0.2927759273922932
0.474,0.2335749697086802,0.29242503029131983
0.475,0.23302719900804325,0.29197280099195677
0.47504965400305565,0.233,0.29195034599694436
0.476,0.23247942830740634,0.2915205716925937
0.47687523539840454,0.232,0.29112476460159553
0.477,0.2319316576067694,0.29106834239323065
0.478,0.23138388690613243,0.2906161130938676
0.47870081679375337,0.231,0.2902991832062466
0.479,0.2308361162054955,0.29016388379450453
0.48,0.23028834550485855,0.28971165449514147
0.4805263981891022,0.23,0.2894736018108979
0.481,0.2297405748042216,0.2892594251957784
0.482,0.22919280410358467,0.28880719589641535
0.4823519795844511,0.229,0.28864802041554893
0.483,0.22864503340294773,0.2883549665970523
0.484,0.22809726270231076,0.2879027372976892
0.48417756097979986,0.228,0.2878224390202002
0.485,0.22754949200167382,0.28745050799832617
0.486,0.2270017213010369,0.2869982786989631
0.48600314237514874,0.227,0.2869968576248513
0.487,0.22645395060039997,0.28654604939960004
0.4878287237704976,0.226,0.28617127622950245
0.488,0.225906179899763,0.286093820100237
0.489,0.22535840919912606,0.2856415908008739
0.48965430516584635,0.225,0.2853456948341536
0.49,0.22481063849848912,0.28518936150151086
0.491,0.22426286779785218,0.2847371322021478
0.49147988656119523,0.224,0.2845201134388048
0.492,0.22371509709721524,0.28428490290278474
0.493,0.2231673263965783,0.2838326736034217
0.4933054679565441,0.223,0.28369453204345596
0.494,0.22261955569594136,0.2833804443040586
0.495,0.22207178499530442,0.28292821500469556
0.4951310493518929,0.222,0.28286895064810713
0.496,0.22152401429466748,0.2824759857053325
0.4969566307472418,0.221,0.2820433692527583
0.497,0.22097624359403054,0.28202375640596944
0.498,0.22042847289339357,0.28157152710660643
0.49878221214259055,0.22,0.2812177878574095
0.499,0.21988070219275663,0.2811192978072434
0.5,0.2193329314921197,0.2806670685078803
0.5006077935379394,0.219,0.28039220646206064
0.501,0.21878516079148275,0.28021483920851725
0.502,0.2182373900908458,0.2797626099091542
0.5024333749332883,0.218,0.2795666250667117
0.503,0.21768961939020884,0.2793103806097912
0.504,0.2171418486895719,0.2788581513104281
0.504258956328637,0.217,0.278741043671363
0.505,0.21659407798893496,0.27840592201106507
0.506,0.21604630728829805,0.27795369271170195
0.506084537723986,0.216,0.27791546227601405
0.507,0.2154985365876611,0.2775014634123389
0.5079101191193348,0.215,0.2770898808806652
0.508,0.21495076588702414,0.2770492341129759
0.509,0.2144029951863872,0.2765970048136128
0.5097357005146836,0.214,0.2762642994853164
0.51,0.21385522448575026,0.27614477551424976
0.511,0.21330745378511332,0.2756925462148867
0.5115612819100325,0.213,0.27543871808996756
0.512,0.21275968308447638,0.27524031691552364
0.513,0.21221191238383944,0.2747880876161606
0.5133868633053813,0.212,0.27461313669461873
0.514,0.2116641416832025,0.2743358583167975
0.515,0.21111637098256553,0.27388362901743446
0.5152124447007301,0.211,0.2737875552992699
0.516,0.2105686002819286,0.2734313997180714
0.517,0.21002082958129165,0.27297917041870834
0.517038026096079,0.21,0.2729619739039211
0.518,0.2094730588806547,0.2725269411193453
0.5188636074914278,0.209,0.27213639250857224
0.519,0.20892528818001777,0.2720747118199822
0.52,0.20837751747938082,0.27162248252061916
0.5206891888867766,0.208,0.2713108111132234
0.521,0.20782974677874388,0.2711702532212561
0.522,0.20728197607810694,0.27071802392189304
0.5225147702821256,0.207,0.2704852297178745
0.523,0.20673420537747,0.27026579462253
0.524,0.20618643467683304,0.2698135653231669
0.5243403516774743,0.206,0.26965964832252576
0.525,0.2056386639761961,0.26936133602380385
0.526,0.20509089327555916,0.2689091067244408
0.5261659330728232,0.205,0.2688340669271768
0.527,0.20454312257492221,0.26845687742507773
0.527991514468172,0.204,0.268008485531828
0.528,0.2039953518742853,0.2680046481257147
0.529,0.20344758117364833,0.2675524188263516
0.5298170958635208,0.203,0.2671829041364792
0.53,0.2028998104730114,0.26710018952698855
0.531,0.20235203977237445,0.2666479602276255
0.5316426772588696,0.202,0.2663573227411304
0.532,0.20180426907173749,0.2661957309282625
0.533,0.20125649837110055,0.2657435016288994
0.5334682586542184,0.201,0.26553174134578156
0.534,0.2007087276704636,0.26529127232953637
0.535,0.20016095696982666,0.2648390430301733
0.5352938400495673,0.2,0.26470615995043273
0.536,0.19961318626918972,0.26438681373081024
0.537,0.19906541556855278,0.2639345844314472
0.5371194214449161,0.199,0.2638805785550839
0.538,0.19851764486791582,0.2634823551320842
0.5389450028402649,0.198,0.26305499715973507
0.539,0.19796987416727888,0.2630301258327211
0.54,0.19742210346664193,0.26257789653335806
0.5407705842356137,0.197,0.26222941576438624
0.541,0.196874332766005,0.262125667233995
0.542,0.19632656206536805,0.26167343793463194
0.5425961656309626,0.196,0.2614038343690374
0.543,0.19577879136473111,0.2612212086352689
0.544,0.19523102066409417,0.2607689793359058
0.5444217470263115,0.195,0.2605782529736885
0.545,0.19468324996345723,0.26031675003654275
0.546,0.1941354792628203,0.2598645207371797
0.5462473284216603,0.194,0.25975267157833964
0.547,0.19358770856218335,0.25941229143781663
0.548,0.19303993786154638,0.2589600621384536
0.5480729098170092,0.193,0.2589270901829908
0.549,0.19249216716090947,0.2585078328390905
0.549898491212358,0.192,0.258101508787642
0.55,0.19194439646027253,0.25805560353972745
0.551,0.19139662575963556,0.2576033742403644
0.5517240726077068,0.191,0.25727592739229316
0.552,0.19084885505899862,0.25715114494100133
0.553,0.19030108435836168,0.25669891564163827
0.5535496540030557,0.19,0.25645034599694433
0.554,0.18975331365772474,0.2562466863422752
0.555,0.1892055429570878,0.25579445704291215
0.5553752353984045,0.189,0.2556247646015955
0.556,0.18865777225645086,0.2553422277435491
0.557,0.18811000155581392,0.25488999844418603
0.5572008167937533,0.188,0.25479918320624667
0.558,0.18756223085517698,0.25443776914482297
0.559,0.18701446015454004,0.2539855398454599
0.5590263981891022,0.187,0.25397360181089784
0.56,0.18646668945390307,0.25353331054609685
0.560851979584451,0.186,0.253148020415549
0.561,0.18591891875326613,0.2530810812467338
0.562,0.1853711480526292,0.2526288519473707
0.5626775609797999,0.185,0.2523224390202001
0.563,0.1848233773519923,0.2521766226480078
0.564,0.18427560665135537,0.2517243933486447
0.5645031423751486,0.184,0.25149685762485136
0.565,0.18372783595071843,0.25127216404928165
0.566,0.1831800652500815,0.2508199347499186
0.5663287237704976,0.183,0.2506712762295024
0.567,0.18263229454944455,0.25036770545055553
0.568,0.1820845238488076,0.24991547615119244
0.5681543051658464,0.182,0.2498456948341536
0.569,0.18153675314817067,0.24946324685182938
0.5699798865611952,0.181,0.24902011343880476
0.57,0.18098898244753372,0.24901101755246632
0.571,0.18044121174689678,0.24855878825310326
0.5718054679565441,0.18,0.24819453204345593
0.572,0.17989344104625982,0.24810655895374023
0.573,0.17934567034562288,0.24765432965437717
0.5736310493518929,0.179,0.2473689506481071
0.574,0.17879789964498594,0.2472021003550141
0.575,0.178250128944349,0.24674987105565105
0.5754566307472417,0.178,0.24654336925275827
0.576,0.17770235824371206,0.246297641756288
0.577,0.17715458754307511,0.24584541245692493
0.5772822121425906,0.177,0.24571778785740944
0.578,0.17660681684243815,0.2453931831575619
0.579,0.1760590461418012,0.24494095385819883
0.5791077935379394,0.176,0.2448922064620606
0.58,0.1755112754411643,0.24448872455883575
0.5809333749332883,0.175,0.24406662506671167
0.581,0.17496350474052735,0.24403649525947269
0.582,0.1744157340398904,0.24358426596010962
0.5827589563286371,0.174,0.24324104367136296
0.583,0.17386796333925345,0.2431320366607466
0.584,0.1733201926386165,0.24267980736138353
0.584584537723986,0.173,0.24241546227601402
0.585,0.17277242193797956,0.24222757806202047
0.586,0.17222465123734262,0.2417753487626574
0.5864101191193347,0.172,0.2415898808806653
0.587,0.17167688053670568,0.24132311946329435
0.588,0.17112910983606872,0.24087089016393132
0.5882357005146835,0.171,0.24076429948531644
0.589,0.17058133913543178,0.24041866086456826
0.59,0.17003356843479484,0.2399664315652052
0.5900612819100324,0.17,0.2399387180899676
0.591,0.16948579773415792,0.2395142022658421
0.5918868633053813,0.169,0.23911313669461867
0.592,0.16893802703352098,0.23906197296647905
0.593,0.16839025633288404,0.238609743667116
0.59371244470073,0.168,0.23828755529926995
0.594,0.16784248563224707,0.23815751436775295
0.595,0.16729471493161013,0.2377052850683899
0.595538026096079,0.167,0.23746197390392101
0.596,0.1667469442309732,0.23725305576902683
0.597,0.16619917353033625,0.23680082646966377
0.5973636074914278,0.166,0.23663639250857219
0.598,0.1656514028296993,0.2363485971703007
0.599,0.16510363212906234,0.23589636787093768
0.5991891888867766,0.165,0.23581081111322336
0.6,0.1645558614284254,0.23544413857157462
0.601,0.16400809072778846,0.23499190927221156
0.6010147702821255,0.164,0.23498522971787453
0.602,0.16346032002715152,0.2345396799728485
0.6028403516774743,0.163,0.2341596483225257
0.603,0.16291254932651458,0.23408745067348544
0.604,0.16236477862587764,0.23363522137412238
0.6046659330728231,0.162,0.23333406692717687
0.605,0.1618170079252407,0.23318299207475932
0.606,0.16126923722460373,0.23273076277539628
0.606491514468172,0.161,0.23250848553182804
0.607,0.16072146652396682,0.2322785334760332
0.608,0.16017369582332988,0.23182630417667013
0.6083170958635208,0.16,0.2316829041364792
0.609,0.15962592512269294,0.23137407487730707
0.61,0.159078154422056,0.230921845577944
0.6101426772588696,0.159,0.23085732274113038
0.611,0.15853038372141903,0.23046961627858098
0.6119682586542184,0.158,0.23003174134578155
0.612,0.1579826130207821,0.23001738697921792
0.613,0.15743484232014515,0.22956515767985486
0.6137938400495673,0.157,0.22920615995043273
0.614,0.1568870716195082,0.2291129283804918
0.615,0.15633930091887127,0.22866069908112874
0.6156194214449161,0.156,0.2283805785550839
0.616,0.15579153021823433,0.22820846978176568
0.617,0.15524375951759736,0.22775624048240264
0.6174450028402649,0.155,0.22755499715973507
0.618,0.15469598881696042,0.22730401118303958
0.619,0.15414821811632348,0.22685178188367652
0.6192705842356138,0.154,0.22672941576438624
0.62,0.15360044741568654,0.22639955258431346
0.621,0.15305267671504963,0.22594732328495037
0.6210961656309627,0.153,0.2259038343690373
0.622,0.15250490601441266,0.22549509398558734
0.6229217470263115,0.152,0.22507825297368847
0.623,0.15195713531377572,0.22504286468622428
0.624,0.15140936461313878,0.22459063538686122
0.6247473284216604,0.151,0.22425267157833964
0.625,0.15086159391250184,0.22413840608749816
0.626,0.1503138232118649,0.2236861767881351
0.6265729098170092,0.15,0.2234270901829908
0.627,0.14976605251122793,0.22323394748877207
0.628,0.14921828181059102,0.22278171818940898
0.628398491212358,0.149,0.22260150878764198
0.629,0.14867051110995405,0.22232948889004595
0.63,0.1481227404093171,0.22187725959068288
0.6302240726077069,0.148,0.22177592739229315
0.631,0.14757496970868017,0.22142503029131982
0.632,0.14702719900804323,0.22097280099195676
0.6320496540030557,0.147,0.22095034599694433
0.633,0.1464794283074063,0.2205205716925937
0.6338752353984045,0.146,0.2201247646015955
0.634,0.14593165760676935,0.22006834239323064
0.635,0.1453838869061324,0.21961611309386758
0.6357008167937533,0.145,0.21929918320624667
0.636,0.14483611620549547,0.21916388379450452
0.637,0.14428834550485853,0.21871165449514146
0.6375263981891022,0.144,0.21847360181089784
0.638,0.14374057480422156,0.21825942519577843
0.639,0.14319280410358462,0.21780719589641537
0.639351979584451,0.143,0.217648020415549
0.64,0.14264503340294768,0.2173549665970523
0.641,0.14209726270231074,0.21690273729768925
0.6411775609797999,0.142,0.21682243902020007
0.642,0.1415494920016738,0.21645050799832619
0.643,0.14100172130103686,0.21599827869896313
0.6430031423751488,0.141,0.21599685762485124
0.644,0.14045395060039992,0.21554604939960006
0.6448287237704975,0.14,0.2151712762295025
0.645,0.13990617989976298,0.215093820100237
0.646,0.13935840919912604,0.21464159080087394
0.6466543051658463,0.139,0.21434569483415367
0.647,0.13881063849848907,0.2141893615015109
0.648,0.13826286779785216,0.21373713220214782
0.6484798865611952,0.138,0.21352011343880484
0.649,0.13771509709721522,0.21328490290278476
0.65,0.13716732639657828,0.2128326736034217
0.6503054679565441,0.137,0.2126945320434559
0.651,0.1366195556959413,0.21238044430405867
0.652,0.13607178499530437,0.2119282150046956
0.6521310493518929,0.136,0.21186895064810707
0.653,0.13552401429466743,0.21147598570533255
0.6539566307472418,0.135,0.21104336925275824
0.654,0.1349762435940305,0.2110237564059695
0.655,0.13442847289339355,0.21057152710660643
0.6557822121425906,0.134,0.2102177878574094
0.656,0.13388070219275658,0.2101192978072434
0.657,0.13333293149211964,0.20966706850788033
0.6576077935379394,0.133,0.20939220646206058
0.658,0.1327851607914827,0.20921483920851727
0.659,0.13223739009084576,0.2087626099091542
0.6594333749332882,0.132,0.20856662506671175
0.66,0.13168961939020882,0.20831038060979115
0.661,0.13114184868957188,0.2078581513104281
0.6612589563286371,0.131,0.20774104367136292
0.662,0.13059407798893494,0.20740592201106503
0.663,0.130046307288298,0.20695369271170197
0.6630845377239859,0.13,0.2069154622760141
0.664,0.12949853658766106,0.2065014634123389
0.6649101191193347,0.129,0.20608988088066527
0.665,0.12895076588702412,0.20604923411297585
0.666,0.12840299518638718,0.2055970048136128
0.6667357005146836,0.128,0.20526429948531644
0.667,0.12785522448575024,0.20514477551424973
0.668,0.12730745378511327,0.2046925462148867
0.6685612819100324,0.127,0.2044387180899676
0.669,0.12675968308447633,0.20424031691552363
0.67,0.1262119123838394,0.20378808761616057
0.6703868633053812,0.126,0.20361313669461878
0.671,0.12566414168320245,0.2033358583167975
0.672,0.12511637098256548,0.20288362901743448
0.67221244470073,0.125,0.20278755529926995
0.673,0.12456860028192857,0.2024313997180714
0.674,0.12402082958129161,0.20197917041870833
0.6740380260960789,0.124,0.20196197390392112
0.675,0.12347305888065468,0.20152694111934527
0.6758636074914278,0.123,0.20113639250857218
0.676,0.12292528818001773,0.2010747118199822
0.677,0.1223775174793808,0.20062248252061915
0.6776891888867767,0.122,0.20031081111322335
0.678,0.12182974677874385,0.2001702532212561
0.679,0.12128197607810691,0.19971802392189303
0.6795147702821255,0.121,0.19948522971787452
0.68,0.12073420537746997,0.19926579462252997
0.681,0.12018643467683301,0.19881356532316694
0.6813403516774743,0.12,0.1986596483225257
0.682,0.11963866397619607,0.19836133602380387
0.683,0.11909089327555912,0.19790910672444084
0.6831659330728231,0.119,0.19783406692717687
0.684,0.11854312257492218,0.19745687742507778
0.684991514468172,0.118,0.19700848553182804
0.685,0.11799535187428525,0.1970046481257147
0.686,0.1174475811736483,0.19655241882635166
0.6868170958635208,0.117,0.1961829041364792
0.687,0.11689981047301137,0.19610018952698857
0.688,0.11635203977237449,0.19564796022762557
0.6886426772588696,0.116,0.19535732274113038
0.689,0.11580426907173755,0.1951957309282625
0.69,0.1152564983711006,0.19474350162889947
0.6904682586542185,0.115,0.19453174134578155
0.691,0.11470872767046365,0.1942912723295364
0.692,0.1141609569698267,0.19383904303017335
0.6922938400495673,0.114,0.19370615995043272
0.693,0.11361318626918976,0.1933868137308103
0.694,0.11306541556855282,0.19293458443144723
0.6941194214449161,0.113,0.1928805785550839
0.695,0.11251764486791588,0.19248235513208417
0.695945002840265,0.112,0.19205499715973506
0.696,0.11196987416727894,0.1920301258327211
0.697,0.111422103466642,0.19157789653335805
0.6977705842356138,0.111,0.19122941576438623
0.698,0.11087433276600506,0.191125667233995
0.699,0.1103265620653681,0.19067343793463193
0.6995961656309626,0.11,0.1904038343690374
0.7,0.10977879136473116,0.19022120863526887
0.701,0.10923102066409422,0.1897689793359058
0.7014217470263115,0.109,0.18957825297368847
0.702,0.10868324996345728,0.18931675003654275
0.703,0.10813547926282034,0.1888645207371797
0.7032473284216604,0.108,0.18875267157833964
0.704,0.10758770856218339,0.18841229143781665
0.705,0.10703993786154645,0.1879600621384536
0.7050729098170092,0.107,0.1879270901829908
0.706,0.1064921671609095,0.18750783283909053
0.706898491212358,0.106,0.18710150878764198
0.707,0.10594439646027257,0.18705560353972747
0.708,0.10539662575963561,0.18660337424036444
0.7087240726077069,0.105,0.18627592739229315
0.709,0.10484885505899867,0.18615114494100138
0.71,0.10430108435836173,0.18569891564163832
0.7105496540030557,0.104,0.18545034599694432
0.711,0.10375331365772479,0.18524668634227526
0.712,0.10320554295708785,0.1847944570429122
0.7123752353984045,0.103,0.1846247646015955
0.713,0.10265777225645091,0.18434222774354914
0.714,0.10211000155581397,0.18388999844418608
0.7142008167937534,0.102,0.18379918320624666
0.715,0.10156223085517702,0.18343776914482302
0.716,0.10101446015454006,0.18298553984545995
0.7160263981891022,0.101,0.1829736018108978
0.717,0.10046668945390312,0.1825333105460969
0.717851979584451,0.1,0.18214802041554898
0.718,0.09991891875326617,0.18208108124673386
0.719,0.09937114805262923,0.1816288519473708
0.7196775609797998,0.099,0.18132243902020015
0.72,0.09882337735199229,0.18117662264800774
0.721,0.09827560665135533,0.1807243933486447
0.7215031423751487,0.098,0.18049685762485132
0.722,0.09772783595071839,0.18027216404928165
0.723,0.09718006525008145,0.1798199347499186
0.7233287237704975,0.097,0.1796712762295025
0.724,0.09663229454944451,0.17936770545055553
0.725,0.09608452384880758,0.17891547615119244
0.7251543051658463,0.096,0.17884569483415366
0.726,0.09553675314817064,0.17846324685182938
0.7269798865611952,0.095,0.17802011343880483
0.727,0.09498898244753369,0.17801101755246634
0.728,0.09444121174689675,0.17755878825310328
0.728805467956544,0.094,0.177194532043456
0.729,0.0938934410462598,0.17710655895374022
0.73,0.09334567034562286,0.17665432965437716
0.7306310493518928,0.093,0.17636895064810718
0.731,0.0927978996449859,0.1762021003550141
0.732,0.09225012894434897,0.17574987105565104
0.7324566307472418,0.092,0.17554336925275824
0.733,0.09170235824371203,0.17529764175628798
0.734,0.09115458754307508,0.17484541245692492
0.7342822121425905,0.091,0.17471778785740952
0.735,0.09060681684243814,0.17439318315756186
0.736,0.09005904614180119,0.17394095385819883
0.7361077935379393,0.09,0.1738922064620607
0.737,0.08951127544116426,0.17348872455883574
0.7379333749332883,0.089,0.17306662506671175
0.738,0.08896350474052732,0.17303649525947268
0.739,0.08841573403989038,0.17258426596010962
0.7397589563286371,0.088,0.17224104367136292
0.74,0.08786796333925344,0.17213203666074656
0.741,0.08732019263861648,0.17167980736138352
0.7415845377239859,0.087,0.1714154622760141
0.742,0.08677242193797954,0.17122757806202046
0.743,0.0862246512373426,0.1707753487626574
0.7434101191193347,0.086,0.17058988088066526
0.744,0.08567688053670566,0.17032311946329434
0.745,0.08512910983606871,0.1698708901639313
0.7452357005146836,0.085,0.1697642994853164
0.746,0.08458133913543175,0.16941866086456825
0.747,0.08403356843479481,0.1689664315652052
0.7470612819100324,0.084,0.16893871808996758
0.748,0.08348579773415787,0.16851420226584213
0.7488868633053812,0.083,0.16811313669461875
0.749,0.08293802703352093,0.16806197296647907
0.75,0.082390256332884,0.167609743667116
0.7507124447007301,0.082,0.16728755529926992
0.751,0.08184248563224705,0.16715751436775295
0.752,0.0812947149316101,0.16670528506838989
0.7525380260960789,0.081,0.1664619739039211
0.753,0.08074694423097316,0.16625305576902683
0.754,0.08019917353033622,0.16580082646966376
0.7543636074914277,0.08,0.16563639250857226
0.755,0.07965140282969928,0.1653485971703007
0.756,0.07910363212906232,0.16489636787093767
0.7561891888867766,0.079,0.16481081111322343
0.757,0.07855586142842538,0.1644441385715746
0.758,0.07800809072778844,0.16399190927221155
0.7580147702821254,0.078,0.1639852297178746
0.759,0.07746032002715149,0.16353967997284852
0.7598403516774742,0.077,0.16315964832252577
0.76,0.07691254932651455,0.16308745067348546
0.761,0.07636477862587761,0.1626352213741224
0.7616659330728232,0.076,0.16233406692717683
0.762,0.07581700792524068,0.1621829920747593
0.763,0.07526923722460374,0.16173076277539625
0.763491514468172,0.075,0.161508485531828
0.764,0.07472146652396679,0.16127853347603321
0.765,0.07417369582332985,0.16082630417667015
0.7653170958635208,0.074,0.16068290413647918
0.766,0.07362592512269289,0.1603740748773071
0.767,0.07307815442205597,0.15992184557794403
0.7671426772588696,0.073,0.15985732274113035
0.768,0.07253038372141901,0.15946961627858097
0.7689682586542185,0.072,0.15903174134578152
0.769,0.07198261302078207,0.1590173869792179
0.77,0.07143484232014513,0.15856515767985485
0.7707938400495673,0.071,0.1582061599504327
0.771,0.07088707161950819,0.1581129283804918
0.772,0.07033930091887124,0.15766069908112873
0.7726194214449161,0.07,0.15738057855508386
0.773,0.0697915302182343,0.15720846978176567
0.774,0.06924375951759736,0.1567562404824026
0.774445002840265,0.069,0.15655499715973503
0.775,0.0686959888169604,0.15630401118303958
0.776,0.06814821811632348,0.1558517818836765
0.7762705842356138,0.068,0.1557294157643862
0.777,0.06760044741568652,0.15539955258431346
0.778,0.0670526767150496,0.15494732328495037
0.7780961656309626,0.067,0.15490383436903737
0.779,0.06650490601441265,0.1544950939855873
0.7799217470263115,0.066,0.15407825297368855
0.78,0.0659571353137757,0.15404286468622427
0.781,0.06540936461313876,0.1535906353868612
0.7817473284216603,0.065,0.15325267157833972
0.782,0.06486159391250182,0.15313840608749815
0.783,0.06431382321186487,0.15268617678813512
0.7835729098170091,0.064,0.1524270901829909
0.784,0.06376605251122792,0.15223394748877206
0.785,0.06321828181059098,0.151781718189409
0.7853984912123579,0.063,0.15160150878764206
0.786,0.06267051110995404,0.15132948889004594
0.787,0.0621227404093171,0.15087725959068288
0.7872240726077068,0.062,0.15077592739229323
0.788,0.061574969708680156,0.15042503029131982
0.789,0.061027199008043216,0.14997280099195676
0.7890496540030557,0.061,0.1499503459969443
0.79,0.06047942830740627,0.1495205716925937
0.7908752353984045,0.06,0.14912476460159546
0.791,0.05993165760676933,0.14906834239323064
0.792,0.059383886906132374,0.14861611309386757
0.7927008167937534,0.059,0.14829918320624663
0.793,0.05883611620549544,0.14816388379450451
0.794,0.0582883455048585,0.14771165449514145
0.7945263981891022,0.058,0.1474736018108978
0.795,0.05774057480422155,0.1472594251957784
0.796,0.05719280410358461,0.14680719589641533
0.796351979584451,0.057,0.14664802041554897
0.797,0.056645033402947666,0.1463549665970523
0.798,0.056097262702310725,0.14590273729768924
0.7981775609797999,0.056,0.14582243902020015
0.799,0.05554949200167378,0.14545050799832618
0.8,0.05500172130103684,0.14499827869896312
0.8000031423751487,0.055,0.14499685762485132
0.801,0.0544539506003999,0.14454604939960006
0.8018287237704975,0.054,0.1441712762295025
0.802,0.05390617989976295,0.144093820100237
0.803,0.05335840919912602,0.14364159080087394
0.8036543051658463,0.053,0.14334569483415366
0.804,0.05281063849848906,0.1431893615015109
0.805,0.05226286779785212,0.14273713220214784
0.8054798865611952,0.052,0.14252011343880483
0.806,0.05171509709721518,0.14228490290278478
0.807,0.051167326396578235,0.14183267360342172
0.807305467956544,0.051,0.141694532043456
0.808,0.050619555695941294,0.14138044430405866
0.809,0.050071784995304354,0.1409282150046956
0.8091310493518928,0.05,0.14086895064810717
0.81,0.049524014294667414,0.14047598570533254
0.8109566307472417,0.049,0.14004336925275834
0.811,0.048976243594030466,0.14002375640596948
0.812,0.04842847289339352,0.13957152710660642
0.8127822121425906,0.048,0.1392177878574094
0.813,0.04788070219275664,0.13911929780724341
0.814,0.047332931492119694,0.13866706850788035
0.8146077935379394,0.047,0.13839220646206057
0.815,0.046785160791482754,0.1382148392085173
0.816,0.04623739009084581,0.13776260990915423
0.8164333749332883,0.046,0.13756662506671175
0.817,0.045689619390208866,0.13731038060979117
0.818,0.045141848689571926,0.1368581513104281
0.8182589563286371,0.045,0.13674104367136292
0.819,0.04459407798893498,0.13640592201106508
0.82,0.04404630728829804,0.13595369271170202
0.8200845377239859,0.044,0.1359154622760141
0.821,0.0434985365876611,0.13550146341233896
0.8219101191193348,0.043,0.13508988088066526
0.822,0.04295076588702415,0.1350492341129759
0.823,0.0424029951863872,0.13459700481361284
0.8237357005146836,0.042,0.1342642994853164
0.824,0.04185522448575025,0.1341447755142498
0.825,0.041307453785113316,0.13369254621488674
0.8255612819100324,0.041,0.13343871808996757
0.826,0.040759683084476375,0.13324031691552368
0.827,0.04021191238383943,0.13278808761616062
0.8273868633053812,0.04,0.13261313669461874
0.828,0.03966414168320248,0.13233585831679756
0.829,0.03911637098256553,0.1318836290174345
0.8292124447007301,0.039,0.13178755529926992
0.83,0.03856860028192859,0.13143139971807144
0.831,0.03802082958129166,0.13097917041870838
0.8310380260960789,0.038,0.1309619739039211
0.832,0.03747305888065471,0.13052694111934532
0.8328636074914277,0.037,0.13013639250857226
0.833,0.03692528818001777,0.13007471181998226
0.834,0.03637751747938082,0.12962248252061923
0.8346891888867766,0.036,0.12931081111322343
0.835,0.035829746778743884,0.12917025322125614
0.836,0.03528197607810694,0.1287180239218931
0.8365147702821254,0.035,0.1284852297178746
0.837,0.034734205377470004,0.12826579462253002
0.838,0.03418643467683306,0.12781356532316698
0.8383403516774742,0.034,0.12765964832252577
0.839,0.03363866397619611,0.12736133602380392
0.84,0.03309089327555916,0.12690910672444086
0.8401659330728231,0.033,0.12683406692717694
0.841,0.03254312257492222,0.1264568774250778
0.8419915144681719,0.032,0.1260084855318281
0.842,0.03199535187428528,0.12600464812571474
0.843,0.03144758117364834,0.12555241882635168
0.8438170958635208,0.031,0.12518290413647917
0.844,0.030899810473011397,0.12510018952698862
0.845,0.030352039772374453,0.12464796022762557
0.8456426772588697,0.03,0.12435732274113034
0.846,0.029804269071737506,0.12419573092826253
0.847,0.02925649837110057,0.12374350162889945
0.8474682586542185,0.029,0.12353174134578151
0.848,0.028708727670463622,0.1232912723295364
0.849,0.02816095696982668,0.12283904303017334
0.8492938400495673,0.028,0.12270615995043269
0.85,0.02761318626918974,0.12238681373081028
0.851,0.027065415568552794,0.12193458443144722
0.8511194214449161,0.027,0.12188057855508386
0.852,0.026517644867915854,0.12148235513208416
0.852945002840265,0.026,0.12105499715973503
0.853,0.025969874167278913,0.1210301258327211
0.854,0.025422103466641966,0.12057789653335806
0.8547705842356138,0.025,0.1202294157643862
0.855,0.02487433276600502,0.120125667233995
0.856,0.02432656206536808,0.11967343793463193
0.8565961656309626,0.024,0.11940383436903737
0.857,0.02377879136473114,0.11922120863526887
0.858,0.0232310206640942,0.11876897933590581
0.8584217470263115,0.023,0.11857825297368854
0.859,0.022683249963457254,0.11831675003654277
0.86,0.02213547926282031,0.1178645207371797
0.8602473284216603,0.022,0.11775267157833971
0.861,0.021587708562183363,0.11741229143781665
0.862,0.021039937861546412,0.1169600621384536
0.8620729098170091,0.021,0.11692709018299087
0.863,0.020492167160909475,0.11650783283909054
0.863898491212358,0.02,0.11610150878764204
0.864,0.019944396460272535,0.11605560353972748
0.865,0.019396625759635588,0.11560337424036442
0.8657240726077068,0.019,0.11527592739229321
0.866,0.01884885505899864,0.11515114494100137
0.867,0.018301084358361697,0.11469891564163831
0.8675496540030556,0.018,0.11445034599694438
0.868,0.01775331365772476,0.11424668634227525
0.869,0.017205542957087816,0.11379445704291219
0.8693752353984044,0.017,0.11362476460159555
0.87,0.016657772256450872,0.11334222774354913
0.871,0.016110001555813932,0.11288999844418607
0.8712008167937534,0.016,0.11279918320624661
0.872,0.015562230855176985,0.11243776914482302
0.873,0.015014460154540044,0.11198553984545996
0.8730263981891022,0.015,0.11197360181089779
0.874,0.014466689453903099,0.1115333105460969
0.874851979584451,0.014,0.11114802041554896
0.875,0.013918918753266157,0.11108108124673384
0.876,0.013371148052629213,0.1106288519473708
0.8766775609797999,0.013,0.11032243902020013
0.877,0.012823377351992273,0.11017662264800773
0.878,0.012275606651355332,0.10972439334864467
0.8785031423751487,0.012,0.1094968576248513
0.879,0.01172783595071839,0.10927216404928161
0.88,0.011180065250081443,0.10881993474991855
0.8803287237704975,0.011,0.10867127622950247
0.881,0.010632294549444497,0.10836770545055549
0.882,0.010084523848807554,0.10791547615119244
0.8821543051658464,0.01,0.10784569483415364
0.883,0.009536753148170617,0.10746324685182937
0.8839798865611952,0.009,0.10702011343880481
0.884,0.008988982447533676,0.10701101755246631
0.885,0.008441211746896726,0.10655878825310326
0.885805467956544,0.008,0.10619453204345597
0.886,0.007893441046259777,0.10610655895374022
0.887,0.007345670345622833,0.10565432965437715
0.8876310493518929,0.007,0.10536895064810714
0.888,0.006797899644985892,0.1052021003550141
0.889,0.006250128944348949,0.10474987105565103
0.8894566307472417,0.006,0.10454336925275831
0.89,0.005702358243712007,0.10429764175628797
0.891,0.005154587543075066,0.10384541245692491
0.8912822121425905,0.005,0.10371778785740948
0.892,0.004606816842438121,0.10339318315756187
0.893,0.004059046141801174,0.1029409538581988
0.8931077935379393,0.004,0.10289220646206065
0.894,0.003511275441164235,0.10248872455883574
0.8949333749332882,0.003,0.10206662506671182
0.895,0.002963504740527291,0.1020364952594727
0.896,0.0024157340398903485,0.10158426596010964
0.896758956328637,0.002,0.101241043671363
0.897,0.0018679633392534069,0.10113203666074658
0.898,0.0013201926386164644,0.10067980736138352
0.8985845377239859,0.001,0.10041546227601406
0.899,0.0007724219379795239,0.10022757806202046
0.9,0.00022465123734257772,0.0997753487626574
0.9004101191193348,0.0,0.09958988088066523
