'p1','p2','p3'
0.11452726884057414,0.1934,0.6920727311594258
0.1145,0.1934468603872463,0.6920531396127536
0.11464397977246679,0.1932,0.6921560202275332
0.1146,0.19327522901985847,0.6921247709801415
0.11458554367895163,0.1933,0.6921144563210484
0.11452726884057414,0.1934,0.6920727311594258
