'p1','p2','p3'
0.1226041149517005,0.1815,0.6958958850482995
0.1225,0.18163202042615204,0.6958679795738479
0.12221230093370435,0.182,0.6957876990662957
0.122,0.18227336135529856,0.6957266386447014
0.12182550086397938,0.1825,0.6956744991360206
0.1215,0.182925594738131,0.6955744052618691
0.12144358355739004,0.183,0.69555641644261
0.12106704958691866,0.1835,0.6954329504130814
0.121,0.18358964516834048,0.6954103548316595
0.1206957199652634,0.184,0.6953042800347367
0.1205,0.18426572875595387,0.695234271244046
0.12032893482288383,0.1845,0.6951710651771161
0.12,0.184953511530771,0.695046488469229
0.11996657171920161,0.185,0.6950334282807984
0.11960953627944734,0.1855,0.6948904637205526
0.1195,0.18565444719763916,0.6948455528023609
0.11925703827851285,0.186,0.6947429617214871
0.119,0.18636805307433424,0.6946319469256658
0.11890864483992131,0.1865,0.6945913551600787
0.11822582720993739,0.1875,0.6942741727900626
0.118,0.18783588248632324,0.6941641175136768
0.11789060713441604,0.188,0.6941093928655839
0.1175596365560344,0.1885,0.6939403634439656
0.1175,0.1885907328371682,0.6939092671628319
0.11723331541999045,0.189,0.6937666845800095
0.117,0.18936051309096086,0.6936394869090392
0.11691050490146722,0.1895,0.6935894950985327
0.11659196020029058,0.19,0.6934080397997093
0.1165,0.19014536863695977,0.6933546313630402
0.11627759359419693,0.1905,0.6932224064058031
0.116,0.19094568240612467,0.6930543175938754
0.11596645980114206,0.191,0.6930335401988579
0.11565995316986309,0.1915,0.6928400468301369
0.11505719957085522,0.1925,0.6924428004291447
0.115,0.19259614925177398,0.692403850748226
0.11446924643568632,0.1935,0.6920307535643136
0.11418107447891301,0.194,0.6918189255210869
0.114,0.19431640392278235,0.6916835960772176
0.11389583750417914,0.1945,0.6916041624958208
0.11361422307345659,0.195,0.6913857769265435
0.1135,0.19520428228906053,0.6912957177109395
0.11333608074339015,0.1955,0.6911639192566098
0.113,0.19611150863857388,0.6908884913614262
0.11278962537214668,0.1965,0.6907103746278533
0.11225612760294584,0.1975,0.6902438723970541
0.112,0.19798766130676265,0.6900123386932373
0.1117352504815819,0.1985,0.6897647495184182
0.1115,0.19895861129321157,0.6895413887067884
0.11147895318636009,0.199,0.6895210468136399
0.11122666373091283,0.1995,0.6892733362690872
0.111,0.199952479217484,0.689047520782516
0.1109764016261503,0.2,0.6890235983738497
0.1107300435986426,0.2005,0.6887699564013574
0.11024507270899692,0.2015,0.688254927291003
0.11000629999234468,0.202,0.6879937000076553
0.11,0.20201329863847192,0.6879867013615281
0.10977143991817649,0.2025,0.6877285600818235
0.1095383717856046,0.203,0.6874616282143953
0.1095,0.2030829799802915,0.6874170200197085
0.10930884017347511,0.2035,0.6871911598265249
0.10908137784261897,0.204,0.6869186221573811
0.109,0.20418030961540753,0.6868196903845925
0.10885697437595385,0.2045,0.6866430256240461
0.10863502068965528,0.205,0.6863649793103448
0.1085,0.20530656557663293,0.686193434423367
0.10841554924656588,0.2055,0.686084450753434
0.10819900864046428,0.206,0.6858009913595358
0.108,0.2064630907179855,0.6855369092820145
0.10798427719562989,0.2065,0.6855157228043701
0.10777305566655886,0.207,0.6852269443334412
0.10756347246300456,0.2075,0.6849365275369954
0.1075,0.20765268444739887,0.6848473155526011
0.10735688127071995,0.208,0.6846431187292801
0.10715250319886212,0.2085,0.6843474968011378
0.107,0.20887611827706126,0.6841238817229387
0.10695021036363452,0.209,0.6840497896363655
0.10675094679473386,0.2095,0.6837490532052661
0.10655327463187077,0.21,0.6834467253681292
0.1065,0.21013590969491389,0.683364090305086
0.10635853491202601,0.2105,0.683141465087974
0.10616586741044773,0.211,0.6828341325895523
0.106,0.21143401534443643,0.6825659846555636
0.10597500435396932,0.2115,0.6825249956460306
0.10578725410796629,0.212,0.6822127458920337
0.10560105020057213,0.2125,0.6818989497994279
0.1055,0.2127736883497985,0.6817263116502015
0.10541717795538331,0.213,0.6815828220446167
0.10523578537406081,0.2135,0.6812642146259391
0.10505591532273555,0.214,0.6809440846772645
0.105,0.21415682454027146,0.6808431754597286
0.10487872149321308,0.2145,0.6806212785067869
0.10470355893252928,0.215,0.6802964410674708
0.10452989565665063,0.2155,0.6799701043433494
0.1045,0.21558686676749225,0.6799131332325077
0.1043590750440056,0.216,0.6796409249559945
0.10419001746126558,0.2165,0.6793099825387344
0.1040224364629665,0.217,0.6789775635370335
0.104,0.21706757260135404,0.678932427398646
0.10385769088014701,0.2175,0.678642309119853
0.10369461576123357,0.218,0.6783053842387665
0.10353299505334082,0.2185,0.6779670049466592
0.1035,0.21860305159495497,0.677896948405045
0.1033740331455492,0.219,0.6776259668544509
0.10321682043474704,0.2195,0.677283179565253
0.10306104047128001,0.22,0.6769389595287201
0.103,0.22019780794698696,0.6768021920530131
0.1029075775418969,0.2205,0.676592422458103
0.10275610957419962,0.221,0.6762438904258005
0.10260605318332564,0.2215,0.6758939468166744
0.1025,0.2218567894965903,0.6756432105034097
0.10245781102503651,0.222,0.6755421889749635
0.10231197246083422,0.2225,0.6751880275391657
0.10216752478017403,0.223,0.674832475219826
0.10202446496318078,0.2235,0.6744755350368192
0.102,0.223586386159727,0.674413613840273
0.1018839092731562,0.224,0.6741160907268439
0.10174495768734591,0.2245,0.673755042312654
0.10160737385475799,0.225,0.673392626145242
0.1015,0.22539417379302318,0.6731058262069768
0.10147143080461717,0.2255,0.6730285691953828
0.10133786488503026,0.226,0.6726621351149698
0.10120564705127176,0.2265,0.6722943529487282
0.10107477455723561,0.227,0.6719252254427645
0.101,0.22728871332677378,0.6717112866732262
0.1009457696367528,0.2275,0.6715542303632471
0.10081880993068962,0.228,0.6711811900693104
0.10069317643794387,0.2285,0.6708068235620561
0.10056886655918804,0.229,0.670431133440812
0.1005,0.22928004635252625,0.6702199536474738
0.1004463978357677,0.2295,0.6700536021642323
0.1003258979435726,0.23,0.6696741020564274
0.10020670305798969,0.2305,0.6692932969420102
0.10008881072071045,0.231,0.6689111892792896
0.1,0.2313809159283523,0.6686190840716477
0.09997248612084622,0.2315,0.6685275138791538
0.09985830321481286,0.232,0.6681416967851872
0.09974540474776919,0.2325,0.6677545952522308
0.09963378839692708,0.233,0.667366211603073
0.09952345187192765,0.2335,0.6669765481280723
0.0995,0.23360757083799585,0.6668924291620041
0.09941522011693488,0.234,0.6665847798830651
0.09920300077327694,0.235,0.6657969992267231
0.09909878237899125,0.2355,0.6654012176210087
0.099,0.23597972244082804,0.665020277559172
0.09899586245548078,0.236,0.6650041375445193
0.09889514381540465,0.2365,0.6646048561845954
0.09879566822813349,0.237,0.6642043317718666
0.0986004380952832,0.238,0.6633995619047168
0.09850467956709852,0.2385,0.6629953204329015
0.0985,0.23852476784120247,0.6629752321587975
0.09841102972140352,0.239,0.6625889702785965
0.09822748645346249,0.24,0.6617725135465375
0.09813754381511357,0.2405,0.6613624561848865
0.09804881805852518,0.241,0.6609511819414748
0.098,0.24127900153831602,0.660720998461684
0.09796168480016182,0.2415,0.6605383151998381
0.09787623005157817,0.242,0.6601237699484218
0.09770892157976568,0.243,0.6592910784202343
0.09762706445143772,0.2435,0.6588729355485623
0.09754640317176849,0.244,0.6584535968282315
0.09738975265333033,0.245,0.6576102473466697
0.09731342586686971,0.2455,0.6571865741331302
0.09723827795964939,0.246,0.6567617220403507
0.09709151270507481,0.247,0.6559084872949252
0.09701989238664782,0.2475,0.6554801076133521
0.097,0.24764124825941017,0.6553587517405899
0.0969499423211541,0.248,0.6550500576788459
0.0968813487615985,0.2485,0.6546186512384016
0.09681391476318686,0.249,0.6541860852368131
0.09668251999035352,0.25,0.6533174800096465
0.09661855655181789,0.2505,0.6528814434481822
0.09655574734602537,0.251,0.6524442526539747
0.09643424339140741,0.252,0.6515657566085926
0.09637547725032922,0.2525,0.6511245227496707
0.09631784988017716,0.253,0.6506821501198229
0.09620600678734482,0.254,0.6497939932126552
0.09615178879516396,0.2545,0.6493482112048361
0.09609870503476306,0.255,0.648901294965237
0.096,0.2559600368361538,0.6480399631638463
0.09599597635378614,0.256,0.6480040236462139
0.09589870990650395,0.257,0.647101290093496
0.09585175501757541,0.2575,0.6466482449824247
0.09580591773137476,0.258,0.6461940822686252
0.09571759225203037,0.259,0.6452824077479696
0.0956751022620005,0.2595,0.6448248977379996
0.09563372628081425,0.26,0.6443662737191858
0.0955543130169882,0.261,0.6434456869830117
0.0955162741304962,0.2615,0.6429837258695037
0.0955,0.26172042651298894,0.642779573487011
0.09547955309749231,0.262,0.6425204469025076
0.09540973472306692,0.263,0.6415902652769331
0.09537647291149172,0.2635,0.6411235270885083
0.0953443084281829,0.264,0.6406556915718171
0.09528326882034929,0.265,0.6397167311796507
0.09525439244120285,0.2655,0.6392456075587971
0.0952266108810035,0.266,0.6387733891189965
0.095174329964299,0.267,0.637825670035701
0.09514982953924891,0.2675,0.6373501704607512
0.09512642179599261,0.268,0.6368735782040074
0.09508288247243045,0.269,0.6359171175275695
0.095062750008642,0.2695,0.6354372499913579
0.09504370845963105,0.27,0.6349562915403689
0.09500889659246681,0.271,0.6339911034075332
0.095,0.27128213485406405,0.633717865145936
0.0949786632631222,0.272,0.6330213367368778
0.09496520946366158,0.2725,0.6325347905363383
0.09495283373636258,0.273,0.6320471662636374
0.09493131544965673,0.274,0.6310686845503433
0.09492217242228758,0.2745,0.6305778275777123
0.09491410653113044,0.275,0.6300858934688696
0.09490120546914398,0.276,0.629098794530856
0.09489637001039099,0.2765,0.628603629989609
0.09489261111198934,0.277,0.6281073888880107
0.09488832266767876,0.278,0.6271116773323212
0.0948877930136739,0.2785,0.626612206986326
0.09488833970382697,0.279,0.626111660296173
0.09489266214762494,0.28,0.625107337852375
0.09489643797297564,0.2805,0.6246035620270243
0.09490129028590581,0.281,0.6240987097140942
0.09490721917848949,0.2815,0.6235927808215106
0.09492230718343664,0.2825,0.6225776928165634
0.09493146659250216,0.283,0.6220685334074978
0.09494170317464987,0.2835,0.6215582968253501
0.09496540869956067,0.2845,0.6205345913004393
0.09497887811944265,0.285,0.6200211218805574
0.09499342566668027,0.2855,0.6195065743333198
0.095,0.2857104490056333,0.6192895509943668
0.09500914666227818,0.286,0.6189908533377217
0.09502602695822168,0.2865,0.6184739730417783
0.09506306007359694,0.2875,0.6174369399264031
0.09508321370742728,0.288,0.6169167862925726
0.09510445930689637,0.2885,0.6163955406931036
0.09515022828664566,0.2895,0.6153497717133544
0.09517475266701614,0.29,0.6148252473329838
0.09520037101327686,0.2905,0.6142996289867232
0.09525489186026002,0.2915,0.61324510813974
0.09528379554789555,0.292,0.6127162044521044
0.09531379557533043,0.2925,0.6121862044246695
0.09537708728181397,0.2935,0.6111229127181861
0.09541038033592372,0.294,0.6105896196640763
0.09544477248005027,0.2945,0.6100552275199498
0.09551703695982335,0.2955,0.6089829630401766
0.09555513374119076,0.296,0.6084448662588093
0.09559434521085071,0.2965,0.6079056547891493
0.09567611577759776,0.2975,0.6068238842224023
0.09571867671723379,0.298,0.6062813232827662
0.09576235603038794,0.2985,0.605737643969612
0.09585307373335078,0.2995,0.6046469262666493
0.09590011416314553,0.3,0.6040998858368545
0.09594827704657123,0.3005,0.6035517229534287
0.096,0.30102418401579434,0.6029758159842057
0.09604849244554627,0.3015,0.6024515075544538
0.09615382087819555,0.3025,0.6013461791218044
0.09620819649055885,0.303,0.6007918035094411
0.09626371470358085,0.3035,0.6002362852964191
0.09637818409754219,0.3045,0.5991218159024578
0.0964371379267846,0.305,0.5985628620732155
0.09649723965347662,0.3055,0.5980027603465233
0.09662221095844119,0.3065,0.5968777890415589
0.09668645984910408,0.307,0.5963135401508959
0.09675187624100223,0.3075,0.5957481237589978
0.09688621777245482,0.3085,0.5946137822275452
0.09695514610288396,0.309,0.5940448538971161
0.097,0.3093200105046762,0.5936799894953237
0.09702552563615437,0.3095,0.5934744743638456
0.09709758728945159,0.31,0.5929024127105484
0.09717084061969943,0.3105,0.5923291593803006
0.0973209294772653,0.3115,0.5911790705227347
0.09739776866008594,0.312,0.590602231339914
0.097475806831125,0.3125,0.590024193168875
0.09763698975028999,0.3135,0.58886301024971
0.09771954386382878,0.314,0.5882804561361712
0.09780331992320962,0.3145,0.5876966800767904
0.09797454627219497,0.3155,0.5865254537278051
0.098,0.31564561341097613,0.586354386589024
0.09815236922245932,0.3165,0.5853476307775407
0.09824329415934428,0.317,0.5847567058406558
0.09833546989738333,0.3175,0.5841645301026167
0.09852384825460125,0.3185,0.5829761517453987
0.09862087021397972,0.319,0.5823791297860204
0.09871916900418548,0.3195,0.5817808309958145
0.0989196073948031,0.3205,0.5805803926051969
0.099,0.3208935977857415,0.5801064022142586
0.09912660288363535,0.3215,0.5793733971163646
0.09923251444249959,0.322,0.5787674855575005
0.09933973596967399,0.3225,0.578160264030326
0.09955878328510052,0.3235,0.5769412167148995
0.09967122199819786,0.324,0.576328778001802
0.09978500023784048,0.3245,0.5757149997621596
0.1,0.3254288449515954,0.5745711550484046
0.10001677825091353,0.3255,0.5744832217490865
0.10025648911207623,0.3265,0.5732435108879238
0.10037840410175926,0.327,0.5726215958982408
0.1005,0.3274931258633519,0.5720068741366481
0.10050171629206286,0.3275,0.5719982837079371
0.10075535342767306,0.3285,0.5707446465723269
0.1008842814479532,0.329,0.5701157185520469
0.101,0.3294439622305788,0.5695560377694212
0.10101479094090428,0.3295,0.5694852090590957
0.10114808134146654,0.33,0.5688519186585335
0.10128281062248805,0.3305,0.568217189377512
0.10155726572125631,0.3315,0.5669427342787436
0.10169796979777185,0.332,0.5663020302022281
0.1018401498476951,0.3325,0.5656598501523049
0.102,0.33305582292924646,0.5649441770707535
0.10213047958125628,0.3335,0.5643695204187437
0.10242873755624916,0.3345,0.5630712624437508
0.1025,0.3347354672092563,0.5627645327907437
0.10258109801467818,0.335,0.5624189019853219
0.10273585284008648,0.3355,0.5617641471599135
0.103,0.3363416785289759,0.5606583214710241
0.10305062320121429,0.3365,0.5604493767987857
0.10337489370622877,0.3375,0.5591251062937712
0.1035,0.3378803021632643,0.5586196978367357
0.10353989615553269,0.338,0.5584601038444672
0.10370803275806277,0.3385,0.5577919672419372
0.104,0.33935658054900114,0.5566434194509988
0.10404980389917824,0.3395,0.5564501961008217
0.10440178911876671,0.3405,0.5550982108812332
0.1045,0.3407752297132394,0.5547247702867606
0.10458128282634221,0.341,0.5544187171736579
0.10476369121061854,0.3415,0.5537363087893814
0.105,0.34214050435999893,0.552859495640001
0.10513532236803025,0.3425,0.5523646776319697
0.10551711300994472,0.3435,0.5509828869900553
0.10571296898601523,0.344,0.5502870310139848
0.10591063385030015,0.3445,0.5495893661496998
0.106,0.34472415044049276,0.5492758495595073
0.10611149585592052,0.345,0.5488885041440795
0.10631533053178209,0.3455,0.548184669468218
0.1065,0.34594894822887134,0.5475510517711286
0.10652129180884264,0.346,0.5474787081911574
0.10694358101004266,0.347,0.5460564189899574
0.107,0.3471319372625256,0.5458680627374743
0.10737830226817371,0.348,0.5446216977318263
0.1075,0.3482759181039404,0.5442240818960595
0.10760023683298386,0.3485,0.5438997631670162
0.10782574015278139,0.349,0.5431742598472187
0.108,0.3493830756008057,0.5426169243991943
0.10805395005058571,0.3495,0.5424460499494144
0.10828647387451724,0.35,0.5417135261254827
0.10876111370962718,0.351,0.5402388862903729
0.109,0.35149378407159404,0.539506215928406
0.10925030321653724,0.352,0.5387496967834627
0.10949974263806696,0.3525,0.5380002573619331
0.1095,0.3525005121151842,0.5379994878848158
0.10975472164404802,0.353,0.537245278355952
0.11,0.35347679768696477,0.5365232023130353
0.11001211358877112,0.3535,0.5364878864112288
0.11027508655077224,0.354,0.5357249134492278
0.1108121566577776,0.355,0.5341878433422225
0.111,0.3553434213945882,0.5336565786054118
0.1113667349590482,0.356,0.5326332650409519
0.1115,0.3562362778878984,0.5322637221121016
0.11165102949630376,0.3565,0.5318489705036962
0.11193967211739063,0.357,0.5310603278826094
0.112,0.3571037268222152,0.5308962731777849
0.11223405468488423,0.3575,0.5302659453151157
0.1125,0.3579465719169643,0.5295534280830356
0.11253231681239803,0.358,0.529467683187602
0.113,0.35876546300335144,0.5282345369966486
0.11314632961411179,0.359,0.5278536703858883
0.11378191611492978,0.36,0.5262180838850702
0.114,0.3603361547421614,0.5256638452578386
0.11444018610134017,0.361,0.5245598138986598
0.1145,0.3610893787916289,0.524410621208371
0.1147793084100844,0.3615,0.5237206915899155
0.115,0.36182190532663006,0.52317809467337
0.11512412463292723,0.362,0.5228758753670728
0.11547529195820704,0.3625,0.522024708041793
0.1155,0.36253493040774476,0.5219650695922552
0.11583449971905434,0.363,0.5211655002809457
0.116,0.36322832992386195,0.520771670076138
0.1162002630417165,0.3635,0.5202997369582836
0.1165,0.3639034995692834,0.5195965004307166
0.11657291757700004,0.364,0.519427082423
0.117,0.3645606034026361,0.5184393965973639
0.1173427830342809,0.365,0.5176572169657191
0.1175,0.36520001018105613,0.5172999898189439
0.11773996758905807,0.3655,0.516760032410942
0.118,0.365822637941471,0.516177362058529
0.1181455002108305,0.366,0.5158544997891695
0.11898365799877314,0.367,0.5140163420012269
0.119,0.3670191423154467,0.5139808576845533
0.11941805501900041,0.3675,0.5130819449809996
0.1195,0.3675935637387459,0.5129064362612541
0.11986259042754412,0.368,0.5121374095724559
0.12,0.36815290177974763,0.5118470982202523
0.12078431081662848,0.369,0.5102156891833716
0.121,0.3692278092829527,0.5097721907170474
0.12126270697308555,0.3695,0.5092372930269145
0.1215,0.3697440937046374,0.5087559062953626
0.12175367045166005,0.37,0.5082463295483399
0.122,0.3702467253623126,0.5077532746376874
0.12277621029601088,0.371,0.5062237897039892
0.123,0.3712123540750366,0.5057876459249634
0.12330937428812189,0.3715,0.5051906257118781
0.1235,0.37167599045784855,0.5048240095421515
0.1238582908027134,0.372,0.5041417091972866
0.124,0.372127253327642,0.503872746672358
0.125,0.372993816810717,0.502006183189283
0.12500738942169,0.373,0.50199261057831
0.1255,0.373409343569097,0.501090656430903
0.12561152745248835,0.3735,0.5008884725475116
0.126,0.373813598457441,0.500186401542559
0.12688257225524205,0.3745,0.498617427744758
0.127,0.3745893655746367,0.4984106344253633
0.1275,0.3749612279334817,0.49753877206651836
0.1275533461163527,0.375,0.4974466538836473
0.128,0.3753224255808292,0.4966775744191708
0.12825198470289384,0.3755,0.4962480152971062
0.129,0.37601497866744477,0.49498502133255523
0.1295,0.3763461467687851,0.49415385323121497
0.12973825718529627,0.3765,0.4937617428147037
0.13,0.3766678884958521,0.4933321115041479
0.1305,0.3769804073898745,0.49251959261012546
0.13053214607764116,0.377,0.4924678539223588
0.131,0.3772832539330621,0.4917167460669379
0.13136783694988138,0.3775,0.4911321630501186
0.1315,0.3775773606510496,0.4909226393489505
0.132,0.3778623569594526,0.4901376430405474
0.133,0.37840643369628796,0.48859356630371203
0.13317973778411707,0.3785,0.4883202622158829
0.1335,0.37866562666791054,0.4878343733320895
0.134,0.3789166763297487,0.4870833236702513
0.1341709068142411,0.379,0.48682909318575884
0.1345,0.3791593995498448,0.48634060045015515
0.135,0.3793942349425244,0.4856057650574756
0.135232277218377,0.3795,0.48526772278162306
0.1355,0.37962111405726046,0.4848788859427396
0.136,0.3798402192580014,0.4841597807419986
0.137,0.3802557003017681,0.4827442996982319
0.1375,0.3804524841592258,0.48204751584077427
0.13762494758815935,0.3805,0.48187505241184064
0.138,0.3806417119848766,0.48135828801512337
0.1385,0.38082387684342733,0.4806761231565726
0.139,0.38099924958986325,0.48000075041013673
0.13900221941330534,0.381,0.4799977805866946
0.1395,0.3811672316362264,0.47933276836377364
0.14,0.3813286000386183,0.4786713999613817
0.1405,0.38148343269464585,0.4780165673053541
0.1405557136457075,0.3815,0.4779442863542925
0.141,0.3816312770429151,0.4773687229570849
0.1415,0.38177269332801,0.47672730667199004
0.142,0.3819078197012591,0.4760921802987409
0.14235730418364792,0.382,0.4756426958163521
0.1425,0.38203658153631204,0.475463418463688
0.143,0.3821588541914856,0.4748411458085144
0.1435,0.38227507275749173,0.4742249272425083
0.144,0.3823853054875986,0.4736146945124014
0.1445,0.38248961984851393,0.4730103801514861
0.1445526004379584,0.3825,0.4729473995620416
0.145,0.38258773636075905,0.47241226363924094
0.1455,0.3826800498330711,0.47181995016692896
0.146,0.3827666659429109,0.47123333405708906
0.1465,0.3828476487896529,0.47065235121034715
0.147,0.382923061743799,0.470076938256201
0.1475,0.38299296745701916,0.4695070325429809
0.1475544356272851,0.383,0.4694455643727149
0.148,0.3830572044473746,0.46894279555262536
0.1485,0.38311605144794764,0.4683839485520524
0.149,0.3831695960975667,0.4678304039024333
0.1495,0.383217897969605,0.46728210203039505
0.15,0.3832610159704411,0.4667389840295589
0.1505,0.3832990083484869,0.46620099165151313
0.151,0.3833319327030654,0.46566806729693455
0.1515,0.38335984599314665,0.4651401540068534
0.152,0.3833828045459409,0.46461719545405905
0.1525,0.3834008640653544,0.46409913593464563
0.153,0.38341407964030727,0.4635859203596927
0.1535,0.3834225057529216,0.46307749424707845
0.154,0.3834261962865733,0.46257380371342666
0.1545,0.38342520453382156,0.46207479546617847
0.155,0.3834195832042072,0.46158041679579276
0.1555,0.38340938443193195,0.4610906155680681
0.156,0.38339465978341153,0.46060534021658844
0.1565,0.3833754602647157,0.46012453973528433
0.157,0.38335183632888564,0.45964816367111433
0.1575,0.38332383788314184,0.4591761621168582
0.158,0.38329151429597474,0.4587084857040252
0.1585,0.38325491440413045,0.4582450855958696
0.159,0.38321408651948263,0.45778591348051734
0.1595,0.3831690784358023,0.45733092156419775
0.16,0.3831199374354205,0.45688006256457947
0.1605,0.38306671029579065,0.4564332897042094
0.161,0.3830094432959483,0.45599055670405164
0.16107692262893425,0.383,0.45592307737106574
0.1615,0.3829479853454919,0.4555520146545081
0.162,0.3828825281768455,0.4551174718231545
0.1625,0.382813152737113,0.454686847262887
0.163,0.38273990358271415,0.4542600964172858
0.1635,0.38266282479975067,0.45383717520024935
0.164,0.382581960009938,0.45341803999006197
0.1644843181844316,0.3825,0.45301568181556845
0.1645,0.3824973423413167,0.4530026576586833
0.165,0.38240870020132117,0.4525912997986788
0.1655,0.38231638700094384,0.4521836129990562
0.166,0.3822204447561305,0.4517795552438695
0.1665,0.3821209150442348,0.45137908495576523
0.167,0.3820178390094751,0.45098216099052485
0.1670835247881611,0.382,0.45091647521183886
0.1675,0.3819109218129287,0.45058907818707133
0.168,0.38180045946958774,0.4501995405304122
0.1685,0.3816865595578759,0.4498134404421241
0.169,0.3815692617234346,0.4494307382765654
0.16928673491016247,0.3815,0.44921326508983755
0.1695,0.3814484109524424,0.4490515890475576
0.17,0.3813239666337549,0.44867603336624506
0.1705,0.3811962294059215,0.4483037705940785
0.171,0.38106523747998244,0.4479347625200175
0.17124275295697064,0.381,0.4477572470430293
0.1715,0.38093076810541393,0.4475692318945861
0.172,0.3807928615507568,0.44720713844924326
0.1725,0.38065180173209356,0.44684819826790645
0.173,0.38050762548645367,0.4464923745135463
0.17302583454708598,0.3805,0.446474165452914
0.1735,0.3803598419820798,0.44614015801792023
0.174,0.38020897534947246,0.4457910246505276
0.1745,0.3800550902971744,0.44544490970282563
0.1755,0.3797374192007538,0.4447625807992462
0.176,0.3795740778253952,0.44442592217460486
0.17622252832000684,0.3795,0.44427747167999315
0.1765,0.379407499909031,0.444092500090969
0.177,0.3792377781807555,0.44376222181924446
0.1775,0.37906522701174233,0.4434347729882577
0.17768572011765194,0.379,0.44331427988234806
0.178,0.3788894636081689,0.4431105363918312
0.1785,0.37871068173589095,0.44278931826410906
0.179,0.3785291615366403,0.44247083846335966
0.17907898979973924,0.3785,0.44242101020026076
0.1795,0.3783443490457756,0.44215565095422443
0.18,0.37815674436792235,0.4418432556320777
0.18041176350199384,0.378,0.44158823649800616
0.1805,0.3779663633138969,0.4415336366861031
0.1815,0.3775765661171249,0.4409234338828751
0.18169233233980644,0.3775,0.4408076676601936
0.182,0.377377344619206,0.44062265538079404
0.1825,0.3771752930354482,0.4403247069645518
0.1829283188403193,0.377,0.44007168115968076
0.183,0.3769706218784677,0.44002937812153226
0.1835,0.376762798755568,0.439737201244432
0.184,0.3765525205712249,0.43944747942877516
0.18412324036975353,0.3765,0.4393767596302465
0.1845,0.37633920892860073,0.43916079107139927
0.1855,0.3759046472159912,0.4385953527840088
0.186,0.375683179219138,0.43831682078086204
0.18640909143000192,0.3755,0.43809090856999805
0.1865,0.3754592353316632,0.4380407646683368
0.187,0.37523229347913134,0.4377677065208686
0.1875,0.375003081322272,0.437496918677728
0.18750664089117008,0.375,0.4374933591088299
0.188,0.3747707566351367,0.43722924336486335
0.1885,0.37453620003610083,0.43696379996389917
0.18857629880573773,0.3745,0.4369237011942622
0.1895,0.3740588620907608,0.4364411379092392
0.1896214140162664,0.374,0.4363785859837336
0.19,0.37381619538460714,0.4361838046153929
0.1905,0.3735711815509524,0.4359288184490476
0.19064378498592313,0.3735,0.43585621501407684
0.191,0.37332339937530673,0.4356766006246932
0.1915,0.3730732707336601,0.4354267292663399
0.19164503172742395,0.373,0.435354968272576
0.192,0.3728204091301739,0.43517959086982616
0.1925,0.37256524024398924,0.43493475975601076
0.19262661754660323,0.3725,0.43487338245339674
0.1935,0.37204719901007843,0.43445280098992156
0.19358986768012482,0.372,0.43441013231987513
0.194,0.37178428381117734,0.4342157161888227
0.1945,0.37151925431711813,0.43398074568288186
0.19453598533293234,0.3715,0.43396401466706763
0.195,0.37125136355455834,0.4337486364454416
0.1954656672639577,0.371,0.43353433273604236
0.1955,0.37098144042098646,0.43351855957901353
0.196,0.370708678762996,0.43329132123700403
0.19637974519020526,0.3705,0.4331202548097947
0.1965,0.37043382062745256,0.43306617937254743
0.1975,0.3698765719798018,0.4326234280201982
0.198,0.36959442777985885,0.4324055722201412
0.19816603941477545,0.3695,0.4323339605852245
0.1985,0.36930979573469225,0.43219020426530774
0.199,0.3690230638889859,0.431976936111014
0.19903989168488787,0.369,0.4319601083151121
0.1995,0.3687335916589804,0.4317664083410196
0.19990082178924312,0.3685,0.43159917821075694
0.2,0.36844211546786987,0.4315578845321302
0.2005,0.3681480580589924,0.43135194194100757
0.2015,0.3675532918090711,0.4309467081909289
0.2015886162881507,0.3675,0.4309113837118493
0.202,0.36725223695675363,0.4307477630432464
0.20241627183521033,0.367,0.43058372816478974
0.2025,0.36694919008173654,0.43055080991826344
0.203,0.3666435877422411,0.43035641225775884
0.20323344299298401,0.3665,0.43026655700701594
0.2035,0.36633580005236727,0.4301641999476327
0.204,0.3660259236943624,0.42997407630563766
0.20404153458640073,0.366,0.4299584654135993
0.2045,0.3657134231368674,0.4297865768631326
0.20483948728364137,0.3655,0.4296605127163586
0.205,0.365398940366338,0.429601059633662
0.2055,0.3650821509439405,0.4294178490560595
0.20562884044933497,0.365,0.42937115955066507
0.206,0.3647629868591942,0.4292370131408058
0.2064095670464267,0.3645,0.42909043295357324
0.2065,0.36444184460811724,0.42905815539188275
0.207,0.36411825491209693,0.4288817450879031
0.2071816621207081,0.364,0.4288183378792919
0.2075,0.3637924615632076,0.4287075384367924
0.20794621356218687,0.3635,0.4285537864378131
0.208,0.3634646933083065,0.42853530669169354
0.2085,0.36313441426657367,0.4283655857334263
0.2087023762147162,0.363,0.4282976237852838
0.209,0.36280202381878535,0.4281979761812147
0.20945170734822613,0.3625,0.42804829265177385
0.2095,0.36246766094475275,0.42803233905524724
0.21,0.362130801683119,0.427869198316881
0.21019312809669125,0.362,0.4278068719033088
0.2105,0.3617918442338944,0.4277081557661056
0.21092810874408094,0.3615,0.42757189125591905
0.211,0.36145091606275676,0.4275490839372433
0.2115,0.36110758396389064,0.42739241603610933
0.21165585960989805,0.361,0.42734414039010193
0.212,0.3607620875710479,0.42723791242895215
0.2123772841191984,0.3605,0.4271227158808016
0.2125,0.36041462138959335,0.42708537861040663
0.213,0.36006492215026187,0.42693507784973816
0.21309233289881263,0.36,0.42690766710118744
0.2135,0.359712912858215,0.426787087141785
0.21380092841683862,0.3595,0.4266990715831614
0.214,0.35935893394354296,0.4266410660564571
0.2145,0.35900297163021333,0.42649702836978665
0.21450415095552983,0.359,0.42649584904447013
0.215,0.35864447349437384,0.4263555265056262
0.21520058461833927,0.3585,0.4262994153816608
0.2155,0.35828400513761083,0.42621599486238915
0.21589192843558966,0.358,0.42610807156441033
0.216,0.35792156451466517,0.42607843548533486
0.2165,0.35755691734987627,0.4259430826501237
0.21657766060781364,0.3575,0.42592233939218643
0.217,0.3571899808781097,0.4258100191218903
0.2172576864491822,0.357,0.4257423135508178
0.2175,0.35682107047380446,0.4256789295261955
0.21793293377873202,0.3565,0.425567066221268
0.218,0.35645018366760667,0.42554981633239336
0.2185,0.35607700165826234,0.42542299834173763
0.21860269963494952,0.356,0.4253973003650505
0.219,0.3557016400936997,0.4252983599063003
0.21926738433026388,0.3555,0.4252326156697361
0.2195,0.3553242993889783,0.42517570061102167
0.2199275709628555,0.355,0.4250724290371445
0.22,0.3549449766442907,0.4250550233557093
0.2205,0.35456340661866675,0.4249365933813332
0.2205827191702159,0.3545,0.42491728082978414
0.221,0.35417962794824615,0.4248203720517539
0.22123302150194005,0.354,0.42476697849806
0.2215,0.3537938634219077,0.42470613657809225
0.22187907916993946,0.3535,0.4246209208300606
0.222,0.3534061097021701,0.4245938902978299
0.2225,0.353016295457099,0.42448370454290096
0.22252080715352343,0.353,0.4244791928464766
0.223,0.35262410240678604,0.424375897593214
0.2231575916008256,0.3525,0.4243424083991744
0.2235,0.3522299152617241,0.4242700847382759
0.22379036099942165,0.352,0.4242096390005784
0.224,0.3518337302386546,0.4241662697613454
0.2244191739946526,0.3515,0.4240808260053474
0.2245,0.35143554342618044,0.4240644565738195
0.225,0.35103520270334865,0.4239647972966514
0.22504378354287127,0.351,0.4239562164571288
0.2255,0.3506325888496549,0.42386741115034504
0.22566402541746736,0.3505,0.4238359745825327
0.226,0.3502279668834907,0.4237720331165093
0.22628051430782628,0.35,0.42371948569217377
0.2265,0.34982133243500746,0.4236786675649925
0.22689330238277328,0.3495,0.42360669761722675
0.227,0.3494126810012331,0.4235873189987669
0.2275,0.349001999448985,0.42349800055101494
0.22750242426864375,0.349,0.42349757573135627
0.228,0.34858892955930265,0.42341107044069737
0.22810726131931722,0.3485,0.4233927386806828
0.2285,0.34817383491268333,0.42332616508731663
0.22870857846508594,0.348,0.42329142153491406
0.229,0.34775671053337454,0.4232432894666255
0.22930642227700315,0.3475,0.42319357772299687
0.2295,0.3473375513069623,0.42316244869303765
0.22990083825468186,0.347,0.42309916174531814
0.23,0.34691635197887843,0.4230836480211216
0.23049187085602318,0.3465,0.42300812914397684
0.2305,0.3464931071528688,0.42300689284713117
0.231,0.346067519787918,0.422932480212082
0.23107905397069217,0.346,0.42292094602930785
0.2315,0.34563985317505713,0.42286014682494283
0.23166291457542046,0.3455,0.4228370854245796
0.232,0.34521013111198035,0.42278986888801967
0.23224354580309764,0.345,0.42275645419690244
0.2325,0.34477834770421456,0.4227216522957854
0.23282098751826028,0.3445,0.4226790124817397
0.233,0.34434449690917807,0.42265550309082195
0.23339527869989204,0.344,0.42260472130010795
0.2335,0.34390857253445734,0.4225914274655426
0.23396645746496883,0.3435,0.42253354253503117
0.234,0.3434705682360464,0.42252943176395363
0.2345,0.3430303443611391,0.42246965563886096
0.23453434855014577,0.343,0.4224656514498542
0.235,0.3425879068358188,0.4224120931641812
0.2350990166596849,0.3425,0.42240098334031506
0.2355,0.3421433771561732,0.42235662284382675
0.23566070426511007,0.342,0.4223392957348899
0.236,0.3416967484502823,0.4223032515497177
0.2362194456817935,0.3415,0.42228055431820644
0.2365,0.34124801368722446,0.4222519863127756
0.2367752744871227,0.341,0.4222247255128772
0.237,0.3407971656750982,0.4222028343249018
0.2373282235393238,0.3405,0.42217177646067616
0.2375,0.3403441970590022,0.42215580294099775
0.23787832499570138,0.34,0.4221216750042986
0.238,0.33988910031896524,0.42211089968103477
0.238425610330317,0.3395,0.4220743896696829
0.2385,0.33943186776783296,0.4220681322321671
0.2389701103511244,0.339,0.4220298896488756
0.239,0.3389724915491029,0.4220275084508971
0.2395,0.338510914491833,0.42198908550816694
0.23951178615390128,0.3385,0.42198821384609864
0.24,0.33804706327029094,0.42195293672970907
0.24005057957949344,0.338,0.4219494204205066
0.2405,0.3375810525516255,0.42191894744837455
0.24058669410218445,0.3375,0.4219133058978155
0.241,0.337112873897246,0.42188712610275403
0.2411201575945371,0.337,0.4218798424054629
0.2415,0.3366425186901059,0.42185748130989403
0.24165099735354972,0.3365,0.4218490026464503
0.242,0.33616997813228056,0.42183002186771945
0.2421792401145201,0.336,0.4218207598854799
0.2425,0.3356952432424926,0.42180475675750745
0.24270491206450495,0.3355,0.42179508793549503
0.243,0.33521830485358034,0.42178169514641967
0.24322803885538383,0.335,0.4217719611446162
0.2435,0.3347391536099116,0.4217608463900884
0.2437486456165434,0.3345,0.42175135438345657
0.244,0.3342577799647358,0.4217422200352642
0.24426675696719147,0.334,0.4217332430328085
0.2445,0.33377417417747873,0.4217258258225213
0.24478239702831725,0.3335,0.4217176029716827
0.245,0.3332883263109749,0.4217116736890251
0.24529558943430785,0.333,0.42170441056569213
0.2455,0.33280022622864,0.42169977377136
0.2458063573442321,0.3325,0.4216936426557679
0.246,0.3323098635915763,0.4216901364084237
0.24631472345280167,0.332,0.4216852765471983
0.2465,0.33181722785561474,0.4216827721443853
0.24682071000102349,0.3315,0.4216792899989765
0.247,0.3313223082682888,0.4216776917317112
0.24732433878655097,0.331,0.42167566121344907
0.2475,0.3308250938657427,0.42167490613425723
0.2478256311737439,0.3305,0.4216743688262561
0.248,0.330325573469566,0.421674426530434
0.24832460810344678,0.33,0.4216753918965532
0.2485,0.3298237356835585,0.42167626431644156
0.24882129010249576,0.3295,0.4216787098975042
0.249,0.3293195688904213,0.4216804311095787
0.24931569729296166,0.329,0.4216843027070383
0.2495,0.3288130612483739,0.42168693875162605
0.24980784940113832,0.3285,0.42169215059886167
0.25,0.32830420068769206,0.42169579931230794
0.2502977657662823,0.328,0.4217022342337176
0.2505,0.32779297490716836,0.4217070250928317
0.2507854653491156,0.3275,0.4217145346508844
0.251,0.32727937137049107,0.42172062862950893
0.2512709667400953,0.327,0.4217290332599047
0.2515,0.3267633773025428,0.42173662269745715
0.2517542881674606,0.3265,0.4217457118325394
0.252,0.32624497968561067,0.42175502031438933
0.25223544750505916,0.326,0.42176455249494077
0.2525,0.3257241652555124,0.42177583474448765
0.25271446227996697,0.3255,0.421785537720033
0.253,0.32520092049763166,0.42179907950236833
0.253191349679901,0.325,0.421808650320099
0.2535,0.3246752316428648,0.4218247683571351
0.2536661265604365,0.3245,0.42183387343956347
0.254,0.32414708466347136,0.42185291533652863
0.25413880945203055,0.324,0.4218611905479695
0.2545,0.3236164652688299,0.42188353473117013
0.25460941456686104,0.3235,0.42189058543313895
0.255,0.3230833589010952,0.4219166410989048
0.25507795780548453,0.323,0.4219220421945155
0.2555,0.322547750730757,0.42195224926924296
0.2555444547633217,0.3225,0.42195554523667833
0.256,0.3220096256520915,0.4219903743479085
0.25600892073696985,0.322,0.4219910792630302
0.256471227486474,0.3215,0.422028772513526
0.2565,0.321468812057928,0.42203118794207206
0.25693147976088176,0.321,0.4220685202391183
0.257,0.320925387885285,0.422074612114715
0.2573897369946649,0.3205,0.42211026300533505
0.2575,0.32037938522212334,0.4221206147778766
0.25784601351898645,0.32,0.4221539864810136
0.258,0.31983078756868694,0.42216921243131306
0.2583003233910107,0.3195,0.42219967660898927
0.2585,0.3192795781193159,0.42222042188068415
0.2587526803994234,0.319,0.42224731960057665
0.259,0.3187257397570914,0.4222742602429086
0.2592030980698134,0.3185,0.42229690193018654
0.2595,0.3181692550483568,0.42233074495164313
0.2596515896699147,0.318,0.42234841033008524
0.26,0.3176101062371039,0.4223898937628961
0.2600981682147164,0.3175,0.4224018317852837
0.2605,0.317048275239228,0.42245172476077203
0.26054284647144393,0.317,0.4224571535285561
0.2609855676311088,0.3165,0.4225144323688912
0.261,0.316483658648504,0.422516341351496
0.2614261988574458,0.316,0.4225738011425542
0.262,0.31534569475319024,0.42265430524680975
0.26230186303508884,0.315,0.42269813696491115
0.2625,0.3147725597456183,0.42272744025438175
0.2627369196695143,0.3145,0.4227630803304857
0.263,0.31419662932431486,0.42280337067568513
0.26317014141407635,0.314,0.42282985858592365
0.264,0.31303629988371906,0.4229637001162809
0.26403112515633276,0.313,0.42296887484366724
0.26445871592054954,0.3125,0.4230412840794504
0.2645,0.3124515988852875,0.42304840111471254
0.2648843630292934,0.312,0.4231156369707066
0.265,0.3118638038798139,0.4231361961201861
0.26573030897478994,0.311,0.42326969102521
0.266,0.3106794273427691,0.4233205726572309
0.2661506283246911,0.3105,0.42334937167530895
0.2665,0.3100827997423541,0.42341720025764595
0.26656919194067935,0.31,0.4234308080593206
0.2669859450050175,0.3095,0.4235140549949825
0.267,0.3094830880565798,0.42351691194342017
0.26740063597496794,0.309,0.4235993640250321
0.2675,0.30887988358655166,0.42362011641344827
0.2678135950027275,0.3085,0.4236864049972725
0.268,0.3082736178812836,0.4237263821187164
0.268224831398233,0.308,0.42377516860176706
0.2685,0.30766426549965054,0.4238357345003495
0.2686343542910682,0.3075,0.4238656457089318
0.269,0.30705180052193437,0.4239481994780656
0.26904217263368724,0.307,0.42395782736631277
0.2694480606825619,0.3065,0.4240519393174381
0.2695,0.30643583402978836,0.42406416597021157
0.269852065110535,0.306,0.42414793488946506
0.27,0.30581638503792025,0.42418361496207974
0.2702543864420639,0.3055,0.4242456135579361
0.2705,0.3051937187831063,0.42430628121689373
0.2706550330314572,0.305,0.4243449669685428
0.271,0.3045678068643747,0.4244321931356253
0.27105401306886345,0.3045,0.42444598693113655
0.27145111683286977,0.304,0.4245488831671303
0.272,0.3033049981513849,0.4246950018486151
0.27223988306311264,0.303,0.42476011693688737
0.2725,0.30266837238073585,0.4248316276192642
0.2726318035146139,0.3025,0.4248681964853861
0.273,0.30202835513009135,0.4249716448699086
0.27302209221288215,0.302,0.4249779077871179
0.27379691403630146,0.301,0.42520308596369855
0.274,0.30073645315327824,0.42526354684672174
0.2741818518629229,0.3005,0.42531814813707713
0.2745,0.3000851590373863,0.4254148409626137
0.27456518291769044,0.3,0.4254348170823095
0.2749466818847725,0.2995,0.42555331811522745
0.275,0.2994298906421299,0.4255701093578701
0.2753262982549276,0.299,0.4256737017450724
0.2755,0.29877049125239885,0.42572950874760107
0.27570432466598427,0.2985,0.42579567533401574
0.276,0.2981074389753493,0.4258925610246507
0.2760807675750041,0.298,0.4259192324249959
0.27645544113560133,0.2975,0.42604455886439874
0.2765,0.29744032984055097,0.42605967015944907
0.2768281896611542,0.297,0.4261718103388458
0.277,0.2967687986759838,0.42623120132401615
0.27719937033281244,0.2965,0.4263006296671876
0.2775,0.29609346829273114,0.4264065317072688
0.2775689891324497,0.296,0.42643101086755025
0.278,0.2954137573962714,0.42658624260372857
0.2783027244302517,0.295,0.4266972755697483
0.2785,0.2947295437369691,0.42677045626303095
0.2786671197088582,0.2945,0.42683288029114186
0.279,0.2940413727245105,0.4269586272754895
0.2790299731725404,0.294,0.4269700268274596
0.2797500215211172,0.293,0.42724997847888274
0.28,0.29265073568554745,0.4273492643144525
0.28010768661224117,0.2925,0.42739231338775885
0.28046367554145285,0.292,0.4275363244585471
0.2805,0.2919487807376774,0.42755121926232265
0.28081768718612476,0.2915,0.42768231281387525
0.281,0.2912416261804938,0.42775837381950615
0.2811701831850529,0.291,0.4278298168149472
0.2815,0.2905302072932879,0.42796979270671215
0.2815211683291133,0.2905,0.4279788316708868
0.2818701054890137,0.29,0.4281298945109863
0.2825,0.2890916435185309,0.42840835648146913
0.28256329543517744,0.289,0.4284367045648226
0.2829072614182047,0.2885,0.42859273858179536
0.283,0.2883646781126038,0.4286353218873963
0.2832494705449713,0.288,0.42875052945502873
0.2835,0.2876325285019101,0.4288674714980899
0.2839291361972398,0.287,0.4290708638027602
0.284,0.28689503664288823,0.42910496335711173
0.2842662243419706,0.2865,0.42923377565802945
0.2845,0.28615190362754855,0.42934809637245147
0.2846018346744176,0.286,0.42939816532558245
0.284935707313476,0.2855,0.4295642926865241
0.285,0.2854033061978913,0.4295966938021088
0.2852676873493672,0.285,0.4297323126506329
0.2855,0.28464874050512523,0.4298512594948748
0.2855981992351098,0.2845,0.42990180076489026
0.2859269485436924,0.284,0.43007305145630764
0.2865,0.28312193446936196,0.43037806553063807
0.2865792559111937,0.283,0.4304207440888063
0.2869028299766887,0.2825,0.4305971700233113
0.287,0.28234920310481776,0.4306507968951823
0.2872246262525322,0.282,0.4307753737474678
0.2875,0.2815702973359127,0.4309297026640873
0.28818003562438044,0.2805,0.43131996437561954
0.28849529121809114,0.28,0.43150470878190883
0.2885,0.2799924927756937,0.4315075072243063
0.2888083754811875,0.2795,0.43169162451881254
0.289,0.2791927635545802,0.43180723644541985
0.2891200211924264,0.279,0.43187997880757356
0.28942995048828335,0.2785,0.4320700495117166
0.2895,0.27838643757698023,0.4321135624230198
0.2897379614525598,0.278,0.43226203854744016
0.29,0.27757274705949037,0.4324272529405096
0.2900445406128994,0.2775,0.43245545938710056
0.2905,0.2767511370995842,0.4327488629004158
0.29065203145133967,0.2765,0.4328479685486603
0.29095336258942633,0.276,0.4330466374105737
0.291,0.27592220005815477,0.4330777999418453
0.29125266103060754,0.2755,0.43324733896939244
0.2915,0.27508494813186546,0.43341505186813456
0.2918463863428319,0.2745,0.4336536136571681
0.292,0.2742391651571061,0.43376083484289385
0.2921406153621162,0.274,0.43385938463788376
0.29243316382847856,0.2735,0.4340668361715215
0.2925,0.27338514118956914,0.4341148588104309
0.29272373807983043,0.273,0.43427626192016955
0.293,0.27252233873204645,0.4344776612679536
0.29301289840163286,0.2725,0.43448710159836706
0.293299861109743,0.272,0.43470013889025694
0.2935,0.2716496689784126,0.43485033102158743
0.29358536170634586,0.2715,0.4349146382936541
0.2941507721100504,0.2705,0.4353492278899495
0.294430927634545,0.27,0.43556907236545506
0.2945,0.2698759930038271,0.43562400699617293
0.29470908377030386,0.2695,0.43579091622969607
0.29498577944991716,0.269,0.4360142205500829
0.295,0.26897413504708906,0.436025864952911
0.2952602502603879,0.2685,0.43623974973961216
0.2955,0.2680610948379063,0.4364389051620937
0.295533318080488,0.268,0.436466681919512
0.29580422456185945,0.2675,0.4366957754381405
0.2963409590569475,0.2665,0.4371590409430525
0.2965,0.26620087871836523,0.4372991212816348
0.2966066319813244,0.266,0.43739336801867557
0.2968704055207906,0.2655,0.4376295944792094
0.297,0.26525284842700336,0.4377471515729967
0.29713236624349354,0.265,0.4378676337565065
0.2973925151135159,0.2645,0.43810748488648404
0.2975,0.26429208512651986,0.43820791487348015
0.29765075339017577,0.264,0.4383492466098242
0.29790723837215227,0.2635,0.4385927616278477
0.29841452520237727,0.2625,0.43908547479762267
0.2985,0.2623297505863348,0.4391702494136652
0.29866528661100966,0.262,0.43933471338899033
0.2989143248700905,0.2615,0.4395856751299095
0.299,0.2613267551528587,0.4396732448471414
0.29916133122780203,0.261,0.4398386687721979
0.29940658599281383,0.2605,0.4400934140071861
0.2995,0.2603081692698795,0.4401918307301205
0.2996498257971949,0.26,0.4403501742028051
0.2998912565309133,0.2595,0.4406087434690867
0.30036828377863684,0.2585,0.4411317162213632
0.3005,0.25822074716883936,0.44127925283116065
0.30060395467633183,0.258,0.44139604532366816
0.30083761435496553,0.2575,0.4416623856450344
0.301,0.25714999852802894,0.4418500014719711
0.3010694822445218,0.257,0.4419305177554782
0.3012991941942753,0.2565,0.4422008058057247
0.3015,0.25605982044239184,0.44244017955760817
0.30152724626353455,0.256,0.44247275373646544
0.301752968536803,0.2555,0.442747031463197
0.30219888191891336,0.2545,0.4433011180810866
0.3024189564040433,0.254,0.4435810435959566
0.3025,0.2538142381418245,0.4436857618581755
0.3026368781631613,0.2535,0.4438631218368387
0.30285284776590604,0.253,0.44414715223409396
0.303,0.2526564403667967,0.4443435596332034
0.3030669003681473,0.2525,0.4444330996318527
0.30327872176817205,0.252,0.44472127823182794
0.3034888489086651,0.2515,0.4450111510913349
0.3035,0.2514731921154129,0.4450268078845871
0.3039024247067904,0.2505,0.4455975752932096
0.304,0.2502607595289068,0.44573924047109315
0.3041061848379041,0.25,0.4458938151620959
0.3043078219733623,0.2495,0.44619217802663763
0.3045,0.24901918381407473,0.4464808161859253
0.30450765558757825,0.249,0.4464923444124217
0.3047049807605842,0.2485,0.44679501923941584
0.3049004996210781,0.248,0.4470995003789219
0.305,0.24774287703791223,0.44725712296208786
0.3050938403400668,0.2475,0.4474061596599332
0.30528497014330414,0.247,0.44771502985669587
0.30547424282482594,0.2465,0.44802575717517407
0.3055,0.2464311466472453,0.4480688533527547
0.305661034050625,0.246,0.44833896594937506
0.3058458393987561,0.2455,0.4486541606012439
0.30620891999962846,0.2445,0.4492910800003715
0.3063872697533501,0.244,0.44961273024664994
0.3065,0.24368019784677789,0.44981980215322215
0.3065634206018993,0.2435,0.4499365793981008
0.3067371762030704,0.243,0.4502628237969296
0.3069089371216517,0.2425,0.4505910628783483
0.307,0.242231497295076,0.4507685027049241
0.3070783899952981,0.242,0.450921610004702
0.30724547528459134,0.2415,0.45125452471540867
0.3074105119769883,0.241,0.4515894880230117
0.3075,0.2407251737956371,0.45177482620436293
0.3075732060464091,0.2405,0.45192679395359087
0.30773348434358744,0.24,0.4522665156564125
0.30789165921808465,0.2395,0.4526083407819153
0.3082008648192526,0.2385,0.45329913518074744
0.30835203803157396,0.238,0.45364796196842605
0.3085,0.23750345210812907,0.45399654789187094
0.3085010270612009,0.2375,0.45399897293879904
0.3086472723504,0.237,0.4543527276496
0.3087913017502368,0.2365,0.4547086982497632
0.3089330936821517,0.236,0.4550669063178483
0.309,0.23575997909872315,0.4552400209012769
0.30907235663090754,0.2355,0.4554276433690925
0.30920909770680016,0.235,0.45579090229319985
0.30934354321733776,0.2345,0.4561564567826623
0.30947567099569245,0.234,0.4565243290043075
0.3095,0.23390610952503943,0.4565938904749606
0.3097320182387594,0.233,0.4572679817612406
0.30997876599348956,0.232,0.4580212340065104
0.31021501966417164,0.231,0.4587849803358284
0.310441350229216,0.23,0.459558649770784
0.3105,0.22973171765605765,0.45976828234394235
0.3105505768520314,0.2295,0.4599494231479686
0.31065706287256123,0.229,0.4603429371274388
0.3107610019252563,0.2285,0.4607389980747437
0.31086236996675,0.228,0.46113763003325003
0.3109611427612819,0.2275,0.461538857238718
0.311,0.22729768244725101,0.46170231755274904
0.31105708308697894,0.227,0.46194291691302103
0.3111502441158014,0.2265,0.4623497558841986
0.31124074532261325,0.226,0.46275925467738677
0.3113285618002485,0.2255,0.4631714381997515
0.31141366844107704,0.225,0.4635863315589229
0.3114960399350853,0.2245,0.46400396006491473
0.3115,0.22447507793281668,0.4640249220671833
0.3115753693711642,0.224,0.46442463062883577
0.3117256433730146,0.223,0.46527435662698535
0.31186460369983354,0.222,0.4661353963001664
0.31199203968076034,0.221,0.46700796031923975
0.3121073350918598,0.22,0.4678926649081403
0.31221068789071765,0.219,0.46878931210928243
0.312301907596337,0.218,0.469698092403663
0.31238077044768325,0.217,0.4706192295523167
0.3124470489889481,0.216,0.4715529510110519
0.3125,0.21501017176180443,0.4724898282381956
0.3125005100755209,0.215,0.4724994899244791
0.3125222803751016,0.2145,0.47297771962489843
0.31254077056055357,0.214,0.4734592294394464
0.3125559507826313,0.2135,0.47394404921736866
0.3125677909439141,0.213,0.47443220905608585
0.31257626069633787,0.2125,0.47492373930366216
0.31258132943870137,0.212,0.4754186705612986
0.3125829663141402,0.2115,0.4759170336858598
0.3125811402075739,0.211,0.47641885979242615
0.31257581974312004,0.2105,0.4769241802568799
0.3125669732814805,0.21,0.4774330267185196
0.31255456891729316,0.2095,0.4779454310827068
0.3125385744764571,0.209,0.478461425523543
0.3125189575134194,0.2085,0.4789810424865806
0.3125,0.2080925396013306,0.47940746039866944
0.3124956688399525,0.208,0.47950433116004754
0.3124378059664293,0.207,0.4805621940335708
0.3123648640950186,0.206,0.4816351359049814
0.3122765699179536,0.205,0.48272343008204643
0.3121726454347127,0.204,0.48382735456528736
0.312052807855289,0.203,0.484947192144711
0.3119164467168424,0.202,0.4860835532831576
0.3118419726669667,0.2015,0.4866580273330332
0.3117633215280349,0.201,0.4872366784719651
0.3115933373447224,0.2,0.4884066626552776
0.31150192815971084,0.1995,0.4889980718402891
0.3115,0.1994899089115511,0.4890100910884489
0.311405822014377,0.199,0.48959417798562305
0.3113053221314289,0.1985,0.49019467786857107
0.3112003965988297,0.198,0.4907996034011703
0.3110910056099334,0.1975,0.4914089943900666
0.311,0.1971003178847081,0.49189968211529195
0.3109770185538518,0.197,0.49202298144614814
0.3108581072166575,0.1965,0.49264189278334247
0.3107345897376669,0.196,0.4932654102623331
0.31060642465896643,0.1955,0.4938935753410336
0.3105,0.19509929769118,0.49440070230882
0.31047346482050864,0.195,0.49452653517949136
0.3101924000596306,0.194,0.49580759994036944
0.3100446328275795,0.1935,0.49645536717242056
0.31,0.19335358177839854,0.4966464182216014
0.30989155014356573,0.193,0.49710844985643426
0.3095701426795743,0.192,0.4984298573204257
0.3095,0.191791270802265,0.498708729197735
0.3094015100979943,0.1915,0.49909848990200567
0.309227490155483,0.191,0.499772509844517
0.3090483206068747,0.1905,0.5004516793931253
0.309,0.1903687445617325,0.5006312554382676
0.30886339945432956,0.19,0.5011366005456706
0.30867301505011807,0.1895,0.501826984949882
0.3085,0.18905784314879764,0.5024421568512023
0.30827533588547407,0.1885,0.5032246641145259
0.30806801360888064,0.188,0.5039319863911194
0.308,0.187839961014678,0.5041600389853219
0.3078546074924509,0.1875,0.5046453925075491
0.3075,0.18669874140459344,0.5058012585954066
0.3074101327705492,0.1865,0.5060898672294508
0.30717865429780117,0.186,0.5068213457021988
0.307,0.18562323161993338,0.5073767683800667
0.3069411923022593,0.1855,0.5075588076977406
0.3066971641344023,0.185,0.5083028358655977
0.3065,0.1846053271443619,0.508894672855638
0.30644704347783924,0.1845,0.5090529565221608
0.30619013898887293,0.184,0.509809861011127
0.306,0.1836381737761571,0.5103618262238429
0.3059269195798458,0.1835,0.5105730804201543
0.3055,0.18271593446611784,0.5117840655338821
0.3053800288252756,0.1825,0.5121199711747244
0.3050963531156917,0.182,0.5129036468843082
0.305,0.18183360644686064,0.5131663935531394
0.3048055533630385,0.1815,0.5136944466369615
0.3045079625121545,0.181,0.5144920374878454
0.3045,0.18098687643697528,0.5145131235630247
0.3042026482243493,0.1805,0.5152973517756507
0.304,0.18017485763120428,0.5158251423687956
0.30389029621024566,0.18,0.5161097037897544
0.30357044022347063,0.1795,0.5169295597765293
0.3035,0.17939195019363016,0.5171080498063698
0.3032427752803046,0.179,0.5177572247196953
0.303,0.17863715334952035,0.5183628466504797
0.30290761792451015,0.1785,0.5185923820754899
0.3025645130284999,0.178,0.5194354869715001
0.3025,0.1779076794398477,0.5195923205601523
0.3022131957025043,0.1775,0.5202868042974957
0.3015,0.17651831734715936,0.5219816826528406
0.30148645022471987,0.1765,0.5220135497752801
0.30111015729724233,0.176,0.5228898427027577
0.301,0.17585618357143798,0.5231438164285621
0.3007253078018256,0.1755,0.5237746921981744
0.3005,0.17521289912484214,0.5242871008751578
0.2999293520831674,0.1745,0.5255706479168326
0.29951776471939057,0.174,0.5264822352806096
0.2995,0.17397876923572284,0.5265212307642771
0.29909659708925185,0.1735,0.5274034029107482
0.299,0.1733872333246186,0.5276127666753815
0.2986659641682141,0.173,0.5283340358317858
0.2985,0.1728107127170771,0.528689287282923
0.2982256491794279,0.1725,0.5292743508205721
0.298,0.1722485169346596,0.5297514830653404
0.29777542940606166,0.172,0.5302245705939383
0.2975,0.17169999573213998,0.53080000426786
0.2973150759836487,0.1715,0.5311849240163513
0.297,0.17116453617700178,0.5318354638229983
0.29684435368371354,0.171,0.5321556463162864
0.2965,0.17064155997955568,0.5328584400204444
0.2963630206882546,0.1705,0.5331369793117454
0.2955,0.16963090325298757,0.5348690967470124
0.2953675209702981,0.1695,0.5351324790297018
0.295,0.16914221836247112,0.535857781637529
0.29485283549713764,0.169,0.5361471645028624
0.2945,0.16866400416212507,0.536835995837875
0.29432650130441407,0.1685,0.537173498695586
0.2935,0.16773725875209491,0.5387627412479051
0.2932377645905601,0.1675,0.5392622354094398
0.293,0.16728791821685507,0.539712081783145
0.2926747802754968,0.167,0.5403252197245032
0.2925,0.16684742688322157,0.5406525731167784
0.2920989830317092,0.1665,0.5414010169682908
0.2915,0.1659915866611617,0.5425084133388383
0.291,0.16557645924984643,0.5434235407501536
0.2909072002684297,0.1655,0.5435927997315704
0.2905,0.16516902681305637,0.5443309731869437
0.2896594409845667,0.1645,0.5458405590154333
0.2895,0.16437577521445954,0.5461242247855405
0.28901389054504173,0.164,0.5469861094549583
0.289,0.16398940278966248,0.5470105972103376
0.2885,0.16361074802403208,0.5478892519759679
0.28835260019441283,0.1635,0.5481473998055872
0.2875,0.16287230458379584,0.5496276954162042
0.287,0.16251206056051612,0.5504879394394839
0.28698313490272653,0.1625,0.5505168650972735
0.2865,0.1621588745570247,0.5513411254429753
0.2855463829138895,0.1615,0.5529536170861105
0.2855,0.1614685833986945,0.5530314166013055
0.285,0.1611324891969142,0.5538675108030859
0.2848012778721386,0.161,0.5541987221278614
0.2845,0.160801605507202,0.554698394492798
0.2840381182703462,0.1605,0.5554618817296538
0.2835,0.16015535928275018,0.5563446407172499
0.2832552433118216,0.16,0.5567447566881784
0.283,0.15983993762842005,0.55716006237158
0.2825,0.15952902569293614,0.5579709743070639
0.28245295549312077,0.1595,0.5580470445068793
0.2815,0.15892262923854872,0.5595773707614513
0.281,0.15862645345759852,0.5603735465424015
0.28078471423965434,0.1585,0.5607152857603457
0.2805,0.1583347247223248,0.5611652752776752
0.28,0.15804698196831474,0.5619530180316852
0.27902726804938793,0.1575,0.5634727319506121
0.279,0.1574849287454818,0.5635150712545182
0.2785,0.15721077212072046,0.5642892278792796
0.2781120805527864,0.157,0.5648879194472136
0.278,0.15693979615049194,0.5650602038495081
0.2771714540154348,0.1565,0.5663285459845652
0.277,0.15641050740493184,0.5665894925950681
0.2765,0.15615175449142563,0.5673482455085744
0.27620410968095627,0.156,0.5677958903190438
0.276,0.15589648827449257,0.5681035117255074
0.275208680889232,0.1555,0.569291319110768
0.275,0.15539719119549694,0.5696028088045031
0.2745,0.15515303388835242,0.5703469661116476
0.27418370523443975,0.155,0.5708162947655602
0.274,0.15491209370456674,0.5710879062954333
0.27312761586780915,0.1545,0.5723723841321909
0.273,0.1544406969778215,0.5725593030221785
0.2725,0.15421039235328116,0.5732896076467189
0.2720387318342221,0.154,0.5739612681657779
0.272,0.15398252447079627,0.5740174755292037
0.271,0.15353747310141638,0.5754625268985836
0.2709146139850911,0.1535,0.5755853860149089
0.2705,0.15331998424747836,0.5761800157525216
0.27,0.15310503073092618,0.5768949692690738
0.269,0.15268460722521604,0.5783153927747839
0.2685531020445237,0.1525,0.5789468979554763
0.2685,0.15247829492393883,0.5790217050760612
0.268,0.1522757976735728,0.5797242023264272
0.267,0.15187821426133527,0.5811217857386647
0.2665,0.151683784287145,0.581816215712855
0.26602235992769485,0.1515,0.5824776400723052
0.266,0.15149148534303902,0.582508514656961
0.265,0.1511163091255111,0.5838836908744889
0.2646850553069083,0.151,0.5843149446930918
0.2645,0.15093235873093855,0.5845676412690615
0.264,0.15075144556844225,0.5852485544315578
0.26329527079058535,0.1505,0.5862047292094147
0.263,0.15039648402742403,0.586603515972576
0.2625,0.15022305532126015,0.5872769446787399
0.262,0.15005156602804118,0.5879484339719588
0.261,0.14971692931982106,0.5892830706801789
0.2605,0.1495526987551146,0.5899473012448855
0.2603378056120042,0.1495,0.5901621943879958
0.26,0.14939133754753023,0.5906086624524698
0.259,0.14907516597394627,0.5919248340260537
0.25875811430844475,0.149,0.5922418856915552
0.2585,0.14892058397538258,0.5925794160246175
0.258,0.1487685043075598,0.5932314956924402
0.2571016608785523,0.1485,0.5943983391214477
0.257,0.1484701142321426,0.5945298857678574
0.2565,0.14832481020608673,0.5951751897939133
0.256,0.14818131191150283,0.5958186880884971
0.255,0.14790058606568351,0.5970994139343164
0.2545,0.14776367618432384,0.5977363238156762
0.254,0.14762853915028243,0.5983714608497176
0.25351812002711954,0.1475,0.5989818799728805
0.253,0.1473647423011786,0.5996352576988214
0.2525,0.1472360165336862,0.6002639834663138
0.252,0.14710903276646992,0.6008909672335301
0.251,0.14686147035066197,0.602138529649338
0.2505,0.1467407301772806,0.6027592698227194
0.25,0.14662170308339725,0.6033782969166027
0.24948104749504824,0.1465,0.6040189525049519
0.249,0.1463897185189207,0.6046102814810793
0.2485,0.1462767762595293,0.6052232237404708
0.248,0.1461655199829643,0.6058344800170357
0.247,0.14594849219564732,0.6070515078043527
0.2465,0.14584317039020875,0.6076568296097913
0.246,0.14573950920083947,0.6082604907991606
0.245,0.14553716029911415,0.6094628397008859
0.24481184770719092,0.1455,0.6096881522928091
0.2445,0.1454389811821534,0.6100610188178467
0.244,0.14534274891097004,0.61065725108903
0.243,0.14515518778408665,0.6118448122159134
0.2425,0.14506385542263733,0.6124361445773627
0.24214416682477044,0.145,0.6128558331752295
0.242,0.14497436657415944,0.6130256334258406
0.241,0.14480128360660743,0.6141987163933926
0.2405,0.14471715814527336,0.6147828418547268
0.24,0.14463464146208485,0.6153653585379152
0.239161322466355,0.1445,0.616338677533645
0.239,0.14447463849950087,0.6165253615004991
0.2385,0.14439757577109932,0.6171024242289007
0.238,0.144322102167265,0.6176778978327351
0.237,0.14417591791886553,0.6188240820811345
0.2365,0.14410520518499034,0.6193947948150097
0.236,0.14403607739693206,0.619963922603068
0.235,0.14390336268623785,0.6210966373137622
0.2345,0.14383950480420124,0.6216604951957988
0.234,0.14377721456416118,0.6222227854358389
0.2335,0.14371649127815483,0.6227835087218452
0.233,0.1436573343042686,0.6233426656957314
0.2325,0.14359974304661,0.62390025695339
0.232,0.14354371695528137,0.6244562830447187
0.23159871109052702,0.1435,0.624901288909473
0.2315,0.14348934180978032,0.6250106581902196
0.231,0.14343686885544527,0.6255631311445548
0.2305,0.1433859462988194,0.6261140537011806
0.23,0.14333657381928533,0.6266634261807147
0.2295,0.14328875114148798,0.627211248858512
0.229,0.14324247803533713,0.627757521964663
0.2285,0.143197754316016,0.628302245683984
0.228,0.1431545798439919,0.6288454201560081
0.2275,0.14311295452503264,0.6293870454749673
0.227,0.1430728783102249,0.6299271216897752
0.2265,0.14303435119599878,0.6304656488040012
0.22603554549150578,0.143,0.6309644545084943
0.226,0.14299739404711387,0.6310026059528862
0.2255,0.14296224585878492,0.631537754141215
0.225,0.142928634224453,0.632071365775547
0.2245,0.14289655935956438,0.6326034406404356
0.224,0.14286602152447375,0.6331339784755263
0.2235,0.14283702102449666,0.6336629789755033
0.223,0.14280955820996358,0.6341904417900365
0.2225,0.14278363347628034,0.6347163665237197
0.222,0.14275924726399047,0.6352407527360096
0.2215,0.14273640005884344,0.6357635999411565
0.221,0.14271509239186528,0.6362849076081347
0.2205,0.1426953248394352,0.6368046751605647
0.22,0.1426770980233644,0.6373229019766357
0.2195,0.14266041261098072,0.6378395873890192
0.219,0.14264526931521582,0.6383547306847842
0.2185,0.14263166889469864,0.6388683311053014
0.218,0.14261961215385052,0.6393803878461495
0.2175,0.142609099942987,0.639890900057013
0.217,0.14260013315842182,0.6403998668415782
0.2165,0.14259271274257723,0.6409072872574227
0.216,0.14258683968409636,0.6414131603159037
0.2155,0.14258251501796204,0.6419174849820379
0.215,0.14257973982561845,0.6424202601743816
0.2145,0.1425785152350982,0.6429214847649017
0.214,0.1425788424211529,0.6434211575788471
0.2135,0.14258072260538918,0.6439192773946107
0.213,0.1425841570564081,0.644415842943592
0.2125,0.14258914708995038,0.6449108529100496
0.212,0.1425956940690446,0.6454043059309554
0.2115,0.1426037994041616,0.6458962005958384
0.211,0.142613464553372,0.646386535446628
0.2105,0.14262469102250994,0.64687530897749
0.21,0.14263748036533966,0.6473625196346604
0.2095,0.14265183418372868,0.6478481658162714
0.209,0.14266775412782404,0.648332245872176
0.2085,0.14268524189623516,0.6488147581037649
0.208,0.14270429923621938,0.6492957007637806
0.2075,0.1427249279438746,0.6497750720561254
0.207,0.142747129864335,0.650252870135665
0.2065,0.14277090689197303,0.650729093108027
0.206,0.14279626097060544,0.6512037390293945
0.2055,0.14282319409370547,0.6516768059062945
0.205,0.14285170830461869,0.6521482916953814
0.2045,0.1428818056967857,0.6526181943032143
0.204,0.14291348841396825,0.6530865115860318
0.2035,0.1429467586504825,0.6535532413495175
0.2025,0.1430182088672501,0.6544817911327498
0.202,0.14305654582844957,0.6549434541715504
0.2015,0.14309649126776972,0.6554035087322303
0.2005,0.14318121739138354,0.6563187826086164
0.2,0.1432260031126995,0.6567739968873005
0.1995,0.14327240738672664,0.6572275926132733
0.1985,0.14337008225246978,0.6581299177475302
0.198,0.14342135830849034,0.6585786416915097
0.1975,0.1434742638464239,0.6590257361535761
0.19726414282754096,0.1435,0.659235857172459
0.1965,0.14358561862100686,0.6599143813789932
0.196,0.14364386703771445,0.6603561329622856
0.1955,0.143703768390273,0.660796231609727
0.1945,0.14382854229593678,0.6616714577040632
0.194,0.14389342118771872,0.6621065788122813
0.1935,0.14395996569339856,0.6625400343066015
0.1925,0.14409880361346664,0.6634011963865334
0.192,0.14417090306358382,0.6638290969364162
0.1915,0.14424469343023327,0.6642553065697667
0.1905,0.14439736115820617,0.6651026388417938
0.19,0.1444762457929787,0.6655237542070214
0.18985269745494138,0.1445,0.6656473025450587
0.1895,0.144557262424811,0.665942737575189
0.1885,0.14472481946336327,0.6667751805366368
0.188,0.14481118921583713,0.6671888107841629
0.1875,0.14489929173996902,0.667600708260031
0.1865,0.14508131474406474,0.6684186852559353
0.186,0.1451753366881032,0.6688246633118968
0.1855,0.14527111982092855,0.6692288801790715
0.1845,0.14546798694015367,0.6700320130598463
0.1843417416919577,0.1455,0.6701582583080423
0.184,0.1455695946755984,0.6704304053244017
0.1835,0.1456732320180395,0.6708267679819605
0.1825,0.14588589739950167,0.6716141026004984
0.182,0.14599493480790482,0.6720050651920952
0.18197716773320516,0.146,0.6720228322667948
0.1815,0.14610656794749988,0.6723934320525001
0.1805,0.14633539383014918,0.6731646061698509
0.18,0.14645255884782477,0.6735474411521754
0.17980076312392929,0.1465,0.6736992368760707
0.1795,0.14657209615594427,0.6739279038440558
0.1785,0.14681745681581068,0.6746825431841893
0.178,0.146942938550704,0.6750570614492961
0.17777606500357226,0.147,0.6752239349964277
0.1775,0.1470708153839093,0.6754291846160907
0.1765,0.14733309770002045,0.6761669022999796
0.176,0.14746709165847505,0.676532908341525
0.1758789924148551,0.1475,0.6766210075851449
0.1755,0.14760375589979322,0.6768962441002068
0.1745,0.14788335995296065,0.6776166400470394
0.1740913872823758,0.148,0.6779086127176241
0.174,0.1480262606813959,0.6779737393186042
0.1735,0.14817198090911182,0.6783280190908882
0.1725,0.14846932061588608,0.6790306793841139
0.17239889333387748,0.1485,0.6791011066661226
0.172,0.1486218432757887,0.6793781567242114
0.1715,0.14877658804423,0.67972341195577
0.171,0.14893333535637837,0.6800666646436215
0.1707901277826418,0.149,0.6802098722173582
0.1705,0.14909276912852665,0.6804072308714734
0.17,0.1492547222889944,0.6807452777110056
0.1695,0.14941871094017753,0.6810812890598225
0.16925528827609085,0.1495,0.6812447117239092
0.169,0.1495853645157578,0.6814146354842422
0.1685,0.14975467810980683,0.6817453218901932
0.168,0.14992606116732177,0.6820739388326782
0.16778695767146895,0.15,0.682213042328531
0.1675,0.15010025115559783,0.6823997488444022
0.167,0.1502770812236423,0.6827229187763577
0.1665,0.15045601579511594,0.6830439842048841
0.16637859377373324,0.1505,0.6831214062262668
0.166,0.1506380669769415,0.6833619330230585
0.1655,0.15082257370773514,0.6836774262922649
0.16502471879706776,0.151,0.6839752812029323
0.165,0.15100928865925703,0.683990711340743
0.1645,0.15119946668450315,0.6843005333154969
0.164,0.15139181457162174,0.6846081854283782
0.16372201426388058,0.1515,0.6847779857361195
0.1635,0.15158697236219468,0.6849130276378054
0.163,0.15178512234910124,0.6852148776508987
0.1625,0.15198548035481743,0.6855145196451826
0.1624641862262728,0.152,0.6855358137737272
0.162,0.15218942971275076,0.6858105702872492
0.1615,0.15239572402456086,0.6861042759754392
0.16125007842099845,0.1525,0.6862499215790016
0.161,0.15260502787085212,0.6863949721291478
0.1605,0.15281736462431408,0.686682635375686
0.1600745523656087,0.153,0.6869254476343913
0.16,0.15303221409985743,0.6869677859001425
0.1595,0.1532507014681721,0.6872492985318279
0.159,0.1534715001268263,0.6875284998731737
0.15893617377636227,0.1535,0.6875638262236378
0.1585,0.1536960401426502,0.6878039598573498
0.158,0.15392313265005772,0.6880768673499422
0.15783257557520525,0.154,0.6881674244247947
0.1575,0.15415369266509907,0.688346307334901
0.157,0.15438719214397717,0.6886128078560227
0.1567609780770132,0.1545,0.6887390219229869
0.1565,0.15462397764699465,0.6888760223530054
0.156,0.15486399944066487,0.6891360005593351
0.15571961327265413,0.155,0.6892803867273458
0.1555,0.1551072204622841,0.6893927795377159
0.155,0.15535388219292193,0.6896461178070781
0.15470682198359886,0.1555,0.6897931780164012
0.1545,0.1556037534209771,0.6898962465790229
0.154,0.15585717504980942,0.6901428249501905
0.15372104549619428,0.156,0.6902789545038057
0.1535,0.15611391594818266,0.6903860840518173
0.153,0.1563742198377092,0.6906257801622908
0.152760817950841,0.1565,0.690739182049159
0.1525,0.15663805476879566,0.6908619452312044
0.152,0.1569053657471187,0.6910946342528813
0.15182475940768192,0.157,0.691175240592318
0.1515,0.1571765240980526,0.6913234759019474
0.151,0.15745096952539894,0.691549030474601
0.15091156951955592,0.1575,0.691588430480444
0.1505,0.15772968583818045,0.6917703141618196
0.15002024068185615,0.158,0.6919797593181438
0.15,0.1580114788373854,0.6919885211626146
0.1495,0.15829790978137648,0.6922020902186236
0.14915057259889541,0.1585,0.6923494274011046
0.149,0.15858765163804997,0.69241234836195
0.1485,0.15888157381936574,0.6926184261806343
0.1483004789263263,0.159,0.6926995210736737
0.148,0.15917951350680695,0.692820486493193
0.1475,0.1594810641597951,0.6930189358402049
0.14746890972487633,0.1595,0.6930310902751237
0.147,0.1597874563202208,0.6932125436797791
0.14665651652603603,0.16,0.6933434834739639
0.1465,0.1600974823149408,0.6934025176850592
0.146,0.1604118806445911,0.6935881193554089
0.14586118976251397,0.1605,0.6936388102374861
0.1455,0.1607307847240494,0.6937692152759507
0.1450825511084662,0.161,0.6939174488915337
0.145,0.1610535848342366,0.6939464151657634
0.1445,0.16138124866626452,0.6941187513337355
0.14432047585484248,0.1615,0.6941795241451576
0.144,0.16171336940539,0.69428663059461
0.1435734266821278,0.162,0.6944265733178722
0.1435,0.1620496597871575,0.6944503402128426
0.143,0.16239102147416962,0.6946089785258304
0.14284184755114746,0.1625,0.6946581524488525
0.1425,0.16273709274336254,0.6947629072566375
0.1421243742466691,0.163,0.6948756257533308
0.142,0.16308761923352358,0.6949123807664764
0.1415,0.16344312629400923,0.6950568737059908
0.14142074870891275,0.1635,0.6950792512910873
0.141,0.16380391246819961,0.6951960875318004
0.14005349217229612,0.1645,0.6954465078277039
0.14,0.1645398582754392,0.6954601417245607
0.1395,0.16491586518932327,0.6955841348106768
0.1393891320884557,0.165,0.6956108679115443
0.139,0.16529722722845896,0.695702772771541
0.13873690120467336,0.1655,0.6957630987953267
0.138,0.16607562258622305,0.6959243774137769
0.1375,0.1664730982904041,0.6960269017095959
0.13746646523483225,0.1665,0.6960335347651677
0.137,0.16687664064672816,0.6961233593532719
0.13624111500505023,0.1675,0.6962588849949498
0.136,0.16770077724991864,0.6962992227500814
0.1356438379209584,0.168,0.6963561620790416
0.1355,0.16812163206756361,0.6963783679324365
0.1350565049585823,0.1685,0.6964434950414177
0.135,0.16854852231185055,0.6964514776881494
0.134,0.1694215391692791,0.6965784608307208
0.13391161064782647,0.1695,0.6965883893521736
0.1335,0.16986776455385383,0.6966322354461463
0.13335329697230106,0.17,0.6966467030276989
0.133,0.17032053895590302,0.696679461044097
0.13280393110082644,0.1705,0.6966960688991736
0.132,0.17124632036194948,0.6967536796380505
0.13173120111384476,0.1715,0.6967687988861553
0.1315,0.17171962707022356,0.6967803729297765
0.13120742749750244,0.172,0.6967925725024975
0.131,0.17220008232725806,0.696799917672742
0.13069178244670793,0.1725,0.696808217553292
0.13,0.17318306972879519,0.6968169302712048
0.1296841063616533,0.1735,0.6968158936383467
0.1295,0.17368592505891225,0.6968140749410878
0.12919169967898572,0.174,0.6968083003210144
0.129,0.17419657544454387,0.6968034245554562
0.1287066700551509,0.1745,0.6967933299448491
0.128,0.17524194252268044,0.6967580574773196
0.1277580332977581,0.1755,0.6967419667022419
0.1275,0.17577700805246957,0.6967229919475305
0.12729408100544978,0.176,0.6967059189945501
0.127,0.17632056646220315,0.6966794335377968
0.12683681526800186,0.1765,0.6966631847319982
0.126,0.17743389761158834,0.6965661023884117
0.12594169156733312,0.1775,0.6965583084326669
0.12550354956597146,0.178,0.6964964504340285
0.1255,0.17800407803887094,0.6964959219611291
0.1250720730703376,0.1785,0.6964279269296624
0.125,0.17858407978214175,0.6964159202178583
0.12422683466093384,0.1795,0.6962731653390661
0.124,0.17977284385246334,0.6962271561475366
0.12381277688445756,0.18,0.6961872231155424
0.1235,0.18038201778846716,0.6961179822115329
0.12340423441036828,0.1805,0.6960957655896317
0.12300107672644592,0.181,0.6959989232735542
0.123,0.18100134455233788,0.6959986554476622
