p1,p2,p3
0.18452289785739262,0.813,0.0024771021426074347
0.185,0.812524382098985,0.002475617901014915
0.18552600582539,0.812,0.002473994174609917
0.186,0.8115274682104986,0.0024725317895014642
0.18452289785739262,0.813,0.0024771021426074347
