'p1','p2','p3'
0.01,0.7715600671219744,0.21843993287802554
0.011888654527424358,0.78,0.2081113454725756
0.014314230673096787,0.79,0.19568576932690318
0.016964189609518177,0.8,0.18303581039048178
0.01987974990292856,0.81,0.17012025009707143
0.02,0.8103790084167843,0.16962099158321564
0.027516685112142624,0.82,0.15248331488785738
0.03,0.8227570377827126,0.1472429622172874
0.04,0.8264663858808253,0.13353361411917464
0.05,0.8259889367418318,0.12401106325816813
