p1,p2,p3
0.198,0.05736946601684454,0.7446305339831555
0.196,0.05747929682743813,0.7465207031725619
0.194,0.05759555569357618,0.7484044443064238
0.192,0.057718339333622116,0.7502816606663779
0.19,0.05784774793397535,0.7521522520660247
0.188,0.05798388528986399,0.7540161147101361
0.186,0.058129566167499244,0.7558704338325009
0.184,0.05828268328605483,0.7577173167139453
0.182,0.058443010305506235,0.7595569896944938
0.18,0.058610669337244715,0.7613893306627554
0.178,0.05878578702216615,0.7632142129778339
0.176,0.058968494729544005,0.765031505270456
0.17566576028110084,0.059,0.7653342397188991
0.174,0.0591622643702909,0.7668377356297091
0.172,0.05936472353627203,0.7686352764637281
0.14,0.06403645024315006,0.7959635497568499
0.139,0.06423767373570236,0.7967623262642977
0.138,0.06444212487436755,0.7975578751256325
0.137,0.06464984519303327,0.7983501548069667
0.136,0.06486087717138835,0.7991391228286117
0.13535113024756126,0.065,0.7996488697524387
0.135,0.06507671615597861,0.7999232838440213
0.134,0.06529870225077875,0.8007012977492213
0.133,0.06552419714874604,0.801475802851254
0.132,0.06575324824770588,0.8022467517522941
0.131,0.06598590406118425,0.8030140959388158
0.1309403655043121,0.066,0.803059634495688
0.13,0.06622644650215317,0.8037735534978468
0.129,0.06647103037720374,0.8045289696227963
0.128,0.06671944013853857,0.8052805598614614
0.127,0.06697173007651602,0.806028269923484
0.1268896955784354,0.067,0.8061103044215645
0.126,0.06723224462947065,0.8067677553705294
0.125,0.06749735596673913,0.8075026440332609
0.124,0.0677665914650261,0.8082334085349739
0.12314637447657352,0.068,0.8088536255234264
0.123,0.06804075608508837,0.8089592439149116
0.122,0.0683235856458779,0.8096764143541221
0.121,0.06861080346619212,0.8103891965338079
0.12,0.06890247635288896,0.8110975236471111
0.11967081048155889,0.069,0.8113291895184411
0.119,0.0692023239337561,0.8117976760662439
0.118,0.06950863900739652,0.8124913609926034
0.117,0.06981970212657415,0.8131802978734258
0.11642930364327629,0.07,0.8135706963567237
0.116,0.07013805247591048,0.8138619475240896
0.115,0.07046466606794002,0.81453533393206
0.114,0.07079634624511866,0.8152036537548814
0.11339545133088993,0.071,0.8156045486691101
0.113,0.07113556934142144,0.8158644306585786
0.112,0.0714837783088215,0.8165162216911785
0.111,0.07183740090040354,0.8171625990995964
0.11054731291382734,0.072,0.8174526870861727
0.11,0.07220002239267069,0.8177999776073294
0.109,0.07257122971677658,0.8184287702832235
0.108,0.072948229566065,0.8190517704339351
0.1078648269552235,0.073,0.8191351730447766
0.107,0.07333694711798695,0.819663052882013
0.106,0.07373267392713005,0.82026732607287
0.10533496894040419,0.074,0.8206650310595959
0.105,0.07413695162578646,0.8208630483742135
0.104,0.07455230967963779,0.8214476903203622
0.103,0.07497420902181111,0.822025790978189
0.10293983720109809,0.075,0.8220601627989019
0.102,0.07540971134108199,0.822590288658918
0.101,0.07585255608186228,0.8231474439181378
0.10067232355357576,0.076,0.8233276764464242
0.1,0.07630758998967238,0.8236924100103277
0.099,0.07677241970726914,0.8242275802927309
0.0985181722162736,0.077,0.8244818277837265
0.098,0.07724880426468102,0.824751195735319
0.097,0.07773672301249356,0.8252632769875065
0.0964690195924724,0.078,0.8255309804075276
0.096,0.07823637244042525,0.8257636275595748
0.095,0.07874855417550766,0.8262514458244924
0.09451696718980829,0.079,0.8264830328101918
0.094,0.07927348570837794,0.826726514291622
0.093,0.07981118030361771,0.8271888196963824
0.09265454412456713,0.08,0.827345455875433
0.092,0.08036352282172103,0.827636477178279
0.091,0.0809280627385294,0.8280719372614707
0.09087467242082369,0.081,0.8281253275791763
0.09,0.08151006627994381,0.8284899337200562
0.08917358600588575,0.082,0.8288264139941143
0.089,0.08210453655848818,0.8288954634415119
0.088,0.08271692025852781,0.8292830797414722
0.08754540978909056,0.083,0.8294545902109095
0.087,0.08334495670572557,0.8296550432942744
0.086,0.08398813052120391,0.8300118694787961
0.08598185757641096,0.084,0.8300181424235891
0.085,0.08465234668307046,0.8303476533169296
0.08448555025639214,0.085,0.8305144497436079
0.084,0.08533317756946286,0.8306668224305371
0.08304468613517521,0.086,0.8309553138648248
0.083,0.08603166802957399,0.8309683319704261
0.082,0.08675273615724258,0.8312472638427575
0.08166298009246682,0.087,0.8313370199075332
0.081,0.08749378130092787,0.8315062186990722
0.08033207416836166,0.088,0.8316679258316384
0.08,0.08825545996995583,0.8317445400300442
0.0790490258821253,0.089,0.8319509741178748
0.079,0.08903895584531266,0.8319610441546874
0.078,0.08984780547209723,0.8321521945279028
0.07781516756811585,0.09,0.8321848324318842
0.077,0.09068115266555891,0.8323188473344412
0.07662521800724091,0.091,0.8323747819927592
0.076,0.09153971537102604,0.832460284628974
0.07547637161263783,0.092,0.8325236283873622
0.075,0.09242484657071824,0.8325751534292818
0.07436676934539986,0.093,0.8326332306546002
0.074,0.09333795014967726,0.8326620498503228
0.07329461240818219,0.094,0.8327053875918179
0.073,0.09428048377063564,0.8327195162293644
0.07225815929880605,0.095,0.832741840701194
0.072,0.0952539619315614,0.8327460380684386
0.07125572299764187,0.096,0.8327442770023582
0.071,0.09625995922115536,0.8327400407788447
0.07028566827948636,0.097,0.8327143317205137
0.07,0.0973001137890285,0.8326998862109715
0.0693464091411892,0.098,0.8326535908588109
0.069,0.09837613104890786,0.8326238689510922
0.06843640633677488,0.099,0.8325635936632252
0.068,0.09948978763502923,0.8325102123649707
0.06755416501223965,0.1,0.8324458349877604
0.067,0.10064293563388953,0.8323570643661106
0.06669823243259854,0.101,0.8323017675674015
0.066,0.10183750711579935,0.8321624928842006
0.06586719579410324,0.102,0.8321328042058967
0.06506091393671351,0.103,0.8319390860632865
0.065,0.10307657768160115,0.8319234223183989
0.06428007709701226,0.104,0.8317199229029878
0.064,0.10436408551968074,0.8316359144803191
0.06352065383359265,0.105,0.8314793461664074
0.063,0.10569996506992069,0.8313000349300794
0.06278136350580452,0.106,0.8312186364941955
0.06206225800929837,0.107,0.8309377419907017
0.062,0.10708773336041569,0.8309122666395843
0.061365947123176924,0.108,0.8306340528768231
0.061,0.1085334567929386,0.8304665432070615
0.06068661465277618,0.109,0.8303133853472239
0.060023593307729266,0.11,0.8299764066922708
0.06,0.11003605435677254,0.8299639456432274
0.05938249729491199,0.111,0.829617502705088
0.059,0.11160483956057173,0.8293951604394283
0.0587554298828706,0.112,0.8292445701171294
0.058144450007672224,0.113,0.8288555499923278
0.058,0.11323949255778704,0.8287605074422129
0.057551203017525934,0.114,0.8284487969824741
0.057,0.11494598257175577,0.8280540174282441
0.05696921345495198,0.115,0.828030786545048
0.056406564008163476,0.116,0.8275934359918365
0.056,0.11673175774740176,0.8272682422525982
0.05585426720129691,0.117,0.8271457327987031
0.05531784355141457,0.118,0.8266821564485854
0.055,0.11860001736095944,0.8263999826390405
0.054792878978292596,0.119,0.8262071210217075
0.054281534969109604,0.12,0.8257184650308904
0.054,0.12055750658547645,0.8254424934145235
0.0537816353786437,0.121,0.8252183646213563
0.05329428286924052,0.122,0.8247057171307595
0.053,0.12261138569535411,0.8243886143046458
0.05281726752894835,0.123,0.8241827324710517
0.052352872608773644,0.124,0.8236471273912264
0.052,0.12476926601830443,0.8232307339816956
0.05189664096730225,0.125,0.8231033590326977
0.05145422047563168,0.126,0.8225457795243684
0.05101715935311772,0.127,0.8219828406468823
0.051,0.12703975164484535,0.8219602483551546
0.05059536451518851,0.128,0.8214046354848115
0.050179066514605804,0.129,0.8208209334853942
0.05,0.12943544764591972,0.8205645523540802
0.04977345593353819,0.13,0.8202265440664618
0.04937704499539692,0.131,0.819622955004603
0.049,0.1319627021190275,0.8190372978809725
0.048985751015743546,0.132,0.8190142489842565
0.0486083919456918,0.133,0.8183916080543082
0.04823554497462401,0.134,0.817764455025376
0.048,0.13463943835346082,0.8173605616465391
0.04787049952814626,0.135,0.8171295004718537
0.04751567829745368,0.136,0.8164843217025463
0.047165081395705855,0.137,0.8158349186042941
0.047,0.13747658693596465,0.8155234130640353
0.04682330367664521,0.138,0.8151766963233548
0.04648977027531424,0.139,0.8145102297246858
0.046160194391341385,0.14,0.8138398056086587
0.046,0.14049195469942072,0.8135080453005792
0.045838841395311476,0.141,0.8131611586046885
0.045525425375420696,0.142,0.8124745746245793
0.04521571912524116,0.143,0.8117842808747588
0.045,0.14370491480474262,0.8112950851952574
0.04491207319859902,0.144,0.811087926801401
0.04461767703823115,0.145,0.8103823229617688
0.04432676027231729,0.146,0.8096732397276827
0.044039279376194146,0.147,0.8089607206238059
0.044,0.14713829418106675,0.8088617058189332
0.043761810776478935,0.148,0.8082381892235211
0.04348866880149573,0.149,0.8075113311985043
0.04321875188557957,0.15,0.8067812481144204
0.043,0.1508201575026746,0.8061798424973253
0.042953342390792286,0.151,0.8060466576092077
0.04269702076810137,0.152,0.8053029792318986
0.042443727555208345,0.153,0.8045562724447917
0.042193427033147615,0.154,0.8038065729668523
0.042,0.15478206001901212,0.8032179399809878
0.041947597858960274,0.155,0.8030524021410397
0.041710042449945126,0.156,0.8022899575500548
0.041475299048247455,0.157,0.8015247009517525
0.041243335567346155,0.158,0.8007566644326538
0.04101412054822971,0.159,0.7999858794517702
0.041,0.1590623565956263,0.7999376434043737
0.040793705931446836,0.16,0.7992062940685531
0.04057630919196392,0.161,0.798423690808036
0.040361497134576055,0.162,0.7976385028654239
0.04014924145118269,0.163,0.7968507585488173
0.04,0.16371164482533118,0.7962883551746688
0.03994128232455901,0.164,0.7960587176754409
0.03974011553562052,0.165,0.7952598844643795
0.039541353912144195,0.166,0.7944586460878558
0.03934497195287632,0.167,0.7936550280471236
0.039150944631771774,0.168,0.7928490553682281
0.039,0.16878744876926555,0.7922125512307344
0.03896046401703154,0.169,0.7920395359829684
0.03877672844121633,0.17,0.7912232715587836
0.03859520965204376,0.171,0.7904047903479562
0.03404817247101984,0.204,0.7619518275289802
0.034,0.20446761255815551,0.7615323874418445
0.03394698622343793,0.205,0.7610530137765621
0.03384880283786471,0.206,0.7601511971621353
0.033751993560146826,0.207,0.7592480064398532
0.03365654789820945,0.208,0.7583434521017905
0.03356245552545772,0.209,0.7574375444745424
0.0334697062777087,0.21,0.7565302937222913
0.03337829015019728,0.211,0.7556217098498027
0.033288197294653564,0.212,0.7547118027053464
0.03319941801645008,0.213,0.7538005819835499
0.03311194277181663,0.214,0.7528880572281834
0.03302576216512099,0.215,0.751974237834879
0.033,0.21530350185599065,0.7516964981440093
0.03294290729493974,0.216,0.7510570927050603
0.03286217462951072,0.217,0.7501378253704893
0.03278266677143733,0.218,0.7492173332285627
0.03270437517417582,0.219,0.7482956248258242
0.03262729142209237,0.22,0.7473727085779076
0.03255140722817987,0.221,0.7464485927718202
0.032476714431827126,0.222,0.7455232855681729
0.03240320499663906,0.223,0.744596795003361
0.03233087100830648,0.224,0.7436691289916936
0.03225970467252426,0.225,0.7427402953274758
0.03218969831295661,0.226,0.7418103016870434
0.032120844369248024,0.227,0.740879155630752
0.03205313539507894,0.228,0.7399468646049211
0.032,0.22879820537336265,0.7392017946266374
0.03198704077530863,0.229,0.7390129592246913
0.03192392234704142,0.23,0.7380760776529586
0.03186188833750761,0.231,0.7371381116624924
0.03180093196587184,0.232,0.7361990680341282
0.03174104655259565,0.233,0.7352589534474043
0.03168222551779451,0.234,0.7343177744822055
0.03162446237963081,0.235,0.7333755376203692
0.03156775075274183,0.236,0.7324322492472581
0.031512084346701774,0.237,0.7314879156532982
0.03145745696451713,0.238,0.7305425430354828
0.03140386250115437,0.239,0.7295961374988457
0.03135129494209946,0.24,0.7286487050579006
0.03129974836194789,0.241,0.7277002516380521
0.031249216923025184,0.242,0.7267507830769748
0.03119969487403646,0.243,0.7258003051259635
0.031151176548744774,0.244,0.7248488234512552
0.031103656364677393,0.245,0.7238963436353226
0.031057128821859268,0.246,0.7229428711781407
0.0310115885015732,0.247,0.7219884114984269
0.031,0.2472601144988645,0.7217398855011354
0.030968235579819967,0.248,0.72103176442018
0.030926247902618643,0.249,0.7200737520973813
0.03088519682651966,0.25,0.7191148031734803
0.030845077412909577,0.251,0.7181549225870905
0.030805884795883243,0.252,0.7171941152041168
0.03076761418118806,0.253,0.716232385818812
0.03073026084519014,0.254,0.7152697391548098
0.03069382013386146,0.255,0.7143061798661385
0.030658287461787982,0.256,0.713341712538212
0.03062365831119789,0.257,0.7123763416888022
0.030589928231009637,0.258,0.7114100717689904
0.030557092835899403,0.259,0.7104429071641006
0.03052514780538731,0.26,0.7094748521946127
0.030494088882942322,0.261,0.7085059111170576
0.030463911875105047,0.262,0.707536088124895
0.03043461265062827,0.263,0.7065653873493717
0.030406187139634756,0.264,0.7055938128603653
0.030378631332791894,0.265,0.7046213686672081
0.030351941280502937,0.266,0.7036480587194971
0.030326113092114356,0.267,0.7026738869078857
0.03030114293513898,0.268,0.701698857064861
0.030277027034494624,0.269,0.7007229729655053
0.030253761671757803,0.27,0.6997462383282422
0.03023134318443236,0.271,0.6987686568155677
0.03020976796523243,0.272,0.6977902320347675
0.03018903246137968,0.273,0.6968109675386203
0.03016913317391437,0.274,0.6958308668260856
0.030150066657020153,0.275,0.6948499333429798
0.030131829517361857,0.276,0.6938681704826382
0.030114418413436646,0.277,0.6928855815865633
0.030097830054937703,0.278,0.6919021699450623
0.03008206120213054,0.279,0.6909179387978694
0.030067108665241402,0.28,0.6899328913347585
0.030052969303857785,0.281,0.6889470306961422
0.029985606832549933,0.287,0.6830143931674502
0.029969951595775108,0.289,0.6810300484042249
0.029957325756842974,0.291,0.679042674243157
0.029947708711852507,0.293,0.6770522912881476
0.02994108051838023,0.295,0.6750589194816199
0.0299374218812628,0.297,0.6730625781187372
0.029936714138928372,0.299,0.6710632858610717
0.029938939250256404,0.301,0.6690610607497436
0.029944079781946666,0.303,0.6670559202180533
0.029952118896378978,0.305,0.6650478811036211
0.02996304033994612,0.307,0.6630369596600538
0.029976828431843367,0.309,0.6610231715681567
0.029993468053298736,0.311,0.6590065319467013
0.030695256266973513,0.344,0.6253047437330265
0.030728528551809013,0.345,0.6242714714481911
0.030762494661262966,0.346,0.623237505338737
0.030797153830886784,0.347,0.6222028461691133
0.030832505323883007,0.348,0.621167494676117
0.03086854843096971,0.349,0.6201314515690303
0.030905282470248784,0.35,0.6190947175297512
0.03094270678707804,0.351,0.618057293212922
0.030980820753947202,0.352,0.6170191792460528
0.031,0.3524943425738598,0.6165056574261402
0.031020389769723367,0.353,0.6159796102302767
0.03106142352113764,0.354,0.6149385764788624
0.031103173062424792,0.355,0.6138968269375752
0.031145637885003904,0.356,0.6128543621149961
0.031188817508128665,0.357,0.6118111824918714
0.03123271147878549,0.358,0.6107672885212145
0.03127731937159556,0.359,0.6097226806284044
0.03132264078872038,0.36,0.6086773592112796
0.031368675359771184,0.361,0.6076313246402288
0.03141542274172192,0.362,0.6065845772582781
0.031462882618825946,0.363,0.6055371173811741
0.0315110547025363,0.364,0.6044889452974637
0.03155993873142953,0.365,0.6034400612685705
0.03160953447113318,0.366,0.6023904655288669
0.031659841714256676,0.367,0.6013401582857434
0.031710860280325805,0.368,0.6002891397196742
0.031762590015720744,0.369,0.5992374099842792
0.0318150307936174,0.37,0.5981849692063826
0.03186818251393237,0.371,0.5971318174860676
0.03192204510327114,0.372,0.5960779548967289
0.031976618514879894,0.373,0.5950233814851201
0.032,0.37342300984068094,0.594576990159319
0.03203312532883995,0.374,0.59396687467116
0.032091267450163344,0.375,0.5929087325498367
0.032150149231577614,0.376,0.5918498507684223
0.03220977077430092,0.377,0.5907902292256991
0.03227013220735144,0.378,0.5897298677926486
0.032331233687523574,0.379,0.5886687663124764
0.03239307539936742,0.38,0.5876069246006326
0.032455657555171935,0.381,0.586544342444828
0.03251898039495153,0.382,0.5854810196050485
0.03258304418643605,0.383,0.5844169558135639
0.03264784922506424,0.384,0.5833521507749357
0.03271339583398073,0.385,0.5822866041660193
0.03277968436403643,0.386,0.5812203156359635
0.03284671519379232,0.387,0.5801532848062076
0.032914488729526716,0.388,0.5790855112704733
0.03298300540524598,0.389,0.578016994594754
0.033,0.389245437898617,0.577754562101383
0.03305423277770812,0.39,0.5769457672222918
0.03312687370680242,0.391,0.5758731262931975
0.033200289415702654,0.392,0.5747997105842974
0.03327448051797196,0.393,0.573725519482028
0.03334944765650836,0.394,0.5726505523434916
0.033425191503584376,0.395,0.5715748084964156
0.0335017127608901,0.396,0.5704982872391099
0.033579012159580014,0.397,0.56942098784042
0.033657090460323585,0.398,0.5683429095396764
0.03373594845335936,0.399,0.5672640515466406
0.03381558695855278,0.4,0.5661844130414472
0.03389600682545785,0.401,0.5651039931745421
0.03397720893338228,0.402,0.5640227910666177
0.034,0.4022780669765032,0.5637219330234968
0.03406138358941079,0.403,0.5629386164105892
0.03414721661359677,0.404,0.5618527833864032
0.034233866470480795,0.405,0.5607661335295192
0.034321334253293694,0.406,0.5596786657467063
0.04099328207861385,0.46,0.4990067179213861
0.041,0.4600402014572217,0.4989597985427783
0.04116588532690274,0.461,0.4978341146730972
0.04133996412022654,0.462,0.4966600358797734
0.04151529801080783,0.463,0.4954847019891922
0.04169189221054504,0.464,0.49430810778945494
0.04186975200407368,0.465,0.49313024799592625
0.042,0.46572724728674525,0.4922727527132547
0.04205050812563166,0.466,0.49194949187436826
0.042236919996955384,0.467,0.49076308000304464
0.04242466613517597,0.468,0.48957533386482405
0.04261375249728036,0.469,0.48838624750271964
0.042804185122325616,0.47,0.4871958148776744
0.04299597013236413,0.471,0.4860040298676359
0.043,0.47102087957317496,0.485979120426825
0.04319534788123281,0.472,0.4848046521187672
0.04339627920485863,0.473,0.48360372079514136
0.043598638172523296,0.474,0.4824013618274767
0.04380243167801885,0.475,0.48119756832198113
0.044,0.47596267207054066,0.4800373279294593
0.04400791713123245,0.476,0.4799920828687676
0.044221358164033824,0.477,0.4787786418359662
0.04443631498283198,0.478,0.47756368501716806
0.04465279534687851,0.479,0.4763472046531215
0.04487080712123286,0.48,0.4751291928787672
0.045,0.48058864017857733,0.47441135982142263
0.045093288572559266,0.481,0.4739067114274408
0.04532156715263356,0.482,0.47267843284736644
0.04555146594000211,0.483,0.47144853405999787
0.04578299378598892,0.484,0.4702170062140111
0.046,0.48493075071079467,0.4690692492892053
0.04601668003665038,0.485,0.46898331996334963
0.04625906279946937,0.486,0.46774093720053067
0.0465031710005541,0.487,0.4664968289994459
0.04674901460281996,0.488,0.46525098539718
0.046996603706050605,0.489,0.4640033962939494
0.047,0.48901363332374453,0.4639863666762554
0.047253829862963725,0.49,0.46274617013703634
0.047513005020707856,0.491,0.46148699497929213
0.04777403168397491,0.492,0.46022596831602514
0.048,0.49285967385897705,0.4591403261410229
0.048038097258209636,0.493,0.4589619027417904
0.04831130569932908,0.494,0.45768869430067094
0.048586480099045225,0.495,0.4564135199009548
0.04886363309944727,0.496,0.4551363669005527
0.049,0.4964887755370849,0.45451122446291503
0.04914730789019864,0.497,0.4538526921098014
0.04943739415787202,0.498,0.45256260584212793
0.0497295842732877,0.499,0.45127041572671234
0.05,0.4999188992683138,0.45008110073168617
0.050024647558428316,0.5,0.4499753524415717
0.050330469723435786,0.501,0.4486695302765642
0.05063853158430553,0.502,0.44736146841569446
0.0509488490146958,0.503,0.44605115098530423
0.051,0.5031637944081763,0.4458362055918237
0.05126968620973258,0.504,0.4447303137902674
0.051594522332427596,0.505,0.44340547766757243
0.05192176351297444,0.506,0.4420782364870256
0.052,0.5062375418908215,0.44176245810917847
0.0522593441264221,0.507,0.4407406558735779
0.05260193281029304,0.508,0.439398067189707
0.05294708949614175,0.509,0.4380529105038582
0.053,0.5091523187372042,0.4378476812627957
0.05330410811909618,0.51,0.43669589188090385
0.05366551249770025,0.511,0.43533448750229975
0.054,0.5119186426358328,0.4340813573641672
0.054030594490566866,0.512,0.4339694055094331
0.05440905652447652,0.513,0.4325909434755235
0.05479043497632907,0.514,0.4312095650236709
0.055,0.5145456401052394,0.43045435989476055
0.05518024815892223,0.515,0.4298197518410778
0.05557973867560277,0.516,0.42842026132439726
0.05598235684305043,0.517,0.42701764315694957
0.056,0.5170435426084885,0.42695645739151145
0.05640035692221943,0.518,0.42559964307778053
0.05682224146139479,0.519,0.4241777585386052
0.057,0.5194183968600969,0.423581603139903
0.05725529232857129,0.52,0.4227447076714287
0.05769748836390222,0.521,0.4213025116360978
0.058,0.521678973543636,0.42032102645636393
0.05814779588424109,0.522,0.41985220411575885
0.05861143461876441,0.523,0.4183885653812356
0.059,0.5238314640282284,0.4171685359717716
0.05908139983779922,0.524,0.4169186001622007
0.060059955563199166,0.526,0.41394004443680077
0.061,0.527835196557823,0.4111648034421771
0.06108767734626513,0.528,0.4109123226537349
0.06216919322995236,0.53,0.40783080677004757
0.063,0.531472445636434,0.405527554363566
0.0633096043116082,0.532,0.4046903956883918
0.06451455420620328,0.534,0.40148544579379664
0.065,0.5347804490615597,0.4002195509384403
0.06579031079605499,0.536,0.39820968920394495
0.067,0.537789970027857,0.39521002997214305
0.06714869162993313,0.538,0.3948513083700669
0.06860285730700069,0.54,0.3913971426929993
0.069,0.5405281387468026,0.39047186125319744
0.07016052422004529,0.542,0.3878394757799547
0.071,0.5430195677305586,0.38598043226944145
0.0718448710992279,0.544,0.3841551289007721
0.072,0.5441785091735494,0.3838214908264507
0.07274193694687923,0.545,0.3822580630531207
0.073,0.5452833348723536,0.38171666512764646
0.07367885752673149,0.546,0.3803211424732684
0.074,0.5463361796574283,0.37966382034257173
0.0746600021403773,0.547,0.3783399978596227
0.075,0.5473390898433166,0.37766091015668346
0.07569029392327924,0.548,0.37630970607672076
0.076,0.5482940279359931,0.3757059720640069
0.07677530612700509,0.549,0.37422469387299484
0.077,0.5492028770396636,0.3737971229603364
0.07792137898646959,0.55,0.3720786210135304
0.078,0.5500674449857831,0.37193255501421696
0.079,0.5508889558630038,0.37011104413699625
0.07914130776560664,0.551,0.36985869223439327
0.08,0.5516690886468301,0.36833091135317
0.08044467000815901,0.552,0.36755532999184093
0.081,0.5524097675531089,0.36659023244689115
0.08183871314287847,0.553,0.36516128685712146
0.082,0.5531125426329104,0.3648874573670896
0.083,0.5537778797991989,0.36322212020080114
0.08335081035333479,0.554,0.36264918964666515
0.084,0.554407555811271,0.36159244418872905
0.08499410771134083,0.555,0.3600058922886591
0.085,0.5550034817144484,0.3599965182855517
0.086,0.5555649845886762,0.35843501541132383
0.08681918150071034,0.556,0.3571808184992896
0.087,0.556095203537232,0.35690479646276807
0.088,0.5565935224170072,0.3554064775829928
0.08886583216836462,0.557,0.3541341678316353
0.089,0.5570624492323415,0.35393755076765854
0.09,0.5575012827563092,0.35249871724369086
0.091,0.5579126390597307,0.3510873609402694
0.09122645946503463,0.558,0.35077354053496534
0.092,0.558295849298111,0.349704150701889
0.093,0.5586526954076354,0.3483473045923646
0.094,0.5589842476696907,0.34701575233030935
0.09405113321450573,0.559,0.3469488667854942
0.095,0.5592897954691544,0.34571020453084567
0.096,0.5595713552662085,0.34442864473379153
0.097,0.5598296042841269,0.34317039571587316
0.0977226714788368,0.56,0.3422773285211631
0.098,0.5600648246317914,0.3419351753682086
0.099,0.5602771960205907,0.34072280397940935
0.1,0.5604680631749565,0.33953193682504357
0.101,0.5606379604953784,0.3383620395046216
0.102,0.5607874072213858,0.33721259277861426
0.103,0.5609169080089392,0.3360830919910608
0.10375431850776097,0.561,0.335245681492239
0.104,0.5610268268940121,0.33497317310598795
0.105,0.5611174658608152,0.3338825341391848
0.106,0.5611896769222631,0.33281032307773695
0.107,0.561243909796842,0.331756090203158
0.108,0.5612806021797029,0.33071939782029713
0.109,0.5613001801753129,0.3296998198246871
0.11,0.5613030587107617,0.3286969412892383
0.111,0.5612896419307535,0.32771035806924653
0.112,0.5612603235752616,0.32673967642473845
0.113,0.5612154873407574,0.3257845126592426
0.114,0.56115550722587,0.32484449277412997
0.115,0.5610807478622829,0.3239192521377171
0.11590506054091163,0.561,0.3230949394590883
0.116,0.5609915244687107,0.3230084755312893
0.117,0.560887769833904,0.322112230166096
0.118,0.5607702095964043,0.32122979040359567
0.119,0.5606391752727237,0.32036082472727634
0.12,0.56049499043462,0.31950500956537997
0.121,0.5603379709669738,0.3186620290330262
0.122,0.5601684253153056,0.31783157468469436
0.12292629459230674,0.56,0.3170737054076932
0.123,0.5599865903067048,0.31701340969329517
0.124,0.5597919527450099,0.3162080472549901
0.125,0.5595856131865923,0.3154143868134077
0.126,0.5593678536969966,0.3146321463030034
0.127,0.5591389499722804,0.3138610500277196
0.1275784566839707,0.559,0.3134215433160292
0.128,0.5588986817287075,0.3131013182712925
0.129,0.5586470734387332,0.3123529265612668
0.13,0.5583850579059945,0.31161494209400553
0.131,0.5581128881972576,0.3108871118027424
0.13139917700543743,0.558,0.3106008229945625
0.132,0.5578299857607061,0.3101700142392939
0.133,0.5575368174175778,0.3094631825824222
0.134,0.5572341716142991,0.3087658283857009
0.1347500079875812,0.557,0.30824999201241876
0.135,0.5569219003479055,0.30807809965209454
0.136,0.5565994178185987,0.3074005821814013
0.137,0.5562680943757,0.30673190562429997
0.13778791897136,0.556,0.30621208102863995
0.138,0.5559277959690508,0.30607220403094915
0.139,0.5555777275932828,0.30542227240671715
0.14,0.5552194179554383,0.3047805820445617
0.14059789546147305,0.555,0.3044021045385269
0.141,0.5548523483768532,0.30414765162314683
0.142,0.5544763212536341,0.3035236787463659
0.143,0.5540926185680921,0.3029073814319079
0.14323597703433122,0.554,0.30276402296566873
0.144,0.5536999553124243,0.30230004468757565
0.145,0.5532995034270395,0.3017004965729605
0.1457339553387921,0.553,0.3012660446612079
0.146,0.5528913729787938,0.3011086270212062
0.147,0.5524747589690245,0.30052524103097544
0.148,0.5520513305134656,0.2999486694865344
0.14811889339499704,0.552,0.2998811066050029
0.149,0.5516193758421877,0.2993806241578123
0.15,0.5511806662204228,0.29881933377957715
0.15040489407376567,0.551,0.2985951059262343
0.151,0.5507343072064746,0.2982656927935253
0.152,0.5502808508669601,0.2977191491330399
0.15261017804635835,0.55,0.2973898219536416
0.153,0.5498204706770842,0.2971795293229158
0.154,0.5493527832689516,0.2966472167310483
0.15474432598959834,0.549,0.29625567401040165
0.155,0.5488787501430878,0.2961212498569121
0.156,0.5483973294477985,0.29560267055220146
0.15681540236648955,0.548,0.29518459763351035
0.157,0.5479099974707583,0.29509000252924167
0.158,0.5474153242760784,0.29458467572392155
0.15883024782459923,0.547,0.29416975217540076
0.159,0.5469150341002992,0.2940849658997008
0.16,0.5464075730208678,0.2935924269791321
0.1607947063091873,0.546,0.2932052936908127
0.161,0.5458946525439158,0.2931053474560842
0.162,0.5453748527923058,0.29262514720769417
0.16271380329401247,0.545,0.29228619670598743
0.163,0.5448496177924812,0.29215038220751877
0.164,0.5443179139043266,0.29168208609567337
0.16459188698550967,0.544,0.2914081130144903
0.165,0.5437806686374368,0.29121933136256317
0.166,0.543237481153901,0.29076251884609894
0.16643274117949913,0.543,0.29056725882050083
0.167,0.5426885189140107,0.29031148108598925
0.168,0.5421342550245983,0.28986574497540163
0.16823967619953661,0.542,0.28976032380046335
0.169,0.5415738586713307,0.2894261413286693
0.17,0.5410089128198026,0.2889910871801974
0.17001560273162586,0.541,0.2889843972683741
0.171,0.5404373552745532,0.2885626447254468
0.17175946305002976,0.54,0.2882405369499702
0.172,0.5398614010461988,0.28813859895380123
0.174,0.5386929055132603,0.28730709448673974
0.1751698157122998,0.538,0.28683018428770013
0.176,0.537504088126467,0.28649591187353307
0.178,0.5362955457672486,0.2857044542327515
0.1784833337273304,0.536,0.2855166662726696
0.18,0.5350678568320008,0.2849321431679993
0.1817134255363832,0.534,0.2842865744636167
0.182,0.5338206535118017,0.2841793464881983
0.184,0.532554954967977,0.28344504503202306
0.18486846693044914,0.532,0.28313153306955086
0.186,0.5312716429487943,0.2827283570512058
0.18795567893591034,0.53,0.2820443210640896
0.188,0.5299710805968078,0.2820289194031923
0.19,0.5286524017997493,0.2813475982002508
0.19098132520446937,0.528,0.28101867479553055
0.192,0.5273175133438325,0.2806824866561676
0.19395087002779066,0.526,0.2800491299722093
0.194,0.5259667130607679,0.28003328693923213
0.196,0.524598872050598,0.2794011279494021
0.19686910586051778,0.524,0.2791308941394822
0.198,0.5232161111160485,0.27878388888395156
0.19974025701509057,0.522,0.2782597429849094
0.2,0.5218179026536633,0.2781820973463367
0.202,0.5204044015920947,0.2775955984079054
0.20256806457695214,0.52,0.2774319354230479
0.204,0.5189770472242504,0.2770229527757496
0.205,0.5182572174814679,0.2767427825185321
0.2053558564013512,0.518,0.27664414359864875
0.206,0.5175341252651388,0.2764658747348613
0.20673561347390706,0.517,0.27626438652609286
0.207,0.5168079144496892,0.27619208555031083
0.208,0.5160781864483834,0.2759218135516166
0.20810660517080212,0.516,0.27589339482919784
0.209,0.5153443704654336,0.27565562953456646
0.20946750054468719,0.515,0.2755324994553128
0.21,0.5146075123639398,0.2753924876360603
0.21082118513734097,0.514,0.27517881486265905
0.211,0.5138676323450203,0.2751323676549797
0.212,0.5131240804690806,0.2748759195309194
0.21216613787792607,0.513,0.27483386212207395
0.213,0.5123768491895788,0.2746231508104212
0.2135024966202623,0.512,0.27449750337973766
0.214,0.5116266674812006,0.2743733325187995
0.21483218810344165,0.511,0.27416781189655837
0.215,0.5108735540426766,0.2741264459573234
0.216,0.5101168931813627,0.27388310681863737
0.21615384119072534,0.51,0.27384615880927465
0.217,0.5093566683713583,0.27364333162864174
0.21746755377107033,0.509,0.2735324462289297
0.218,0.5085935786818361,0.27340642131816395
0.2187750783229384,0.508,0.2732249216770616
0.219,0.5078276414117316,0.2731723585882684
0.22,0.5070585543761882,0.27294144562381184
0.2200758103457151,0.507,0.2729241896542849
0.221,0.5062857326033838,0.2727142673966162
0.22136854348556792,0.506,0.2726314565144321
0.222,0.5055101257841941,0.27248987421580595
0.2226555131259862,0.505,0.2723444868740138
0.223,0.504731749910614,0.27226825008938604
0.22393682184964656,0.504,0.2720631781503534
0.224,0.5039506206764891,0.2720493793235109
0.225,0.5031658440651178,0.27183415593488225
0.22521063146086817,0.503,0.2717893685391318
0.226,0.5023780879022683,0.2716219120977317
0.2264784759404043,0.502,0.27152152405959573
0.227,0.5015876359642986,0.27141236403570146
0.22774102603314417,0.501,0.27125897396685583
0.228,0.5007945027404187,0.2712054972595813
0.22899837053045233,0.5,0.27100162946954764
0.229,0.49999870244374667,0.27100129755625335
0.23,0.4991991503261541,0.27080084967384593
0.23024837806906118,0.499,0.2707516219309388
0.231,0.4983969636968664,0.2706030363031336
0.23149340446761438,0.498,0.27050659553238565
0.232,0.4975921630263906,0.27040783697360943
0.23273354369122612,0.497,0.2702664563087739
0.233,0.49678476141375744,0.2702152385862426
0.2339688730150732,0.496,0.2700311269849268
0.234,0.49597477170130577,0.27002522829869424
0.235,0.4951613110853219,0.2698386889146781
0.23519775085637085,0.495,0.26980224914362916
0.236,0.49434516004063284,0.2696548399593672
0.23642175825411899,0.494,0.26957824174588096
0.237,0.4935264697256845,0.26947353027431553
0.23764123395262743,0.493,0.2693587660473725
0.238,0.49270525194894504,0.26929474805105497
0.23885624553900708,0.492,0.2691437544609929
0.239,0.4918815182792483,0.2691184817207517
0.24,0.49105497301930273,0.2689450269806973
0.24006629821881828,0.491,0.2689337017811817
0.241,0.49022528866090004,0.26877471133909997
0.24127085884269836,0.49,0.2687291411573016
0.242,0.4893931333508656,0.2686068666491344
0.24247119968530112,0.489,0.26852880031469895
0.243,0.48855851769526604,0.26844148230473397
0.24366738012707315,0.488,0.2683326198729269
0.244,0.48772145207551443,0.2682785479244856
0.24485945802477385,0.487,0.2681405419752262
0.245,0.48688194665087214,0.26811805334912786
0.246,0.4860397874954869,0.26796021250451313
0.24604710301775726,0.486,0.2679528969822428
0.247,0.4851945599557817,0.2678054400442183
0.24722965338883773,0.485,0.2677703466111623
0.248,0.4843469332670137,0.2676530667329863
0.24840831135772393,0.484,0.2675916886422761
0.249,0.48349691669934314,0.26750308330065686
0.24958312800266644,0.483,0.26741687199733355
0.25,0.4826445193135717,0.2673554806864283
0.25075415313552285,0.482,0.26724584686447717
0.251,0.48178974996324136,0.26721025003675863
0.25192143533933914,0.481,0.26707856466066093
0.252,0.4809326172966704,0.2670673827033296
0.253,0.4800727170468222,0.2669272829531778
0.2530843510456677,0.48,0.2669156489543323
0.254,0.4792101017175307,0.2667898982824693
0.2542430344380393,0.479,0.2667569655619607
0.255,0.47834515916609793,0.26665484083390206
0.25539815234659935,0.478,0.26660184765340067
0.256,0.4774778972242028,0.2665221027757972
0.25654974787486107,0.477,0.26645025212513895
0.257,0.4766083235288798,0.2663916764711202
0.2576978630952114,0.476,0.26630213690478866
0.258,0.47573644552420435,0.26626355447579564
0.2588425390779901,0.475,0.26615746092201
0.259,0.4748622704629243,0.2661377295370757
0.2599838159195528,0.474,0.26601618408044725
0.26,0.47398580540803603,0.26601419459196396
0.261,0.47310644697057336,0.26589355302942663
0.2611208032568179,0.473,0.26587919674318206
0.262,0.47222474258481306,0.2657752574151869
0.2622543782530975,0.472,0.2657456217469025
0.263,0.47134077956320836,0.26565922043679163
0.2633847015665845,0.471,0.2656152984334156
0.264,0.47045456421995413,0.26554543578004586
0.26451180894207243,0.47,0.26548819105792765
0.265,0.4695661026878926,0.26543389731210737
0.26563573529875895,0.469,0.2653642647012411
0.266,0.46867540091978577,0.2653245990802142
0.2667565147522345,0.468,0.2652434852477655
0.267,0.46778246468953893,0.26521753531046105
0.26787418063573737,0.467,0.26512581936426255
0.268,0.46688729959337755,0.26511270040662244
0.2689887655207026,0.466,0.26501123447929736
0.269,0.4659899110509757,0.2650100889490243
0.27,0.46508978357781006,0.2649102164221899
0.2700995608129709,0.465,0.26490043918702916
0.271,0.46418739617433064,0.26481260382566935
0.271207282885085,0.464,0.264792717114915
0.272,0.4632828118459267,0.2647171881540733
0.2723120448022198,0.463,0.26468795519778016
0.273,0.46237603532366484,0.26462396467633514
0.2734138757277237,0.462,0.2645861242722763
0.274,0.461467071168343,0.26453292883165697
0.274512804172366,0.461,0.26448719582763397
0.275,0.4605559237713532,0.2644440762286468
0.27560885801064083,0.46,0.26439114198935915
0.276,0.45964259735550034,0.26435740264449964
0.2767020644965519,0.459,0.2642979355034481
0.277,0.45872709597577843,0.26427290402422154
0.27779245027889815,0.458,0.2642075497211018
0.278,0.4578094235201034,0.2641905764798966
0.2788800414160782,0.457,0.26411995858392184
0.279,0.4568895837100039,0.2641104162899961
0.27996486339043036,0.456,0.2640351366095696
0.28,0.4559675801012694,0.26403241989873055
0.281,0.4550431620727522,0.2639568379272478
0.281046607264927,0.455,0.26395339273507307
0.282,0.4541164088905562,0.26388359110944376
0.28212540359533517,0.454,0.2638745964046649
0.283,0.45318751306279426,0.2638124869372058
0.2832015265098384,0.453,0.26379847349016156
0.284,0.45225647751008907,0.2637435224899109
0.28427499891292624,0.452,0.2637250010870737
0.285,0.45132330499136436,0.2636766950086357
0.28534584320967404,0.451,0.26365415679032594
0.286,0.4503879981042548,0.2636120018957452
0.28641408131726925,0.45,0.2635859186827307
0.287,0.4494505592854814,0.2635494407145187
0.2874797346761925,0.449,0.2635202653238075
0.288,0.4485109908111817,0.2634890091888183
0.2885428242610619,0.448,0.26345717573893807
0.289,0.44756929479720564,0.26343070520279444
0.2896033705911535,0.447,0.2633966294088465
0.29,0.44662547319936574,0.2633745268006342
0.29066139374060873,0.446,0.26333860625939126
0.291,0.44567952781365433,0.26332047218634574
0.2917169133483385,0.445,0.2632830866516615
0.292,0.4447314602764143,0.26326853972358566
0.2927699486276366,0.444,0.2632300513723634
0.293,0.4437812720644775,0.2632187279355226
0.29382051837550777,0.443,0.2631794816244922
0.294,0.44282896449525655,0.2631710355047434
0.29486864098172616,0.442,0.26313135901827384
0.295,0.44187453872680454,0.2631254612731955
0.29591433443762477,0.441,0.2630856655623753
0.296,0.4409179957578279,0.26308200424217204
0.29695761634463536,0.44,0.26304238365536464
0.297,0.43995933642766744,0.26304066357233263
0.29799850392257465,0.439,0.26300149607742535
0.298,0.438998561416232,0.26300143858376795
0.299,0.4380354572378539,0.26296454276214615
0.2990367643899679,0.438,0.26296323561003215
0.3,0.43707024169609393,0.262929758303906
0.3000726710373892,0.437,0.2629273289626108
0.301,0.43610292365769077,0.2628970763423093
0.3011062498441037,0.436,0.2628937501558963
0.302,0.4351335032128746,0.26286649678712537
0.30213751632777125,0.435,0.2628624836722287
0.303,0.4341619802932368,0.26283801970676324
0.30316648566907617,0.434,0.2628335143309239
0.304,0.4331883546714469,0.26281164532855306
0.3041931727185002,0.433,0.2628068272814998
0.305,0.4322126259609365,0.26278737403906355
0.3052175920029115,0.432,0.2627824079970886
0.306,0.43123479361553674,0.2627652063844632
0.30623975773196305,0.431,0.2627602422680369
0.307,0.43025485692908205,0.262745143070918
0.30725968380431806,0.43,0.262740316195682
0.308,0.4292728150349673,0.26272718496503267
0.30827738381369607,0.429,0.26272261618630394
0.309,0.42828866690567036,0.2627113330943297
0.3092928710547566,0.428,0.26270712894524334
0.31,0.42730241135222785,0.2626975886477721
0.3103061585288148,0.427,0.2626938414711852
0.311,0.42631404702367587,0.2626859529763242
0.3113172589494035,0.426,0.26268274105059647
0.312,0.42532357240644236,0.2626764275935576
0.3123261847476775,0.425,0.26267381525232253
0.313,0.4243309858237049,0.2626690141762952
0.3133329480776738,0.424,0.26266705192232614
0.314,0.4233362854346989,0.262663714565301
0.31433756082142317,0.423,0.26266243917857685
0.315,0.42233946923399074,0.2626605307660093
0.3153400345939251,0.422,0.2626599654060749
0.316,0.4213405350506999,0.26265946494930004
0.3163403807479843,0.421,0.2626596192520157
0.317,0.42033948054768566,0.2626605194523144
0.3173386103789172,0.42,0.2626613896210828
0.318,0.4193363032206824,0.26266369677931756
0.3183347343291285,0.419,0.2626652656708715
0.319,0.4183310003973973,0.26266899960260276
0.3193287631925655,0.418,0.2626712368074346
0.32,0.4173235692365567,0.2626764307634432
0.3203207073190483,0.417,0.26267929268095164
0.321,0.4163140067269135,0.26268599327308656
0.3213105768184871,0.416,0.26268942318151284
0.322,0.4153023096862017,0.26269769031379825
0.32229838156498003,0.415,0.26270161843502
0.323,0.4142884747600519,0.2627115252399482
0.3232841312008057,0.414,0.26271586879919434
0.324,0.4132724984208514,0.26272750157914854
0.32426783514030233,0.413,0.2627321648596977
0.325,0.4122543769665652,0.26274562303343485
0.3252495025736479,0.412,0.2627504974263521
0.326,0.4112341065194999,0.26276589348050006
0.3262291424705326,0.411,0.26277085752946744
0.327,0.41021168302502653,0.2627883169749735
0.32720676358373757,0.41,0.26279323641626245
0.328,0.40918710225024585,0.2628128977497541
0.3281823744526124,0.409,0.2628176255473876
0.329,0.4081603597826107,0.2628396402173893
0.32915598340646357,0.408,0.26284401659353646
0.33,0.4071314510284894,0.2628685489715105
0.33012759856784657,0.407,0.26287240143215346
0.331,0.40610037121168396,0.2628996287883161
0.33206487898883597,0.405,0.262935121011164
0.333,0.40403167836310194,0.2629683216368981
0.33399424096487523,0.403,0.2630057590351247
0.335,0.40195394638377824,0.2630460536162218
0.33591532654573475,0.401,0.2630846734542652
0.337,0.3998671610966189,0.2631328389033811
0.3378285979825945,0.399,0.2631714020174054
0.339,0.39777147549703257,0.26322852450296746
0.3397341079630083,0.397,0.2632658920369917
0.341,0.3956668373349559,0.26333316266504414
0.341631906280524,0.395,0.263368093719476
0.343,0.393553191101296,0.26344680889870403
0.34352203991339997,0.393,0.26347796008659996
0.344,0.39249297170250524,0.2635070282974948
0.3444642464024011,0.392,0.26353575359759895
0.345,0.3914304779569306,0.26356952204306944
0.3454045530990432,0.391,0.2635954469009567
0.346,0.39036570197700693,0.2636342980229931
0.34634296511628815,0.39,0.26365703488371184
0.347,0.38929863565738126,0.26370136434261876
0.3472794874043768,0.389,0.26372051259562324
0.348,0.38822927067230983,0.2637707293276902
0.348214124752819,0.388,0.263785875247181
0.349,0.3871575984729795,0.26384240152702054
0.3491468817923262,0.387,0.26385311820767376
0.35,0.3860836102847529,0.2639163897152471
0.3500777629966901,0.386,0.26392223700330997
0.351,0.3850072971043358,0.26399270289566423
0.3510067726846063,0.385,0.26399322731539376
0.3519335174858749,0.384,0.2640664825141251
0.352,0.3839281771982058,0.2640718228017942
0.3528583485593597,0.383,0.2641416514406403
0.353,0.38284664766791476,0.26415335233208526
0.3537813106487954,0.382,0.2642186893512045
0.354,0.3817627468408405,0.2642372531591595
0.3547024075308971,0.381,0.2642975924691029
0.355,0.3806764645750436,0.2643235354249564
0.35562164283389086,0.38,0.26437835716610913
0.356,0.37958779048011765,0.26441220951988237
0.3565390200390741,0.379,0.2644609799609259
0.357,0.37849671391374956,0.26450328608625046
0.3574545424823285,0.378,0.26454545751767145
0.358,0.3774032239781867,0.2645967760218133
0.35836821335558683,0.377,0.2646317866444132
0.359,0.37630730951660674,0.2646926904833933
0.35928003570825423,0.376,0.2647199642917458
0.36,0.3752089591093884,0.2647910408906116
0.36019001244858545,0.375,0.2648099875514145
0.361,0.3741081610702812,0.2648918389297188
0.36109814634501824,0.374,0.26490185365498176
0.362,0.3730049034424712,0.2649950965575288
0.36200444002746424,0.373,0.26499555997253577
0.36290835934608295,0.372,0.2650916406539171
0.363,0.3718984893646996,0.2651015106353004
0.3638104082389025,0.371,0.2651895917610976
0.364,0.3707895375946666,0.2652104624053334
0.36471061516992764,0.37,0.26528938483007236
0.365,0.3696780683135834,0.2653219316864166
0.36560898226903793,0.369,0.2653910177309621
0.366,0.36856406818853726,0.26543593181146274
0.3665055115320425,0.368,0.2654944884679574
0.367,0.36744752358894617,0.26555247641105384
0.367400204821757,0.367,0.26559979517824295
0.368,0.36632842058180604,0.26567157941819397
0.36829306386904215,0.366,0.26570693613095786
0.369,0.36520674492680866,0.26579325507319135
0.36918409027380505,0.365,0.26581590972619495
0.37,0.36408248207132954,0.26591751792867047
0.3700732855059639,0.364,0.26592671449403615
0.3709604225506779,0.363,0.26603957744932205
0.371,0.36295530959195005,0.26604469040804996
0.37184529652207793,0.362,0.26615470347792203
0.372,0.3618249272431999,0.2661750727568001
0.3727283345368338,0.361,0.2662716654631663
0.373,0.3606918894016478,0.2663081105983522
0.37360953758372334,0.36,0.2663904624162766
0.374,0.3595561799047868,0.2664438200952132
0.37448890652463956,0.359,0.2665110934753605
0.375,0.3584177822434602,0.2665822177565398
0.37536644209536674,0.358,0.2666335579046333
0.376,0.3572766795558033,0.2667233204441967
0.3762421449063222,0.357,0.2667578550936778
0.377,0.3561328546210198,0.2668671453789802
0.37711601544326595,0.356,0.266883984556734
0.37798798562016805,0.355,0.267012014379832
0.378,0.35498619298823636,0.26701380701176364
0.3788574501556089,0.354,0.2671425498443911
0.379,0.353835812479454,0.267164187520546
0.37972507498251196,0.353,0.26727492501748806
0.38,0.3526826306541555,0.2673173693458445
0.38059086011483767,0.352,0.26740913988516235
0.381,0.351526628421804,0.267473371578196
0.38145480544390986,0.351,0.26754519455609016
0.382,0.35036778629042103,0.26763221370957896
0.3823169107389516,0.35,0.26768308926104845
0.383,0.34920608435904704,0.26779391564095295
0.38317717564759085,0.349,0.26782282435240923
0.384,0.348041502309995,0.267958497690005
0.3840355996963364,0.348,0.26796440030366364
0.38489157209675035,0.347,0.26810842790324974
0.385,0.3468731106018184,0.2681268893981816
0.38574549258263857,0.346,0.26825450741736145
0.386,0.345701470536628,0.268298529463372
0.3865975621147168,0.345,0.2684024378852832
0.387,0.34452685864344446,0.26847314135655553
0.3874477797510321,0.344,0.26855222024896797
0.388,0.343349252412812,0.268650747587188
0.38829614442951366,0.343,0.2687038555704863
0.389,0.3421686288656637,0.2688313711343363
0.38914265496828643,0.342,0.2688573450317136
0.38998723889355563,0.341,0.2690127611064443
0.39,0.34098485426550296,0.26901514573449703
0.3908291568488333,0.34,0.2691708431511666
0.391,0.3397967513866654,0.2692032486133346
0.3916692085737507,0.339,0.2693307914262492
0.392,0.3386055285793376,0.26939447142066236
0.39250739241560395,0.338,0.269492607584396
0.393,0.3374111603790223,0.2695888396209777
0.393343706602162,0.337,0.269656293397838
0.394,0.336213620789021,0.269786379210979
0.3941781492418229,0.336,0.26982185075817716
0.395,0.3350128832692428,0.2699871167307572
0.39501071832374207,0.335,0.26998928167625785
0.3958405313752826,0.334,0.27015946862471735
0.396,0.3338074900445436,0.2701925099554564
0.396668399163921,0.333,0.27033160083607893
0.397,0.33259871420914866,0.2704012857908513
0.3974943789054993,0.332,0.27050562109450066
0.398,0.3313866231031338,0.27061337689686615
0.39831846811226845,0.331,0.27068153188773153
0.399,0.33017118728975053,0.27082881271024944
0.3991406641766675,0.33,0.2708593358233325
0.39996074925020164,0.329,0.27103925074979834
0.4,0.3289520145235811,0.2710479854764189
0.4007781516497534,0.328,0.2712218483502466
0.401,0.32772810192178775,0.2712718980782122
0.4015936446753237,0.327,0.27140635532467633
0.402,0.3265007152958109,0.2714992847041891
0.4024072252343193,0.326,0.2715927747656806
0.403,0.32526982196103554,0.27173017803896443
0.4032188901131698,0.325,0.2717811098868302
0.404,0.32403538853748287,0.2719646114625171
0.4040286359771736,0.324,0.27197136402282635
0.40483556578282803,0.323,0.272164434217172
0.405,0.3227958091653939,0.27220419083460606
0.4056404051991963,0.322,0.2723595948008037
0.406,0.3215523066750566,0.2724476933249434
0.40644330719835986,0.321,0.27255669280164013
0.407,0.3203051183298765,0.27269488167012346
0.40724426794859664,0.32,0.2727557320514034
0.408,0.3190542070061112,0.2729457929938889
0.40804328349514957,0.319,0.2729567165048505
0.408839483566002,0.318,0.2731605164339979
0.409,0.31779795230043956,0.2732020476995604
0.4096334873485315,0.317,0.27336651265146855
0.41,0.3165374272630619,0.2734625727369382
0.41042552565546675,0.316,0.27357447434453325
0.411,0.31527301784163686,0.2737269821583631
0.4112155940218329,0.315,0.27378440597816706
0.412,0.314004682677873,0.27399531732212706
0.41200368785708597,0.314,0.27399631214291403
0.4127886699241009,0.313,0.2742113300758991
0.413,0.31273022764931063,0.27426977235068933
0.4135716403381826,0.312,0.2744283596618174
0.414,0.31145167535166174,0.27454832464833834
0.4143526140070034,0.311,0.2746473859929966
0.415,0.31016901813779535,0.2748309818622046
0.4151315858141361,0.31,0.2748684141858639
0.4159080605431635,0.309,0.27509193945683647
0.416,0.30888124786703364,0.27511875213296644
0.41668180917971887,0.308,0.27531819082028114
0.417,0.307587851855704,0.275412148144296
0.4174535321284516,0.307,0.2755464678715484
0.418,0.30629015582013325,0.2757098441798668
0.4182232237319574,0.306,0.2757767762680426
0.4189908295982299,0.305,0.27600917040177014
0.419,0.30498801055061475,0.2760119894493852
0.41975519379632037,0.304,0.2762448062036796
0.42,0.30367900746047444,0.27632099253952563
0.4205175011493826,0.303,0.27648249885061743
0.421,0.3023654914765743,0.27663450852342564
0.4212777454421945,0.302,0.27672225455780547
0.422,0.3010474072539086,0.27695259274609146
0.4220359203239528,0.301,0.27696407967604725
0.4227909186169278,0.3,0.27720908138307215
0.423,0.29972236404456637,0.2772776359554336
0.42354363626956953,0.299,0.27745636373043053
0.424,0.29839217494163306,0.277607825058367
0.4242942568296804,0.298,0.27770574317031965
0.425,0.2970571794609722,0.27794282053902775
0.4250427733658233,0.297,0.2779572266341767
0.4257880691431348,0.296,0.2782119308568652
0.426,0.29571487523634493,0.27828512476365513
0.4265310133550075,0.295,0.2784689866449925
0.427,0.29436707894151104,0.2786329210584889
0.4272718240312878,0.294,0.2787281759687122
0.428,0.2930142151987039,0.27898578480129615
0.42801049363872995,0.293,0.2789895063612701
0.42874569008064534,0.292,0.2792543099193547
0.429,0.2916531916424267,0.27934680835757325
0.42947866703682747,0.291,0.27952133296317255
0.43,0.29028676293819594,0.2797132370618041
0.4302094715017445,0.29,0.27979052849825553
0.4309377725788094,0.289,0.28006222742119063
0.431,0.2889142207681391,0.28008577923186084
0.43166278333230057,0.288,0.28033721666769945
0.432,0.287533620422212,0.2804663795777881
0.43238558866929866,0.287,0.28061441133070136
0.433,0.28614743105729706,0.2808525689427029
0.4331061799359967,0.286,0.28089382006400326
0.43382363848087907,0.285,0.2811763615191209
0.434,0.2847533438482177,0.28124665615178235
0.4345383058417231,0.284,0.2814616941582769
0.435,0.2833520781010758,0.2816479218989241
0.4352507241357126,0.283,0.2817492758642874
0.43596068202369237,0.282,0.2820393179763077
0.436,0.28194437240732473,0.28205562759267533
0.4373711672755197,0.28,0.28262883272448025
0.438,0.27910403525934024,0.2828959647406598
0.43877130122371905,0.278,0.2832286987762809
0.44,0.27623122034930425,0.2837687796506958
0.44016022753072653,0.276,0.2838397724692734
0.4415374215228724,0.274,0.2844625784771275
0.442,0.2733244728688594,0.28467552713114064
0.4429038063535988,0.272,0.28509619364640115
0.444,0.27038165149857696,0.2856183485014231
0.44425782163992555,0.27,0.28574217836007443
0.4456001019080437,0.268,0.2863998980919562
0.446,0.2674004176522076,0.2865995823477924
0.4469308756409817,0.266,0.2870691243590182
0.448,0.26437821099368936,0.2876217890063107
0.4482486253862754,0.264,0.2877513746137246
0.4495540565640459,0.262,0.2884459434359541
0.45,0.2613122211747819,0.2886877788252181
0.45084724292042,0.26,0.28915275707958
0.452,0.25819935509244046,0.2898006449075596
0.4521272686394897,0.258,0.2898727313605103
0.4533937942937407,0.256,0.2906062057062593
0.454,0.25503619881230016,0.2909638011876999
0.45464729212727045,0.254,0.2913527078727296
0.45588746618024345,0.252,0.29211253381975655
0.456,0.2518169205308266,0.29218307946917343
0.4571134530146034,0.25,0.2928865469853966
0.458,0.24853817432355485,0.2934618256764452
0.4583250244957314,0.248,0.2936749755042686
0.45952242207294874,0.246,0.2944775779270512
0.46,0.24519556342642554,0.29480443657357447
0.46070532487053617,0.244,0.29529467512946384
0.4618734050387828,0.242,0.2961265949612172
0.462,0.24178103474245966,0.2962189652575404
0.4630261996154852,0.24,0.2969738003845148
0.464,0.23828762153331906,0.29771237846668097
0.4641629564478733,0.238,0.2978370435521267
0.4652839431213385,0.236,0.29871605687866154
0.466,0.23470680853144035,0.2992931914685597
0.46638880256225657,0.234,0.29961119743774345
0.46693551852869897,0.233,0.30006448147130105
0.467,0.23288101514170484,0.3001189848582951
0.46747716950201956,0.232,0.30052283049798045
0.468,0.23102901780938453,0.30097098219061547
0.4680156157040211,0.231,0.30098438429597885
0.4685486701957197,0.23,0.30145132980428024
0.469,0.22914805408524277,0.3018519459147573
0.46907838804590357,0.229,0.3019216119540965
0.46960292212877014,0.228,0.30239707787122994
0.47,0.22723772169883086,0.3027622783011692
0.4701237595052867,0.227,0.3028762404947133
0.47063953371083334,0.226,0.3033604662891667
0.471,0.2252958111222798,0.3037041888777202
0.47115133443658425,0.225,0.3038486655634157
0.471658103956384,0.224,0.30434189604361594
0.472,0.22331987649634907,0.3046801235036509
0.47216070765072565,0.223,0.3048392923492743
0.4726582221511953,0.222,0.3053417778488048
0.473,0.2213072021082463,0.30569279789175374
0.47315146407491177,0.221,0.3058485359250883
0.4736394675039894,0.22,0.3063605324960106
0.474,0.2192547629723701,0.3067452370276299
0.47412317839716706,0.219,0.3068768216028329
0.47460140878244855,0.218,0.3073985912175514
0.475,0.21715917826595244,0.3078408217340476
0.47507541469485703,0.217,0.307924585305143
0.47554360393272693,0.216,0.30845639606727304
0.476,0.2150166560602555,0.3089833439397445
0.4760077260462888,0.215,0.3089922739537112
0.47646559968155283,0.214,0.30953440031844726
0.476919275801708,0.213,0.310080724198292
0.477,0.21281975917017865,0.3101802408298214
0.4773669311199468,0.212,0.31063306888005315
0.4778098399017712,0.211,0.31119016009822886
0.478,0.21056527369844144,0.31143472630155855
0.4782471212675215,0.21,0.3117528787324786
0.478678970882102,0.209,0.31232102911789805
0.479,0.2082477720622824,0.3127522279377176
0.4791056806162554,0.208,0.31289431938374457
0.47952617201644915,0.207,0.31347382798355083
0.47994183660118916,0.206,0.3140581633988109
0.48,0.20585789580088087,0.31414210419911914
0.4803509333023911,0.205,0.31464906669760895
0.4807547476032795,0.204,0.3152452523967205
0.481,0.2033838997465646,0.31561610025343545
0.4811527309475645,0.203,0.3158472690524355
0.48154437614835727,0.202,0.31645562385164266
0.48193070723969295,0.201,0.317069292760307
0.482,0.2008174823989456,0.3171825176010544
0.4823101758774967,0.2,0.3176898241225033
0.4826838133672608,0.199,0.31831618663273914
0.483,0.1981403345375182,0.3188596654624818
0.48305158521797137,0.198,0.3189484147820287
0.4834121885414197,0.197,0.31958781145858023
0.48376695899508787,0.196,0.32023304100491207
0.484,0.1953310238999783,0.3206689761000217
0.48411524628365965,0.195,0.32088475371634034
0.4844564223834755,0.194,0.32154357761652447
0.48479143143589143,0.193,0.32220856856410857
0.485,0.1923645838097286,0.3226354161902714
0.4851196004894277,0.192,0.3228803995105723
0.48544043147022486,0.191,0.32355956852977513
0.48575474758876913,0.19,0.32424525241123087
0.486,0.18920223403445446,0.32479776596554555
0.48606213498574086,0.189,0.3249378650142592
0.48636166432444317,0.188,0.32563833567555683
0.4866543165171284,0.187,0.3263456834828716
0.48693995562531467,0.186,0.32706004437468533
0.487,0.18578372573790075,0.32721627426209926
0.4872174572730253,0.185,0.32778254272697477
0.4874874326162965,0.184,0.32851256738370344
0.48775001146780833,0.183,0.3292499885321916
0.488,0.18201972503597752,0.3299802749640225
0.48800502726184514,0.182,0.32999497273815487
0.4882512682305254,0.181,0.33074873176947467
0.4884897126057854,0.18,0.33151028739421456
0.4887202102836251,0.179,0.3322797897163749
0.48894260882106794,0.178,0.333057391178932
0.489,0.1777312365441269,0.3332687634558731
0.48915605278013574,0.177,0.33384394721986427
0.48936086867117506,0.176,0.334639131328825
0.48955715408874817,0.175,0.3354428459112518
0.489744747238081,0.174,0.3362552527619191
0.4899234837207587,0.173,0.33707651627924134
0.49,0.17254819074927727,0.3374518092507227
0.49009278254759503,0.172,0.337907217452405
0.4902525902644659,0.171,0.3387474097355341
0.49040307515546305,0.17,0.33959692484453685
0.4905440623900975,0.169,0.34045593760990245
0.490675374231349,0.168,0.34132462576865097
0.4907968299673576,0.167,0.34220317003264245
0.4909082458411371,0.166,0.34309175415886284
0.491,0.16509292074994242,0.3439070792500576
0.4910093934307341,0.165,0.34399060656926594
0.49109976657053783,0.164,0.3449002334294621
0.4911795771285813,0.163,0.3458204228714187
0.49124862910674594,0.162,0.34675137089325403
0.4913067230926243,0.161,0.3476932769073757
0.49135365617610316,0.16,0.3486463438238968
0.4913892218634146,0.159,0.34961077813658537
0.49141320998856225,0.158,0.3505867900114378
0.49142540662202283,0.157,0.35157459337797714
0.4914255939766217,0.156,0.3525744060233783
0.49141355031047323,0.155,0.3535864496895267
0.49138904982687537,0.154,0.3546109501731246
0.4913518625710406,0.153,0.3556481374289594
0.4913017543235403,0.152,0.3566982456764597
0.4912384864903352,0.151,0.3577615135096648
0.49116181598925657,0.15,0.3588381840107434
0.4910714951328006,0.149,0.3599285048671994
0.491,0.1483132307145592,0.3606867692854408
0.49096712946721216,0.148,0.36103287053278776
0.4908482326982944,0.147,0.3621517673017056
0.4907148522209635,0.146,0.36328514777903653
0.49056671968911214,0.145,0.36443328031088784
0.49040356148247555,0.144,0.36559643851752444
0.4902250985633706,0.143,0.3667749014366294
0.49003104632854116,0.142,0.3679689536714589
0.49,0.1418516551449196,0.3681483448550804
0.48982034318211276,0.141,0.3691796568178872
0.48959326223347266,0.14,0.3704067377665273
0.4893496340905212,0.139,0.37165036590947875
0.4890891491391016,0.138,0.37291085086089837
0.489,0.1376781405059164,0.3733218594940836
0.48881068120164184,0.137,0.37418931879835815
0.48851426131362696,0.136,0.375485738686373
0.48819994228646796,0.135,0.376800057713532
0.488,0.13439791489287328,0.37760208510712673
0.4878668176972629,0.134,0.37813318230273707
0.48751417594600377,0.133,0.3794858240539962
0.4871425215863138,0.132,0.3808574784136861
0.487,0.1316346985300034,0.3813653014699966
0.48675042947993813,0.131,0.3822495705200619
0.4863379017841968,0.13,0.3836620982158032
0.486,0.1292185381728011,0.3847814618271989
0.48590476463915006,0.129,0.3850952353608499
0.4854495048980775,0.128,0.3865504951019225
0.485,0.12705613664883952,0.3879438633511605
0.48497305662265455,0.127,0.38802694337734545
0.48447311685905836,0.126,0.38952688314094164
0.484,0.12509322130850184,0.39090677869149815
0.4839509820679899,0.125,0.3910490179320101
0.4834043192339782,0.124,0.3925956807660218
0.483,0.12328946104509732,0.3937105389549027
0.48283400610328486,0.123,0.39416599389671514
0.48223847581236884,0.122,0.3957615241876312
0.482,0.12161421651075863,0.39638578348924136
0.48161736837084057,0.121,0.39738263162915943
0.481,0.1200451327106139,0.3989548672893861
0.48097059315081236,0.12,0.39902940684918764
0.48029606792178386,0.119,0.4007039320782162
0.48,0.11857628591428791,0.4014237140857121
0.47959420562833316,0.118,0.4024057943716669
0.479,0.11718478421407674,0.4038152157859233
0.4788642699176689,0.117,0.40413573008233117
0.4781049267809694,0.116,0.4058950732190306
0.478,0.11586623587368128,0.40613376412631874
0.477315262034471,0.115,0.40768473796552906
0.477,0.11461387384923732,0.4083861261507627
0.4764949189089325,0.114,0.40950508109106754
0.476,0.11341722749051102,0.410582772509489
0.47564293639307703,0.113,0.41135706360692303
0.475,0.11227167636443393,0.4127283236355661
0.4747583251244043,0.112,0.4132416748755957
0.474,0.11117306899577895,0.4148269310042211
0.4738400662798716,0.111,0.4151599337201284
0.473,0.11011766337025554,0.4168823366297445
0.4728871104158747,0.11,0.4171128895841253
0.472,0.1091020762453608,0.41889792375463925
0.4718983762547571,0.109,0.41910162374524296
0.471,0.10812323978311301,0.420876760216887
0.47087274941490376,0.108,0.42112725058509626
0.47,0.10717836429847372,0.4228216357015263
0.4698090810812875,0.107,0.4231909189187125
0.469,0.10626490613907802,0.424735093860922
0.46870618661313257,0.106,0.42529381338686745
0.468,0.10538053988884331,0.4266194601111567
0.4675628440851446,0.105,0.4274371559148554
0.467,0.10452313422997796,0.428476865770022
0.46637779275852376,0.104,0.42962220724147626
0.466,0.10369073091238226,0.4303092690876178
0.46514973147772504,0.103,0.4318502685222749
0.465,0.10288152637222567,0.4321184736277742
0.464,0.10209607703681589,0.43390392296318414
0.46387678531561494,0.102,0.4341232146843851
0.463,0.10133382610452737,0.4356661738954726
0.46255724875027976,0.101,0.4364427512497202
0.462,0.10059047692065799,0.43740952307934206
0.46119032943750377,0.1,0.4388096705624963
0.461,0.09986467038424729,0.43913532961575263
0.46,0.09915870841326178,0.44084129158673824
0.45977355540985193,0.099,0.44122644459014815
0.459,0.09847122379193818,0.44252877620806175
0.4583053162289967,0.098,0.4436946837710033
0.458,0.09779795895431753,0.4442020410456825
0.457,0.09714097980505568,0.4458590201949443
0.45678389760477206,0.097,0.446216102395228
0.456,0.0965009571152834,0.44749904288471665
0.45520700650425766,0.096,0.4487929934957423
0.455,0.09587235945980382,0.4491276405401961
0.454,0.09525996700852413,0.4507400329914759
0.4535723794350729,0.095,0.45142762056492713
0.453,0.09466027131620118,0.45233972868379874
0.452,0.0940711639367063,0.45392883606329376
0.4518783988274743,0.094,0.45412160117252565
0.451,0.09349799401553387,0.45550200598446605
0.4501218465971039,0.093,0.45687815340289606
0.45,0.0929325107502841,0.45706748924971596
0.449,0.0923822049516287,0.45861779504837125
0.44830021180422713,0.092,0.45969978819577284
0.448,0.09183981680185242,0.4601601831981476
0.447,0.09130983660474902,0.46169016339525093
0.4464111250245591,0.091,0.462588874975441
0.446,0.09078863756788132,0.46321136243211875
0.445,0.09027805065938445,0.4647219493406155
0.44445154609297516,0.09,0.4655484539070248
0.444,0.08977627837588005,0.46622372162412
0.443,0.08928421517096248,0.4677157848290375
0.4424182928782459,0.089,0.4685817071217542
0.442,0.08880023628167413,0.46919976371832595
0.441,0.08832588436802945,0.4706741156319705
0.4403080326080954,0.088,0.47169196739190455
0.44,0.08785818156345854,0.4721418184365415
0.439,0.08740078073918353,0.4735992192608164
0.43811727257637384,0.087,0.47488272742362625
0.438,0.0869479412756597,0.47505205872434036
0.437,0.08650677910625003,0.4764932208937499
0.436,0.08606891399766607,0.47793108600233397
0.4358416205081139,0.086,0.4781583794918861
0.435,0.0856418924288095,0.47935810757119046
0.434,0.08521944924359116,0.4807805507564089
0.43347699749451585,0.085,0.48152300250548413
0.433,0.08480425912175302,0.4821957408782469
0.432,0.08439661854603202,0.48360338145396803
0.43101987976483436,0.084,0.4849801202351656
0.431,0.08399213169829428,0.48500786830170567
0.43,0.0835987106552067,0.4864012893447934
0.429,0.0832081489013267,0.48779185109867323
0.42846346864132673,0.083,0.4885365313586733
0.428,0.0828241153784947,0.48917588462150535
0.427,0.08244710221935299,0.490552897780647
0.426,0.08207280863054918,0.4919271913694509
0.4258042570255532,0.082,0.49219574297444685
0.425,0.08170733828490412,0.49329266171509584
0.424,0.08134596861584971,0.49465403138415037
0.4230357486027555,0.081,0.4959642513972445
0.423,0.08098745114102923,0.4960125488589707
0.422,0.0806385279099448,0.49736147209005527
0.421,0.08029208935216277,0.4987079106478372
0.42015097351624886,0.08,0.4998490264837511
0.42,0.0799491807561668,0.5000508192438333
0.419,0.07961463719217765,0.5013853628078223
0.418,0.0792824646753491,0.5027175353246509
0.4171437026528054,0.079,0.5038562973471946
0.417,0.07895361628021612,0.5040463837197838
0.416,0.07863282273553994,0.5053671772644601
0.415,0.07831429430061553,0.5066857056993844
0.41400627284829983,0.078,0.5079937271517002
0.414,0.07799805858686354,0.5080019414131365
0.413,0.07769042543547261,0.5093095745645273
0.412,0.07738495848277419,0.5106150415172259
0.411,0.0770816459862267,0.5119183540137733
0.4107291029200992,0.077,0.5122708970799008
0.41,0.07678495320226393,0.5132150467977361
0.409,0.0764920011300048,0.5145079988699952
0.408,0.0762011120477231,0.515798887952277
0.4073039222198124,0.076,0.5166960777801877
0.407,0.07591406551637163,0.5170859344836284
0.406,0.07563311470232537,0.5183668852976746
0.405,0.07535414122449208,0.519645858775508
0.404,0.07507713542379178,0.5209228645762082
0.40371974348026207,0.075,0.521280256519738
0.403,0.07480612667335408,0.5221938733266459
0.402,0.07453859078058352,0.5234614092194164
0.401,0.0742729430905667,0.5247270569094333
0.4,0.07400917491439116,0.5259908250856088
0.3999649975479187,0.074,0.5260350024520813
0.399,0.07375243842466551,0.5272475615753345
0.398,0.07349770305725471,0.5285022969427453
0.397,0.0732447733356803,0.5297552266643197
0.39602534068238177,0.073,0.5309746593176183
0.396,0.07299377158274503,0.531006228417255
0.395,0.07274952758504168,0.5322504724149583
0.394,0.07250701976866161,0.5334929802313384
0.393,0.07226624101924604,0.5347337589807539
0.392,0.07202718433158299,0.535972815668417
0.3918855459783058,0.072,0.5361144540216942
0.391,0.07179414713621944,0.5372058528637805
0.39,0.0715633315467468,0.5384366684532532
0.389,0.07133417389017045,0.5396658261098295
0.388,0.0711066678935352,0.5408933321064648
0.3875279216388149,0.071,0.5414720783611852
0.387,0.07088325427933201,0.5421167457206679
0.386,0.07066362987910565,0.5433363701208943
0.385,0.07044559724628793,0.544554402753712
0.384,0.0702291507776591,0.5457708492223409
0.383,0.07001428496209725,0.5469857150379027
0.3829330724616156,0.07,0.5470669275383844
0.382,0.069805087900314,0.548194912099686
0.381,0.0695977150749138,0.5494022849250861
0.38,0.06939186740443559,0.5506081325955644
0.379,0.06918753998503088,0.5518124600149691
0.3780753511539057,0.069,0.5529246488460944
0.378,0.06898504321579024,0.5530149567842098
0.377,0.06878789318284746,0.5542121068171525
0.376,0.06859221140553767,0.5554077885944624
0.375,0.06839799353811402,0.556602006461886
0.374,0.06820523531387158,0.5577947646861284
0.373,0.06801393254461277,0.5589860674553873
0.3729266597247158,0.068,0.5590733402752841
0.372,0.06782772075674713,0.5601722792432529
0.371,0.06764320874413259,0.5613567912558675
0.37,0.06746010426976676,0.5625398957302332
0.369,0.06727840364935557,0.5637215963506444
0.368,0.06709810327165582,0.5649018967283442
0.36745180308410685,0.067,0.5655481969158931
0.367,0.06692087761587914,0.5660791223841208
0.366,0.06674704965003188,0.5672529503499681
0.365,0.06657457728649621,0.5684254227135038
0.364,0.06640345737517787,0.5695965426248222
0.363,0.06623368683432103,0.5707663131656789
0.362,0.06606526265017039,0.5719347373498296
0.361609542016456,0.066,0.5723904579835439
0.361,0.06590030407756871,0.5730996959224313
0.36,0.06573801445177667,0.5742619855482234
0.359,0.06557702988098807,0.5754229701190119
0.358,0.06541734777107162,0.5765826522289283
0.357,0.06525896559191534,0.5777410344080847
0.356,0.06510188087717568,0.5788981191228243
0.35534616912067846,0.065,0.5796538308793215
0.355,0.0649472196474104,0.5800527803525897
0.354,0.06479595374888705,0.581204046251113
0.353,0.06464594702834728,0.5823540529716528
0.352,0.06449719740294206,0.583502802597058
0.351,0.06434970285024764,0.5846502971497524
0.35,0.06420346140809272,0.5857965385919073
0.349,0.06405847117439442,0.5869415288256056
0.3485933531650694,0.064,0.5874066468349306
0.348,0.06391652276917914,0.5880834772308209
0.347,0.06377702182636452,0.5892229781736356
0.346,0.06363873682781701,0.5903612631721831
0.345,0.06350166622088114,0.5914983337791189
0.344,0.06336580851026971,0.5926341914897303
0.343,0.06323116225797003,0.59376883774203
0.34126102665916,0.063,0.59573897334084
0.341,0.06296622748861117,0.5960337725113889
0.339,0.0627108964550313,0.5982891035449687
0.337,0.06246027136485482,0.6005397286351453
0.335,0.062214344394329754,0.6027856556056703
0.333,0.06197367951500809,0.6050263204849919
0.331,0.061742144602634934,0.6072578553973651
0.329,0.0615151792814315,0.6094848207185686
0.327,0.06129277981912372,0.6117072201808763
0.325,0.061074943338965376,0.6139250566610347
0.3243010521541155,0.061,0.6146989478458846
0.323,0.06086461831166028,0.6161353816883398
0.321,0.06066034649360323,0.6183396535063969
0.319,0.06046052785917526,0.6205394721408248
0.317,0.060265163394105155,0.6227348366058949
0.315,0.060074254931540144,0.6249257450684599
0.313,0.05989021122222005,0.62710978877778
0.311,0.059712120240103,0.6292878797598971
0.309,0.05953839266643253,0.6314616073335675
0.307,0.059369034046039375,0.6336309659539607
0.305,0.05920405077904295,0.6357959492209571
0.303,0.059043450129174446,0.6379565498708256
0.3024476841698703,0.059,0.6385523158301298
0.301,0.05888967124985998,0.6401103287501401
0.299,0.05874112878523534,0.6422588712147648
0.297,0.05859689514635401,0.644403104853646
0.295,0.05845698124594992,0.6465430187540502
0.293,0.058321398887271794,0.6486786011127282
0.291,0.05819016077623127,0.6508098392237688
0.289,0.058063280534250125,0.6529367194657499
0.287,0.05794205640862141,0.6550579435913787
0.285,0.05782649336198007,0.65717350663802
0.283,0.05771523505990675,0.6592847649400934
0.281,0.05760829884386353,0.6613917011561364
0.28,0.05755645720106984,0.6624435427989301
0.279,0.057505703021630335,0.6634942969783696
0.278,0.057456038747846064,0.6645439612521539
0.277,0.05740746688462473,0.6655925331153753
0.276,0.05735999000006935,0.6666400099999307
0.275,0.05731361072608129,0.6676863892739187
0.274,0.05726833175897759,0.6687316682410224
0.273,0.05722415586012302,0.669775844139877
0.272,0.057181085856577385,0.6708189141434227
0.271,0.05713912464175782,0.6718608753582421
0.27,0.057098275176116785,0.6729017248238832
0.269,0.057058540487835964,0.673941459512164
0.268,0.057019923673536574,0.6749800763264634
0.2674687296387685,0.057,0.6755312703612314
0.267,0.05698281025299163,0.6760171897470083
0.266,0.05694722971156018,0.6770527702884398
0.265,0.05691275162469072,0.6780872483753093
0.264,0.05687937932859907,0.6791206206714009
0.263,0.05684711623004819,0.6801528837699518
0.262,0.05681596580714909,0.6811840341928509
0.261,0.05678593161017998,0.68221406838982
0.26,0.056757017262424346,0.6832429827375757
0.259,0.056729226461027724,0.6842707735389723
0.258,0.05670256297787402,0.685297437022126
0.257,0.05667703066048194,0.6863229693395181
0.256,0.05665263343292126,0.6873473665670787
0.255,0.05662937529675019,0.6883706247032498
0.254,0.05660726033197386,0.6893927396680262
0.253,0.05658629269802427,0.6904137073019757
0.252,0.05656647663476268,0.6914335233652373
0.251,0.05654781646350438,0.6924521835364956
0.25,0.056530316588066724,0.6934696834119333
0.249,0.056513981495840825,0.6944860185041591
0.248,0.056498815758887495,0.6955011842411125
0.247,0.05648482403505783,0.6965151759649422
0.246,0.05647201106913924,0.6975279889308608
0.245,0.05646038169402738,0.6985396183059727
0.244,0.056449940831924665,0.6995500591680753
0.243,0.056440693495565755,0.7005593065044342
0.242,0.05643264478947111,0.7015673552105289
0.241,0.05642579991122878,0.7025742000887713
0.24,0.05642016415280546,0.7035798358471945
0.239,0.056415742901887334,0.7045842570981127
0.238,0.05641254164325149,0.7055874583567485
0.237,0.05641056596016876,0.7065894340398312
0.236,0.056409821535838366,0.7075901784641616
0.235,0.056410314154855756,0.7085896858451443
0.234,0.05641204970471385,0.7095879502952862
0.233,0.05641503417733896,0.7105849658226611
0.232,0.05641927367066211,0.7115807263293379
0.231,0.05642477439022651,0.7125752256097735
0.23,0.05643154265083224,0.7135684573491677
0.229,0.056439584878219255,0.7145604151217808
0.228,0.056448907610789224,0.7155510923892108
0.227,0.05645951750136775,0.7165404824986322
0.226,0.05647142131900752,0.7175285786809925
0.225,0.0564846259508339,0.7185153740491661
0.224,0.05649913840393368,0.7195008615960663
0.223,0.05651496580728843,0.7204850341927116
0.222,0.05653211541375343,0.7214678845862466
0.221,0.05655059460208344,0.7224494053979166
0.22,0.05657041087900664,0.7234295891209934
0.219,0.05659157188134803,0.724408428118652
0.218,0.056614085378203366,0.7253859146217967
0.217,0.05663795927316542,0.7263620407268346
0.216,0.056663201606603694,0.7273367983933964
0.215,0.056689820557999135,0.7283101794420009
0.214,0.05671782444833534,0.7292821755516647
0.213,0.05674722174254799,0.730252778257452
0.212,0.056778021052033806,0.7312219789479663
0.211,0.05681023113722104,0.732189768862779
0.21,0.05684386091020292,0.7331561390897972
0.209,0.056878919437436254,0.7341210805625638
0.208,0.056915415942506396,0.7350845840574937
0.207,0.05695335980896125,0.7360466401910388
0.206,0.056992760583215694,0.7370072394167844
0.2058228970224102,0.057,0.7371771029775898
0.205,0.05703435950579063,0.7379656404942094
0.204,0.05707762399672175,0.7389223760032783
0.202,0.057168718234214294,0.7408312817657857
0.2,0.05726596987787262,0.7427340301221275
